<?xml version="1.0" encoding="UTF-8" standalone="no"?>
<svg
   xmlns:dc="http://purl.org/dc/elements/1.1/"
   xmlns:cc="http://creativecommons.org/ns#"
   xmlns:rdf="http://www.w3.org/1999/02/22-rdf-syntax-ns#"
   xmlns:svg="http://www.w3.org/2000/svg"
   xmlns="http://www.w3.org/2000/svg"
   xmlns:xlink="http://www.w3.org/1999/xlink"
   xmlns:sodipodi="http://sodipodi.sourceforge.net/DTD/sodipodi-0.dtd"
   xmlns:inkscape="http://www.inkscape.org/namespaces/inkscape"
   version="1.0"
   width="468pt"
   height="338pt"
   viewBox="0 0 468 338"
   preserveAspectRatio="xMidYMid meet"
   id="svg2"
   sodipodi:version="0.32"
   inkscape:version="0.91 r13725"
   sodipodi:docname="StallFormation.svg"
   inkscape:export-filename="/home/rperezt/Documents/thesis/figures/Introduction/StallFormation.png"
   inkscape:export-xdpi="300"
   inkscape:export-ydpi="300">
  <defs
     id="defs47">
    <linearGradient
       id="linearGradient4424">
      <stop
         style="stop-color:#000000;stop-opacity:1;"
         offset="0"
         id="stop4426" />
      <stop
         id="stop4428"
         offset="0.5"
         style="stop-color:#0000ff;stop-opacity:1" />
      <stop
         style="stop-color:#0000ff;stop-opacity:1"
         offset="1"
         id="stop4430" />
    </linearGradient>
    <linearGradient
       id="linearGradient4361">
      <stop
         id="stop4363"
         offset="0"
         style="stop-color:#000000;stop-opacity:1;" />
      <stop
         style="stop-color:#d500d8;stop-opacity:1;"
         offset="0.5"
         id="stop4365" />
      <stop
         id="stop4367"
         offset="1"
         style="stop-color:#ff00ff;stop-opacity:1;" />
    </linearGradient>
    <linearGradient
       id="linearGradient4350">
      <stop
         id="stop4352"
         offset="0"
         style="stop-color:#000000;stop-opacity:1;" />
      <stop
         style="stop-color:#d500d8;stop-opacity:1;"
         offset="0.5"
         id="stop4354" />
      <stop
         id="stop4356"
         offset="1"
         style="stop-color:#ff00ff;stop-opacity:1;" />
    </linearGradient>
    <marker
       inkscape:stockid="Arrow2Mstart"
       orient="auto"
       refY="0.0"
       refX="0.0"
       id="Arrow2Mstart"
       style="overflow:visible">
      <path
         id="path3250"
         style="font-size:12.0;fill-rule:evenodd;stroke-width:0.62500000;stroke-linejoin:round"
         d="M 8.7185878,4.0337352 L -2.2072895,0.016013256 L 8.7185884,-4.0017078 C 6.9730900,-1.6296469 6.9831476,1.6157441 8.7185878,4.0337352 z "
         transform="scale(0.6) translate(-5,0)" />
    </marker>
    <marker
       inkscape:stockid="TriangleInM"
       orient="auto"
       refY="0.0"
       refX="0.0"
       id="TriangleInM"
       style="overflow:visible">
      <path
         id="path3179"
         d="M 5.77,0.0 L -2.88,5.0 L -2.88,-5.0 L 5.77,0.0 z "
         style="fill-rule:evenodd;stroke:#000000;stroke-width:1.0pt;marker-start:none"
         transform="scale(-0.4)" />
    </marker>
    <marker
       inkscape:stockid="Arrow2Lstart"
       orient="auto"
       refY="0.0"
       refX="0.0"
       id="Arrow2Lstart"
       style="overflow:visible">
      <path
         id="path3256"
         style="font-size:12.0;fill-rule:evenodd;stroke-width:0.62500000;stroke-linejoin:round"
         d="M 8.7185878,4.0337352 L -2.2072895,0.016013256 L 8.7185884,-4.0017078 C 6.9730900,-1.6296469 6.9831476,1.6157441 8.7185878,4.0337352 z "
         transform="scale(1.1) translate(-5,0)" />
    </marker>
    <marker
       inkscape:stockid="Arrow2Lend"
       orient="auto"
       refY="0.0"
       refX="0.0"
       id="Arrow2Lend"
       style="overflow:visible;">
      <path
         id="path3253"
         style="font-size:12.0;fill-rule:evenodd;stroke-width:0.62500000;stroke-linejoin:round;"
         d="M 8.7185878,4.0337352 L -2.2072895,0.016013256 L 8.7185884,-4.0017078 C 6.9730900,-1.6296469 6.9831476,1.6157441 8.7185878,4.0337352 z "
         transform="scale(1.1) rotate(180) translate(-5,0)" />
    </marker>
    <marker
       inkscape:stockid="Arrow1Lstart"
       orient="auto"
       refY="0.0"
       refX="0.0"
       id="Arrow1Lstart"
       style="overflow:visible">
      <path
         id="path3274"
         d="M 0.0,0.0 L 5.0,-5.0 L -12.5,0.0 L 5.0,5.0 L 0.0,0.0 z "
         style="fill-rule:evenodd;stroke:#000000;stroke-width:1.0pt;marker-start:none"
         transform="scale(0.8)" />
    </marker>
    <marker
       inkscape:stockid="Arrow1Lend"
       orient="auto"
       refY="0.0"
       refX="0.0"
       id="Arrow1Lend"
       style="overflow:visible;">
      <path
         id="path3271"
         d="M 0.0,0.0 L 5.0,-5.0 L -12.5,0.0 L 5.0,5.0 L 0.0,0.0 z "
         style="fill-rule:evenodd;stroke:#000000;stroke-width:1.0pt;marker-start:none;"
         transform="scale(0.8) rotate(180)" />
    </marker>
    <linearGradient
       id="linearGradient2217">
      <stop
         style="stop-color:#000000;stop-opacity:1;"
         offset="0"
         id="stop2219" />
      <stop
         id="stop2229"
         offset="0.5"
         style="stop-color:#d500d8;stop-opacity:1;" />
      <stop
         style="stop-color:#ff00ff;stop-opacity:1;"
         offset="1"
         id="stop2221" />
    </linearGradient>
    <linearGradient
       inkscape:collect="always"
       xlink:href="#linearGradient4424"
       id="linearGradient2233"
       x1="171.24866"
       y1="74.04512"
       x2="174.28412"
       y2="5.6588035"
       gradientUnits="userSpaceOnUse" />
    <linearGradient
       inkscape:collect="always"
       xlink:href="#linearGradient4424"
       id="linearGradient3110"
       gradientUnits="userSpaceOnUse"
       x1="171.24866"
       y1="74.04512"
       x2="174.28412"
       y2="5.6588035"
       gradientTransform="matrix(0.987688,0.156434,-0.156434,0.987688,7.180974,68.68963)" />
    <linearGradient
       inkscape:collect="always"
       xlink:href="#linearGradient4424"
       id="linearGradient3114"
       gradientUnits="userSpaceOnUse"
       gradientTransform="matrix(0.945518,0.325568,-0.325568,0.945518,30.1365,122.5271)"
       x1="171.24866"
       y1="74.04512"
       x2="174.28412"
       y2="5.6588035" />
  </defs>
  <sodipodi:namedview
     inkscape:window-height="1016"
     inkscape:window-width="1920"
     inkscape:pageshadow="2"
     inkscape:pageopacity="0.0"
     borderopacity="1.0"
     bordercolor="#666666"
     pagecolor="#ffffff"
     id="base"
     inkscape:zoom="1.7704142"
     inkscape:cx="253.29855"
     inkscape:cy="243.45473"
     inkscape:window-x="1680"
     inkscape:window-y="27"
     inkscape:current-layer="svg2"
     showguides="true"
     inkscape:guide-bbox="true"
     showgrid="true"
     inkscape:window-maximized="1" />
  <metadata
     id="metadata4">
Created by potrace 1.7, written by Peter Selinger 2001-2005
<rdf:RDF>
  <cc:Work
     rdf:about="">
    <dc:format>image/svg+xml</dc:format>
    <dc:type
       rdf:resource="http://purl.org/dc/dcmitype/StillImage" />
  </cc:Work>
</rdf:RDF>
</metadata>
  <path
     style="fill:#f1ffbf;fill-opacity:1;fill-rule:evenodd;stroke:none;stroke-width:1px;stroke-linecap:butt;stroke-linejoin:miter;stroke-opacity:1;opacity:1;color:#000000;marker:none;marker-start:none;marker-mid:none;marker-end:none;stroke-miterlimit:4;stroke-dasharray:none;stroke-dashoffset:0;visibility:visible;display:inline;overflow:visible"
     d="M 252.82219,217.5762 L 457.97192,265.24866 L 457.97192,323.76604 L 365.33823,300.94652 L 314.0508,254.62968 L 243.10695,214.4131 L 252.82219,217.5762 z "
     id="path6795" />
  <path
     style="opacity:1;fill:url(#linearGradient3114);fill-opacity:1.0;stroke:#000000;stroke-opacity:1"
     sodipodi:nodetypes="czccscccccccczzccccc"
     id="path3112"
     d="M 223.00259,213.52878 C 218.03144,212.04239 201.75831,208.92386 197.463,209.39155 C 193.0235,209.87496 191.0783,210.04726 187.42351,211.71808 C 183.4748,213.58811 181.03631,217.17991 181.27168,220.64087 C 181.46524,223.78698 184.39054,227.9987 185.56542,229.32978 C 187.53493,231.56114 193.46151,234.43849 197.19724,236.33931 C 199.23037,237.4149 203.16455,239.29531 205.84825,240.44471 C 208.50884,241.66126 212.24378,243.24775 213.98741,244.07345 C 215.79819,244.92228 219.60028,246.53188 222.50855,247.68349 C 225.39369,248.90225 230.13586,250.83555 233.02101,252.05432 C 239.52992,254.74616 252.37165,259.7688 265.46104,264.7265 C 270.96497,266.84698 279.13167,269.95944 283.71864,271.68907 C 293.07089,275.28485 335.70093,290.86486 348.21135,295.32276 C 352.77741,296.89499 356.4254,298.18865 357.01215,297.90248 C 357.5989,297.6163 321.77368,268.92549 319.43238,266.6736 C 317.19502,264.5217 301.27976,253.62585 299.83006,252.60091 C 297.46784,250.73601 281.42197,240.404 276.7349,237.43814 C 275.19494,236.45724 273.20805,235.24734 272.24707,234.76623 C 267.95845,232.38823 266.68487,231.72437 262.17393,229.1196 C 255.09487,225.02969 234.1558,216.69315 223.00259,213.52878 z " />
  <path
     style="opacity:1;fill:url(#linearGradient3110);fill-opacity:1.0;stroke:#000000;stroke-opacity:1"
     sodipodi:nodetypes="czccscccccccczzccccc"
     id="path3108"
     d="M 212.91931,124.81795 C 207.76557,124.21738 191.19814,123.97202 187.0493,125.17848 C 182.76119,126.42546 180.87546,126.93292 177.56633,129.213 C 174.00234,131.74031 172.2246,135.70098 173.05738,139.06849 C 173.79432,142.13319 177.40654,145.77295 178.79471,146.8798 C 181.12177,148.73526 187.45796,150.53975 191.46701,151.76299 C 193.65602,152.46919 197.85696,153.63787 200.69948,154.30379 C 203.5309,155.03985 207.48459,155.95367 209.34511,156.46405 C 211.27578,156.98555 215.29961,157.91047 218.36368,158.53957 C 221.41662,159.23881 226.42246,160.31927 229.47541,161.01852 C 236.35287,162.53921 249.87168,165.2556 263.62311,167.86503 C 269.41164,168.99755 277.99474,170.64459 282.81237,171.55143 C 292.64694,173.46858 337.33478,181.40926 350.42924,183.62703 C 355.19895,184.38248 359.01616,185.02302 359.5443,184.63931 C 360.07244,184.25559 319.80938,162.22164 317.11261,160.41053 C 314.53557,158.67983 296.97005,150.71317 295.3644,149.95554 C 292.71423,148.52917 275.118,141.14046 269.98712,139.03356 C 268.30022,138.33497 266.13342,137.48847 265.1035,137.18154 C 260.4671,135.58438 259.09759,135.15176 254.20286,133.36988 C 246.52114,130.57137 224.45256,125.99752 212.91931,124.81795 z " />
  <path
     style="opacity:1;color:#000000;fill:none;fill-opacity:1;fill-rule:nonzero;stroke:#000000;stroke-width:1;stroke-linecap:butt;stroke-linejoin:miter;marker:none;marker-start:none;marker-mid:none;marker-end:none;stroke-miterlimit:4;stroke-dasharray:none;stroke-dashoffset:0;stroke-opacity:1;visibility:visible;display:inline;overflow:visible"
     id="path8"
     d="M 458.46835,51.355599 C 456.12512,51.089257 450.01689,51.089148 436.75455,50.272507 C 384.91214,48.355048 382.14248,47.928946 344.43245,37.063345 C 273.41545,16.468415 268.79934,15.261126 257.86273,13.627735 C 242.52306,11.355191 219.79761,10.645021 205.45218,11.923327 C 196.57506,12.704514 187.83996,14.906041 180.09911,18.172823 C 166.60588,23.9252 163.05503,24.351302 123.78263,25.061472 C 110.81529,25.613427 104.77276,25.047041 104.77276,25.402126"
     sodipodi:nodetypes="cccccccs" />
  <path
     style="opacity:1;color:#000000;fill:none;fill-opacity:1;fill-rule:nonzero;stroke:#000000;stroke-width:1;stroke-linecap:butt;stroke-linejoin:miter;marker:none;marker-start:none;marker-mid:none;marker-end:none;stroke-miterlimit:4;stroke-dasharray:none;stroke-dashoffset:0;stroke-opacity:1;visibility:visible;display:inline;overflow:visible"
     sodipodi:nodetypes="ccsssscccscscscccccs"
     id="path10"
     d="M 104.59187,32.278506 C 107.06817,32.47405 158.43893,31.524019 167.103,29.60656 C 168.52334,29.322492 172.85424,29.198244 175.88004,28.086136 C 177.22823,27.590618 179.47571,26.100254 181.36783,24.764522 C 183.03316,23.588887 187.78669,21.781447 188.50559,21.555159 C 190.0147,21.08014 205.94973,18.534666 211.63066,18.172823 C 217.0994,17.824496 234.49813,18.101806 239.32729,18.527908 C 243.87238,18.95401 245.36373,19.167061 251.04509,20.019265 C 252.60747,20.232316 255.16408,20.587401 256.72645,20.800452 C 260.70341,21.368588 261.98171,21.581639 265.60358,22.50486 C 269.50951,23.499098 270.36172,23.712149 273.77054,24.209268 C 275.19088,24.493336 276.68223,24.848421 277.03732,25.061472 C 277.3924,25.274523 278.38664,25.629608 279.23884,25.771642 C 280.16206,25.984693 282.15054,26.481812 283.71292,26.836897 C 285.27529,27.191982 287.19275,27.689101 287.97393,27.831135 C 291.66682,28.541305 311.6226,34.506733 331.29431,40.756229 C 349.04855,46.366572 357.14449,48.710133 362.25772,49.775388 C 379.51485,53.326238 396.62994,55.101663 427.52234,56.59302 C 435.90235,56.948105 446.83896,57.516241 451.88117,57.729292 C 457.63355,58.01336 454.98918,58.102104 458.1844,58.084267" />
  <path
     style="fill:url(#linearGradient2233);stroke:#000000;fill-opacity:1.0;opacity:1;stroke-opacity:1"
     sodipodi:nodetypes="czccscccccccczzccccc"
     id="path12"
     d="M 211.98574,23.252656 C 206.8015,23.465707 190.39966,25.815077 186.49064,27.65571 C 182.45038,29.558138 180.66725,30.354356 177.75555,33.124019 C 174.6308,36.17775 173.49453,40.367753 174.84385,43.563518 C 176.05114,46.475215 180.18827,49.505091 181.7325,50.38115 C 184.32118,51.849732 190.86163,52.640812 195.01268,53.22183 C 197.28523,53.576915 201.61726,54.074034 204.52896,54.287085 C 207.44066,54.571153 211.48863,54.855221 213.40608,55.068272 C 215.39456,55.281323 219.51355,55.565391 222.6383,55.707425 C 225.76304,55.920476 230.87627,56.204544 234.00102,56.417595 C 241.0317,56.843697 254.809,57.411833 268.79934,57.837935 C 274.69376,58.050986 283.42885,58.335054 288.32902,58.477088 C 298.34242,58.832173 343.72228,59.684377 357.00246,59.826411 C 361.83162,59.826411 365.70204,59.861919 366.16365,59.400309 C 366.62526,58.938698 323.41104,43.474554 320.46416,42.107615 C 317.6481,40.801353 299.05259,35.680631 297.34818,35.183512 C 294.5075,34.189274 275.97206,29.644186 270.57477,28.36588 C 268.79934,27.939778 266.5268,27.442659 265.46155,27.300625 C 260.63239,26.448421 259.21205,26.23537 254.09883,25.241132 C 246.07391,23.678758 223.56152,22.613503 211.98574,23.252656 z " />
  <path
     style="fill:none;stroke:#000000;opacity:1;color:#000000;fill-opacity:1;fill-rule:nonzero;stroke-width:1;stroke-linecap:butt;stroke-linejoin:miter;marker:none;marker-start:none;marker-mid:none;marker-end:none;stroke-miterlimit:4;stroke-dasharray:none;stroke-dashoffset:0;stroke-opacity:1;visibility:visible;display:inline;overflow:visible"
     id="path16"
     d="M 458.20201,69.910825 C 457.98896,69.768791 441.72574,68.916587 419.63945,68.1354 C 397.62418,67.354213 378.30756,66.573026 376.74518,66.359975 C 375.18281,66.217941 369.92755,65.862856 365.02738,65.649805 C 360.12721,65.436754 353.09652,65.081669 349.40364,64.868618 C 340.4555,64.371499 330.37108,64.016414 315.31548,63.448278 C 308.49785,63.235227 299.69174,62.951159 295.7858,62.809125 C 291.87987,62.667091 282.15054,62.383023 274.12562,62.169972 C 266.1007,61.956921 255.73222,61.601836 251.04509,61.388785 C 231.16034,60.536581 226.04711,60.252513 222.70931,59.897428 C 219.15846,59.542343 215.53659,59.258275 205.9493,58.548105 C 203.39269,58.406071 200.40997,58.050986 199.20269,57.908952 C 198.06641,57.695901 188.07053,57.056528 184.92827,55.707425 C 182.72674,55.636408 179.45996,54.358102 173.84962,51.588439 C 165.68266,47.469453 163.48113,46.8303 150.91113,45.40996 C 145.01671,44.69979 104.58312,44.025293 104.58312,44.380378"
     sodipodi:nodetypes="cccsccsscccccccs" />
  <path
     style="fill:none;stroke:#000000;opacity:1;color:#000000;fill-opacity:1;fill-rule:nonzero;stroke-width:1;stroke-linecap:butt;stroke-linejoin:miter;marker:none;marker-start:none;marker-mid:none;marker-end:none;stroke-miterlimit:4;stroke-dasharray:none;stroke-dashoffset:0;stroke-opacity:1;visibility:visible;display:inline;overflow:visible"
     id="path18"
     d="M 457.94986,76.850977 C 428.24297,75.441495 396.92314,74.219128 367.20575,73.059634 C 323.38218,71.431065 279.55946,69.747351 235.72247,68.51706 C 221.21785,68.021695 206.66262,67.578194 192.29023,65.406799 C 188.61667,64.939379 184.99972,64.02936 181.58333,62.590691 C 175.30419,60.060163 169.32578,56.842518 162.99723,54.428515 C 159.72483,53.096655 158.45333,51.033661 153.04163,50.807252 C 137.41585,50.153518 135.23885,50.551328 119.46781,50.691253 C 117.31938,50.734737 108.1589,50.548823 104.55631,50.422412"
     sodipodi:nodetypes="ccccccscc" />
  <path
     style="fill:none;stroke:#000000;opacity:1;color:#000000;fill-opacity:1;fill-rule:nonzero;stroke-width:1;stroke-linecap:butt;stroke-linejoin:miter;marker:none;marker-start:none;marker-mid:none;marker-end:none;stroke-miterlimit:4;stroke-dasharray:none;stroke-dashoffset:0;stroke-opacity:1;visibility:visible;display:inline;overflow:visible"
     id="path20"
     d="M 457.98863,179.11736 C 456.76395,178.81545 454.40255,178.05199 444.21133,175.37107 C 406.14622,166.42293 353.30958,153.49783 336.26549,149.02376 C 330.4421,147.46139 316.6648,143.12935 305.72819,139.43647 C 243.30424,118.2734 240.74763,117.49222 226.54423,114.9356 C 219.3005,113.58628 197.64031,112.59204 192.81115,113.30221 C 191.67488,113.51526 186.06454,114.72255 180.38318,116.07188 C 165.82469,119.55171 162.69995,119.83578 139.19332,120.26188 C 113.84025,120.759 105.85034,120.91887 104.4125,120.97226"
     sodipodi:nodetypes="ccccccccs" />
  <path
     style="fill:none;stroke:#000000;opacity:1;color:#000000;fill-opacity:1;fill-rule:nonzero;stroke-width:1;stroke-linecap:butt;stroke-linejoin:miter;marker:none;marker-start:none;marker-mid:none;marker-end:none;stroke-miterlimit:4;stroke-dasharray:none;stroke-dashoffset:0;stroke-opacity:1;visibility:visible;display:inline;overflow:visible"
     id="path22"
     d="M 457.56253,185.88159 C 453.40908,184.63896 458.05965,185.24243 421.48589,177.1465 C 388.81807,169.90276 349.97178,160.4575 330.58414,154.98919 C 308.85293,148.88173 300.04683,145.97003 286.19851,140.07562 C 271.21392,133.68409 266.45578,131.83765 256.15832,128.49985 C 242.73611,124.0968 229.45593,121.04307 217.16999,119.69374 C 205.5232,118.34442 198.4215,118.34442 190.32556,119.69374 C 186.98776,120.26188 182.44267,121.32713 180.24115,122.10832 C 177.9686,122.88951 173.3525,124.02578 169.94368,124.59392 C 160.99554,126.15629 134.0801,127.29256 117.03602,126.86646 C 108.54943,126.81317 104.66089,126.72443 104.66089,127.15053"
     sodipodi:nodetypes="ccccccccccs" />
  <path
     style="fill:none;stroke:#000000;opacity:1;color:#000000;fill-opacity:1;fill-rule:nonzero;stroke-width:1;stroke-linecap:butt;stroke-linejoin:miter;marker:none;marker-start:none;marker-mid:none;marker-end:none;stroke-miterlimit:4;stroke-dasharray:none;stroke-dashoffset:0;stroke-opacity:1;visibility:visible;display:inline;overflow:visible"
     id="path30"
     d="M 457.61561,213.64935 C 453.26683,212.01617 453.15948,212.51296 434.97912,208.18092 C 389.03113,197.10227 347.27313,188.0121 305.72819,179.98718 C 294.43648,177.85667 283.85495,175.72616 282.29258,175.37107 C 280.7302,175.01599 278.31562,174.58988 276.9663,174.30582 C 270.36172,173.24056 247.28119,168.83751 239.68237,167.20412 C 234.99525,166.20988 229.38491,165.07361 227.2544,164.6475 C 218.16422,162.87208 194.2315,156.76462 187.05878,154.42106 C 177.61352,151.22529 173.13945,149.02376 170.08571,145.89902 C 167.5291,143.3424 161.42164,140.99884 154.39096,139.86257 C 144.30654,138.15816 128.11467,137.02189 116.18381,137.09291 C 106.02838,137.23494 109.02667,137.75783 104.68595,137.84503"
     sodipodi:nodetypes="cccscccccccc" />
  <path
     style="fill:none;stroke:#000000;opacity:1;color:#000000;fill-opacity:1;fill-rule:nonzero;stroke-width:1;stroke-linecap:butt;stroke-linejoin:miter;marker:none;marker-start:none;marker-mid:none;marker-end:none;stroke-miterlimit:4;stroke-dasharray:none;stroke-dashoffset:0;stroke-opacity:1;visibility:visible;display:inline;overflow:visible"
     id="path32"
     d="M 457.84627,221.90504 C 457.84627,221.54996 448.96947,220.25381 440.51845,218.40737 C 431.99641,216.56093 423.11929,214.57245 420.77572,214.07534 C 418.43216,213.5072 398.33435,209.03313 376.03501,204.13296 C 353.80669,199.23278 324.83176,192.84125 311.76463,189.92955 C 298.6975,187.01786 278.24461,182.54379 266.31375,179.98718 C 219.79761,169.97378 217.241,169.40564 185.35437,160.8836 C 175.41199,158.18496 169.23351,155.62834 164.40435,152.21953 C 159.5752,148.88173 155.45621,147.24834 148.56756,146.18308 C 142.24705,145.25986 106.36369,145.45343 104.39499,145.4019"
     sodipodi:nodetypes="ccccsccccc" />
  <path
     style="fill:none;stroke:#000000;stroke-opacity:1"
     id="path34"
     d="M 458.04127,252.0692 C 450.07095,250.25844 429.65285,244.47061 338.04092,224.94094 C 274.19664,211.37669 218.44829,199.65888 214.11626,198.8777 C 204.45794,197.17329 195.65183,196.60515 189.61539,197.38634 C 187.05878,197.74142 183.01081,198.80668 180.59623,199.80092 C 173.84962,202.57058 169.23351,202.99668 134.22213,203.84889 C 116.46788,204.20397 104.80281,204.38157 104.66078,204.59462"
     sodipodi:nodetypes="ccccccc" />
  <path
     style="fill:none;stroke:#000000;opacity:1;color:#000000;fill-opacity:1;fill-rule:nonzero;stroke-width:1;stroke-linecap:butt;stroke-linejoin:miter;marker:none;marker-start:none;marker-mid:none;marker-end:none;stroke-miterlimit:4;stroke-dasharray:none;stroke-dashoffset:0;stroke-opacity:1;visibility:visible;display:inline;overflow:visible"
     id="path36"
     d="M 458.34317,258.90468 C 457.77504,258.40756 213.33507,204.55906 209.2871,204.06194 C 207.22761,203.84889 204.03184,203.35177 202.11438,202.99668 C 197.35624,202.14448 191.24878,202.28651 187.83996,203.35177 C 186.27759,203.9199 183.50793,204.98516 181.66149,205.76635 C 174.34674,209.03313 153.04163,210.73754 119.16653,210.95059 C 106.66753,210.95059 110.42979,211.39442 104.83816,211.25249"
     sodipodi:nodetypes="ccccccz" />
  <path
     style="fill:none;stroke:#000000;opacity:1;color:#000000;fill-opacity:1;fill-rule:nonzero;stroke-width:1;stroke-linecap:butt;stroke-linejoin:miter;marker:none;marker-start:none;marker-mid:none;marker-end:none;stroke-miterlimit:4;stroke-dasharray:none;stroke-dashoffset:0;stroke-opacity:1;visibility:visible;display:inline;overflow:visible"
     id="path42"
     d="M 104.27024,223.36084 C 104.27024,223.6449 113.6272,224.01772 128.39874,224.08873 C 152.4735,224.15975 156.02435,224.30178 163.55215,225.65111 C 171.79012,227.21348 176.90988,229.41564 177.9686,231.0484 C 179.36312,233.19902 199.13167,244.96773 221.21795,254.91011 C 226.68626,257.39571 233.14881,260.3074 235.56339,261.37266 C 237.97797,262.50893 240.10848,263.43215 240.32153,263.43215 C 240.53458,263.43215 242.38102,264.21334 244.44051,265.13656 C 309.49209,294.67963 371.41891,314.13829 431.07319,323.72558 C 431.62701,324.02793 446.05943,326.37115 458.27204,327.63129"
     sodipodi:nodetypes="cccsccsccz" />
  <path
     style="opacity:1;color:#000000;fill:none;fill-opacity:1;fill-rule:nonzero;stroke:#000000;stroke-width:1;stroke-linecap:butt;stroke-linejoin:miter;marker:none;marker-start:none;marker-mid:none;marker-end:none;stroke-miterlimit:4;stroke-dasharray:none;stroke-dashoffset:0;stroke-opacity:1;visibility:visible;display:inline;overflow:visible"
     id="path44"
     d="M 458.05888,334.00727 C 455.6443,334.00727 414.52623,326.53287 401.24605,323.62118 C 367.58399,316.37744 311.97768,299.9015 285.13325,289.39098 C 269.8646,283.35454 246.57102,273.41216 234.49813,267.80181 C 231.23135,266.31046 228.39067,265.03215 228.24864,265.03215 C 227.75152,265.03215 218.66134,260.70011 204.17387,253.66943 C 194.16048,248.76926 187.76895,245.07637 182.51369,241.24146 C 167.45809,230.23382 167.81317,230.30484 126.41026,230.94399 L 104.71397,230.66003"
     sodipodi:nodetypes="ccccscccc" />
  <path
     style="fill:#f3ffbf;fill-opacity:1;fill-rule:evenodd;stroke:none;stroke-width:1px;stroke-linecap:butt;stroke-linejoin:miter;stroke-opacity:1"
     d="M 318.11764,156.3476 L 457.52005,190.91578 L 457.97192,208.99064 L 366.91978,186.39706 L 318.11764,156.3476 z "
     id="path5920" />
</svg>
