x0	maxLoc	
5.500000e-02 	 -4.917174e-01 	 
5.270833e-02 	 -4.917174e-01 	 
5.041667e-02 	 -4.917174e-01 	 
4.812500e-02 	 -4.917174e-01 	 
4.583333e-02 	 -4.917174e-01 	 
4.354167e-02 	 -4.917174e-01 	 
4.125000e-02 	 -4.917174e-01 	 
3.895833e-02 	 -4.917174e-01 	 
3.666667e-02 	 -4.917174e-01 	 
3.437500e-02 	 -4.917174e-01 	 
3.208333e-02 	 -4.917174e-01 	 
2.979167e-02 	 -4.917174e-01 	 
2.750000e-02 	 -4.917174e-01 	 
2.520833e-02 	 -4.917174e-01 	 
2.291667e-02 	 -4.917174e-01 	 
2.062500e-02 	 -4.917174e-01 	 
1.833333e-02 	 -4.917174e-01 	 
1.604167e-02 	 -4.917174e-01 	 
1.375000e-02 	 -4.917174e-01 	 
1.145833e-02 	 -4.917174e-01 	 
9.166667e-03 	 -4.917174e-01 	 
6.875000e-03 	 -4.917174e-01 	 
4.583333e-03 	 -4.917174e-01 	 
2.291667e-03 	 -4.917174e-01 	 
0.000000e+00 	 -4.917174e-01 	 
-2.291667e-03 	 -4.917174e-01 	 
-4.583333e-03 	 -4.917174e-01 	 
-6.875000e-03 	 -4.917174e-01 	 
-9.166667e-03 	 -4.917174e-01 	 
-1.145833e-02 	 -4.917174e-01 	 
-1.375000e-02 	 -4.917174e-01 	 
-1.604167e-02 	 -4.917174e-01 	 
-1.833333e-02 	 -4.917174e-01 	 
-2.062500e-02 	 -4.917174e-01 	 
-2.291667e-02 	 -4.917174e-01 	 
-2.520833e-02 	 -4.917174e-01 	 
-2.750000e-02 	 -4.917174e-01 	 
-2.979167e-02 	 -4.917174e-01 	 
-3.208333e-02 	 -4.917174e-01 	 
-3.437500e-02 	 -4.917174e-01 	 
-3.666667e-02 	 -4.917174e-01 	 
-3.895833e-02 	 -4.917174e-01 	 
-4.125000e-02 	 -4.917174e-01 	 
-4.354167e-02 	 -4.917174e-01 	 
-4.583333e-02 	 -4.917174e-01 	 
-4.812500e-02 	 -4.917174e-01 	 
-5.041667e-02 	 -4.917174e-01 	 
-5.270833e-02 	 -4.917174e-01 	 
-5.500000e-02 	 -4.917174e-01 	 
