x0	$\alpha$	
0.000000e+00 	 1.000000e+01 	 
1.318331e-01 	 1.000003e+01 	 
2.636662e-01 	 1.000012e+01 	 
3.954992e-01 	 1.000027e+01 	 
5.273323e-01 	 1.000048e+01 	 
6.591654e-01 	 1.000075e+01 	 
7.909985e-01 	 1.000108e+01 	 
9.228315e-01 	 1.000146e+01 	 
1.054665e+00 	 1.000191e+01 	 
1.186498e+00 	 1.000242e+01 	 
1.318331e+00 	 1.000299e+01 	 
1.450164e+00 	 1.000361e+01 	 
1.581997e+00 	 1.000430e+01 	 
1.713830e+00 	 1.000504e+01 	 
1.845663e+00 	 1.000585e+01 	 
1.977496e+00 	 1.000671e+01 	 
2.109329e+00 	 1.000763e+01 	 
2.241162e+00 	 1.000862e+01 	 
2.372995e+00 	 1.000966e+01 	 
2.504828e+00 	 1.001076e+01 	 
2.636662e+00 	 1.001192e+01 	 
2.768495e+00 	 1.001314e+01 	 
2.900328e+00 	 1.001442e+01 	 
3.032161e+00 	 1.001576e+01 	 
3.163994e+00 	 1.001716e+01 	 
3.295827e+00 	 1.001862e+01 	 
3.427660e+00 	 1.002014e+01 	 
3.559493e+00 	 1.002171e+01 	 
3.691326e+00 	 1.002335e+01 	 
3.823159e+00 	 1.002505e+01 	 
3.954992e+00 	 1.002680e+01 	 
4.086825e+00 	 1.002861e+01 	 
4.218658e+00 	 1.003049e+01 	 
4.350492e+00 	 1.003242e+01 	 
4.482325e+00 	 1.003441e+01 	 
4.614158e+00 	 1.003646e+01 	 
4.745991e+00 	 1.003857e+01 	 
4.877824e+00 	 1.004074e+01 	 
5.009657e+00 	 1.004297e+01 	 
5.141490e+00 	 1.004526e+01 	 
5.273323e+00 	 1.004760e+01 	 
5.405156e+00 	 1.005001e+01 	 
5.536989e+00 	 1.005247e+01 	 
5.668822e+00 	 1.005499e+01 	 
5.800655e+00 	 1.005758e+01 	 
5.932488e+00 	 1.006022e+01 	 
6.064322e+00 	 1.006292e+01 	 
6.196155e+00 	 1.006568e+01 	 
6.327988e+00 	 1.006849e+01 	 
6.459821e+00 	 1.007137e+01 	 
6.591654e+00 	 1.007430e+01 	 
6.723487e+00 	 1.007730e+01 	 
6.855320e+00 	 1.008035e+01 	 
6.987153e+00 	 1.008346e+01 	 
7.118986e+00 	 1.008663e+01 	 
7.250819e+00 	 1.008986e+01 	 
7.382652e+00 	 1.009314e+01 	 
7.514485e+00 	 1.009649e+01 	 
7.646318e+00 	 1.009989e+01 	 
7.778151e+00 	 1.010335e+01 	 
7.909985e+00 	 1.010687e+01 	 
8.041818e+00 	 1.011045e+01 	 
8.173651e+00 	 1.011408e+01 	 
8.305484e+00 	 1.011778e+01 	 
8.437317e+00 	 1.012153e+01 	 
8.569150e+00 	 1.012534e+01 	 
8.700983e+00 	 1.012921e+01 	 
8.832816e+00 	 1.013314e+01 	 
8.964649e+00 	 1.013712e+01 	 
9.096482e+00 	 1.014117e+01 	 
9.228315e+00 	 1.014527e+01 	 
9.360148e+00 	 1.014942e+01 	 
9.491981e+00 	 1.015364e+01 	 
9.623815e+00 	 1.015791e+01 	 
9.755648e+00 	 1.016225e+01 	 
9.887481e+00 	 1.016664e+01 	 
1.001931e+01 	 1.017108e+01 	 
1.015115e+01 	 1.017559e+01 	 
1.028298e+01 	 1.018015e+01 	 
1.041481e+01 	 1.018477e+01 	 
1.054665e+01 	 1.018944e+01 	 
1.067848e+01 	 1.019418e+01 	 
1.081031e+01 	 1.019897e+01 	 
1.094215e+01 	 1.020382e+01 	 
1.107398e+01 	 1.020872e+01 	 
1.120581e+01 	 1.021369e+01 	 
1.133764e+01 	 1.021870e+01 	 
1.146948e+01 	 1.022378e+01 	 
1.160131e+01 	 1.022891e+01 	 
1.173314e+01 	 1.023410e+01 	 
1.186498e+01 	 1.023935e+01 	 
1.199681e+01 	 1.024466e+01 	 
1.212864e+01 	 1.025002e+01 	 
1.226048e+01 	 1.025543e+01 	 
1.239231e+01 	 1.026091e+01 	 
1.252414e+01 	 1.026644e+01 	 
1.265598e+01 	 1.027202e+01 	 
1.278781e+01 	 1.027766e+01 	 
1.291964e+01 	 1.028336e+01 	 
1.305147e+01 	 1.028912e+01 	 
1.318331e+01 	 1.029493e+01 	 
1.331514e+01 	 1.030080e+01 	 
1.344697e+01 	 1.030672e+01 	 
1.357881e+01 	 1.031270e+01 	 
1.371064e+01 	 1.031873e+01 	 
1.384247e+01 	 1.032482e+01 	 
1.397431e+01 	 1.033097e+01 	 
1.410614e+01 	 1.033717e+01 	 
1.423797e+01 	 1.034343e+01 	 
1.436981e+01 	 1.034974e+01 	 
1.450164e+01 	 1.035611e+01 	 
1.463347e+01 	 1.036254e+01 	 
1.476530e+01 	 1.036901e+01 	 
1.489714e+01 	 1.037555e+01 	 
1.502897e+01 	 1.038214e+01 	 
1.516080e+01 	 1.038878e+01 	 
1.529264e+01 	 1.039548e+01 	 
1.542447e+01 	 1.040224e+01 	 
1.555630e+01 	 1.040904e+01 	 
1.568814e+01 	 1.041591e+01 	 
1.581997e+01 	 1.042283e+01 	 
1.595180e+01 	 1.042980e+01 	 
1.608364e+01 	 1.043683e+01 	 
1.621547e+01 	 1.044391e+01 	 
1.634730e+01 	 1.045104e+01 	 
1.647913e+01 	 1.045823e+01 	 
1.661097e+01 	 1.046548e+01 	 
1.674280e+01 	 1.047277e+01 	 
1.687463e+01 	 1.048013e+01 	 
1.700647e+01 	 1.048753e+01 	 
1.713830e+01 	 1.049499e+01 	 
1.727013e+01 	 1.050250e+01 	 
1.740197e+01 	 1.051007e+01 	 
1.753380e+01 	 1.051769e+01 	 
1.766563e+01 	 1.052537e+01 	 
1.779747e+01 	 1.053309e+01 	 
1.792930e+01 	 1.054087e+01 	 
1.806113e+01 	 1.054871e+01 	 
1.819296e+01 	 1.055659e+01 	 
1.832480e+01 	 1.056453e+01 	 
1.845663e+01 	 1.057252e+01 	 
1.858846e+01 	 1.058057e+01 	 
1.872030e+01 	 1.058866e+01 	 
1.885213e+01 	 1.059681e+01 	 
1.898396e+01 	 1.060502e+01 	 
1.911580e+01 	 1.061327e+01 	 
1.924763e+01 	 1.062158e+01 	 
1.937946e+01 	 1.062994e+01 	 
1.951130e+01 	 1.063835e+01 	 
1.964313e+01 	 1.064681e+01 	 
1.977496e+01 	 1.065533e+01 	 
1.990679e+01 	 1.066389e+01 	 
2.003863e+01 	 1.067251e+01 	 
2.017046e+01 	 1.068118e+01 	 
2.030229e+01 	 1.068990e+01 	 
2.043413e+01 	 1.069868e+01 	 
2.056596e+01 	 1.070750e+01 	 
2.069779e+01 	 1.071638e+01 	 
2.082963e+01 	 1.072530e+01 	 
2.096146e+01 	 1.073428e+01 	 
2.109329e+01 	 1.074331e+01 	 
2.122513e+01 	 1.075238e+01 	 
2.135696e+01 	 1.076151e+01 	 
2.148879e+01 	 1.077069e+01 	 
2.162062e+01 	 1.077992e+01 	 
2.175246e+01 	 1.078920e+01 	 
2.188429e+01 	 1.079854e+01 	 
2.201612e+01 	 1.080792e+01 	 
2.214796e+01 	 1.081735e+01 	 
2.227979e+01 	 1.082683e+01 	 
2.241162e+01 	 1.083636e+01 	 
2.254346e+01 	 1.084594e+01 	 
2.267529e+01 	 1.085556e+01 	 
2.280712e+01 	 1.086524e+01 	 
2.293896e+01 	 1.087497e+01 	 
2.307079e+01 	 1.088475e+01 	 
2.320262e+01 	 1.089457e+01 	 
2.333445e+01 	 1.090445e+01 	 
2.346629e+01 	 1.091437e+01 	 
2.359812e+01 	 1.092434e+01 	 
2.372995e+01 	 1.093437e+01 	 
2.386179e+01 	 1.094443e+01 	 
2.399362e+01 	 1.095455e+01 	 
2.412545e+01 	 1.096472e+01 	 
2.425729e+01 	 1.097493e+01 	 
2.438912e+01 	 1.098519e+01 	 
2.452095e+01 	 1.099550e+01 	 
2.465279e+01 	 1.100586e+01 	 
2.478462e+01 	 1.101626e+01 	 
2.491645e+01 	 1.102672e+01 	 
2.504828e+01 	 1.103722e+01 	 
2.518012e+01 	 1.104776e+01 	 
2.531195e+01 	 1.105836e+01 	 
2.544378e+01 	 1.106900e+01 	 
2.557562e+01 	 1.107969e+01 	 
2.570745e+01 	 1.109042e+01 	 
2.583928e+01 	 1.110120e+01 	 
2.597112e+01 	 1.111203e+01 	 
2.610295e+01 	 1.112290e+01 	 
2.623478e+01 	 1.113382e+01 	 
2.636662e+01 	 1.114479e+01 	 
2.649845e+01 	 1.115580e+01 	 
2.663028e+01 	 1.116686e+01 	 
2.676211e+01 	 1.117796e+01 	 
2.689395e+01 	 1.118911e+01 	 
2.702578e+01 	 1.120030e+01 	 
2.715761e+01 	 1.121154e+01 	 
2.728945e+01 	 1.122283e+01 	 
2.742128e+01 	 1.123416e+01 	 
2.755311e+01 	 1.124553e+01 	 
2.768495e+01 	 1.125695e+01 	 
2.781678e+01 	 1.126842e+01 	 
2.794861e+01 	 1.127992e+01 	 
2.808045e+01 	 1.129148e+01 	 
2.821228e+01 	 1.130307e+01 	 
2.834411e+01 	 1.131471e+01 	 
2.847594e+01 	 1.132640e+01 	 
2.860778e+01 	 1.133813e+01 	 
2.873961e+01 	 1.134990e+01 	 
2.887144e+01 	 1.136171e+01 	 
2.900328e+01 	 1.137357e+01 	 
2.913511e+01 	 1.138547e+01 	 
2.926694e+01 	 1.139742e+01 	 
2.939878e+01 	 1.140941e+01 	 
2.953061e+01 	 1.142144e+01 	 
2.966244e+01 	 1.143351e+01 	 
2.979428e+01 	 1.144563e+01 	 
2.992611e+01 	 1.145779e+01 	 
3.005794e+01 	 1.146999e+01 	 
3.018977e+01 	 1.148223e+01 	 
3.032161e+01 	 1.149451e+01 	 
3.045344e+01 	 1.150684e+01 	 
3.058527e+01 	 1.151921e+01 	 
3.071711e+01 	 1.153162e+01 	 
3.084894e+01 	 1.154407e+01 	 
3.098077e+01 	 1.155656e+01 	 
3.111261e+01 	 1.156909e+01 	 
3.124444e+01 	 1.158167e+01 	 
3.137627e+01 	 1.159428e+01 	 
3.150811e+01 	 1.160694e+01 	 
3.163994e+01 	 1.161963e+01 	 
3.177177e+01 	 1.163237e+01 	 
3.190360e+01 	 1.164514e+01 	 
3.203544e+01 	 1.165796e+01 	 
3.216727e+01 	 1.167081e+01 	 
3.229910e+01 	 1.168371e+01 	 
3.243094e+01 	 1.169664e+01 	 
3.256277e+01 	 1.170962e+01 	 
3.269460e+01 	 1.172263e+01 	 
3.282644e+01 	 1.173568e+01 	 
3.295827e+01 	 1.174877e+01 	 
3.309010e+01 	 1.176190e+01 	 
3.322194e+01 	 1.177507e+01 	 
3.335377e+01 	 1.178828e+01 	 
3.348560e+01 	 1.180152e+01 	 
3.361743e+01 	 1.181481e+01 	 
3.374927e+01 	 1.182813e+01 	 
3.388110e+01 	 1.184149e+01 	 
3.401293e+01 	 1.185488e+01 	 
3.414477e+01 	 1.186832e+01 	 
3.427660e+01 	 1.188179e+01 	 
3.440843e+01 	 1.189530e+01 	 
3.454027e+01 	 1.190884e+01 	 
3.467210e+01 	 1.192242e+01 	 
3.480393e+01 	 1.193604e+01 	 
3.493577e+01 	 1.194970e+01 	 
3.506760e+01 	 1.196339e+01 	 
3.519943e+01 	 1.197712e+01 	 
3.533126e+01 	 1.199088e+01 	 
3.546310e+01 	 1.200468e+01 	 
3.559493e+01 	 1.201852e+01 	 
3.572676e+01 	 1.203239e+01 	 
3.585860e+01 	 1.204629e+01 	 
3.599043e+01 	 1.206024e+01 	 
3.612226e+01 	 1.207421e+01 	 
3.625410e+01 	 1.208822e+01 	 
3.638593e+01 	 1.210227e+01 	 
3.651776e+01 	 1.211635e+01 	 
3.664960e+01 	 1.213047e+01 	 
3.678143e+01 	 1.214461e+01 	 
3.691326e+01 	 1.215880e+01 	 
3.704509e+01 	 1.217301e+01 	 
3.717693e+01 	 1.218727e+01 	 
3.730876e+01 	 1.220155e+01 	 
3.744059e+01 	 1.221587e+01 	 
3.757243e+01 	 1.223022e+01 	 
3.770426e+01 	 1.224460e+01 	 
3.783609e+01 	 1.225902e+01 	 
3.796793e+01 	 1.227347e+01 	 
3.809976e+01 	 1.228795e+01 	 
3.823159e+01 	 1.230246e+01 	 
3.836343e+01 	 1.231701e+01 	 
3.849526e+01 	 1.233159e+01 	 
3.862709e+01 	 1.234620e+01 	 
3.875892e+01 	 1.236084e+01 	 
3.889076e+01 	 1.237551e+01 	 
3.902259e+01 	 1.239021e+01 	 
3.915442e+01 	 1.240495e+01 	 
3.928626e+01 	 1.241971e+01 	 
3.941809e+01 	 1.243451e+01 	 
3.954992e+01 	 1.244934e+01 	 
3.968176e+01 	 1.246420e+01 	 
3.981359e+01 	 1.247909e+01 	 
3.994542e+01 	 1.249400e+01 	 
4.007726e+01 	 1.250895e+01 	 
4.020909e+01 	 1.252393e+01 	 
4.034092e+01 	 1.253894e+01 	 
4.047275e+01 	 1.255397e+01 	 
4.060459e+01 	 1.256904e+01 	 
4.073642e+01 	 1.258413e+01 	 
4.086825e+01 	 1.259926e+01 	 
4.100009e+01 	 1.261441e+01 	 
4.113192e+01 	 1.262959e+01 	 
4.126375e+01 	 1.264480e+01 	 
4.139559e+01 	 1.266003e+01 	 
4.152742e+01 	 1.267530e+01 	 
4.165925e+01 	 1.269059e+01 	 
4.179109e+01 	 1.270591e+01 	 
4.192292e+01 	 1.272126e+01 	 
4.205475e+01 	 1.273663e+01 	 
4.218658e+01 	 1.275203e+01 	 
4.231842e+01 	 1.276746e+01 	 
4.245025e+01 	 1.278291e+01 	 
4.258208e+01 	 1.279839e+01 	 
4.271392e+01 	 1.281390e+01 	 
4.284575e+01 	 1.282943e+01 	 
4.297758e+01 	 1.284499e+01 	 
4.310942e+01 	 1.286058e+01 	 
4.324125e+01 	 1.287619e+01 	 
4.337308e+01 	 1.289182e+01 	 
4.350492e+01 	 1.290748e+01 	 
4.363675e+01 	 1.292317e+01 	 
4.376858e+01 	 1.293888e+01 	 
4.390041e+01 	 1.295461e+01 	 
4.403225e+01 	 1.297037e+01 	 
4.416408e+01 	 1.298616e+01 	 
4.429591e+01 	 1.300196e+01 	 
4.442775e+01 	 1.301779e+01 	 
4.455958e+01 	 1.303365e+01 	 
4.469141e+01 	 1.304953e+01 	 
4.482325e+01 	 1.306543e+01 	 
4.495508e+01 	 1.308135e+01 	 
4.508691e+01 	 1.309730e+01 	 
4.521875e+01 	 1.311327e+01 	 
4.535058e+01 	 1.312926e+01 	 
4.548241e+01 	 1.314528e+01 	 
4.561424e+01 	 1.316131e+01 	 
4.574608e+01 	 1.317737e+01 	 
4.587791e+01 	 1.319345e+01 	 
4.600974e+01 	 1.320955e+01 	 
4.614158e+01 	 1.322568e+01 	 
4.627341e+01 	 1.324182e+01 	 
4.640524e+01 	 1.325799e+01 	 
4.653708e+01 	 1.327417e+01 	 
4.666891e+01 	 1.329038e+01 	 
4.680074e+01 	 1.330661e+01 	 
4.693258e+01 	 1.332285e+01 	 
4.706441e+01 	 1.333912e+01 	 
4.719624e+01 	 1.335541e+01 	 
4.732807e+01 	 1.337171e+01 	 
4.745991e+01 	 1.338804e+01 	 
4.759174e+01 	 1.340438e+01 	 
4.772357e+01 	 1.342075e+01 	 
4.785541e+01 	 1.343713e+01 	 
4.798724e+01 	 1.345353e+01 	 
4.811907e+01 	 1.346995e+01 	 
4.825091e+01 	 1.348639e+01 	 
4.838274e+01 	 1.350285e+01 	 
4.851457e+01 	 1.351932e+01 	 
4.864641e+01 	 1.353581e+01 	 
4.877824e+01 	 1.355232e+01 	 
4.891007e+01 	 1.356885e+01 	 
4.904190e+01 	 1.358539e+01 	 
4.917374e+01 	 1.360195e+01 	 
4.930557e+01 	 1.361853e+01 	 
4.943740e+01 	 1.363512e+01 	 
4.956924e+01 	 1.365173e+01 	 
4.970107e+01 	 1.366836e+01 	 
4.983290e+01 	 1.368500e+01 	 
4.996474e+01 	 1.370166e+01 	 
5.009657e+01 	 1.371833e+01 	 
5.022840e+01 	 1.373502e+01 	 
5.036024e+01 	 1.375172e+01 	 
5.049207e+01 	 1.376844e+01 	 
5.062390e+01 	 1.378517e+01 	 
5.075573e+01 	 1.380192e+01 	 
5.088757e+01 	 1.381868e+01 	 
5.101940e+01 	 1.383545e+01 	 
5.115123e+01 	 1.385224e+01 	 
5.128307e+01 	 1.386905e+01 	 
5.141490e+01 	 1.388586e+01 	 
5.154673e+01 	 1.390269e+01 	 
5.167857e+01 	 1.391953e+01 	 
5.181040e+01 	 1.393639e+01 	 
5.194223e+01 	 1.395326e+01 	 
5.207407e+01 	 1.397014e+01 	 
5.220590e+01 	 1.398703e+01 	 
5.233773e+01 	 1.400394e+01 	 
5.246956e+01 	 1.402085e+01 	 
5.260140e+01 	 1.403778e+01 	 
5.273323e+01 	 1.405472e+01 	 
5.286506e+01 	 1.407167e+01 	 
5.299690e+01 	 1.408864e+01 	 
5.312873e+01 	 1.410561e+01 	 
5.326056e+01 	 1.412259e+01 	 
5.339240e+01 	 1.413959e+01 	 
5.352423e+01 	 1.415659e+01 	 
5.365606e+01 	 1.417361e+01 	 
5.378790e+01 	 1.419063e+01 	 
5.391973e+01 	 1.420767e+01 	 
5.405156e+01 	 1.422471e+01 	 
5.418339e+01 	 1.424176e+01 	 
5.431523e+01 	 1.425882e+01 	 
5.444706e+01 	 1.427589e+01 	 
5.457889e+01 	 1.429297e+01 	 
5.471073e+01 	 1.431006e+01 	 
5.484256e+01 	 1.432716e+01 	 
5.497439e+01 	 1.434426e+01 	 
5.510623e+01 	 1.436137e+01 	 
5.523806e+01 	 1.437849e+01 	 
5.536989e+01 	 1.439562e+01 	 
5.550173e+01 	 1.441275e+01 	 
5.563356e+01 	 1.442989e+01 	 
5.576539e+01 	 1.444704e+01 	 
5.589722e+01 	 1.446420e+01 	 
5.602906e+01 	 1.448136e+01 	 
5.616089e+01 	 1.449852e+01 	 
5.629272e+01 	 1.451570e+01 	 
5.642456e+01 	 1.453288e+01 	 
5.655639e+01 	 1.455006e+01 	 
5.668822e+01 	 1.456725e+01 	 
5.682006e+01 	 1.458444e+01 	 
5.695189e+01 	 1.460164e+01 	 
5.708372e+01 	 1.461885e+01 	 
5.721556e+01 	 1.463606e+01 	 
5.734739e+01 	 1.465327e+01 	 
5.747922e+01 	 1.467049e+01 	 
5.761105e+01 	 1.468771e+01 	 
5.774289e+01 	 1.470493e+01 	 
5.787472e+01 	 1.472216e+01 	 
5.800655e+01 	 1.473939e+01 	 
5.813839e+01 	 1.475663e+01 	 
5.827022e+01 	 1.477387e+01 	 
5.840205e+01 	 1.479111e+01 	 
5.853389e+01 	 1.480835e+01 	 
5.866572e+01 	 1.482560e+01 	 
5.879755e+01 	 1.484284e+01 	 
5.892939e+01 	 1.486009e+01 	 
5.906122e+01 	 1.487734e+01 	 
5.919305e+01 	 1.489460e+01 	 
5.932488e+01 	 1.491185e+01 	 
5.945672e+01 	 1.492910e+01 	 
5.958855e+01 	 1.494636e+01 	 
5.972038e+01 	 1.496362e+01 	 
5.985222e+01 	 1.498087e+01 	 
5.998405e+01 	 1.499813e+01 	 
6.011588e+01 	 1.501539e+01 	 
6.024772e+01 	 1.503264e+01 	 
6.037955e+01 	 1.504990e+01 	 
6.051138e+01 	 1.506715e+01 	 
6.064322e+01 	 1.508441e+01 	 
6.077505e+01 	 1.510166e+01 	 
6.090688e+01 	 1.511892e+01 	 
6.103871e+01 	 1.513617e+01 	 
6.117055e+01 	 1.515342e+01 	 
6.130238e+01 	 1.517066e+01 	 
6.143421e+01 	 1.518791e+01 	 
6.156605e+01 	 1.520515e+01 	 
6.169788e+01 	 1.522240e+01 	 
6.182971e+01 	 1.523963e+01 	 
6.196155e+01 	 1.525687e+01 	 
6.209338e+01 	 1.527410e+01 	 
6.222521e+01 	 1.529133e+01 	 
6.235705e+01 	 1.530856e+01 	 
6.248888e+01 	 1.532578e+01 	 
6.262071e+01 	 1.534300e+01 	 
6.275254e+01 	 1.536021e+01 	 
6.288438e+01 	 1.537742e+01 	 
6.301621e+01 	 1.539463e+01 	 
6.314804e+01 	 1.541183e+01 	 
6.327988e+01 	 1.542902e+01 	 
6.341171e+01 	 1.544621e+01 	 
6.354354e+01 	 1.546340e+01 	 
6.367538e+01 	 1.548058e+01 	 
6.380721e+01 	 1.549775e+01 	 
6.393904e+01 	 1.551492e+01 	 
6.407088e+01 	 1.553208e+01 	 
6.420271e+01 	 1.554924e+01 	 
6.433454e+01 	 1.556639e+01 	 
6.446637e+01 	 1.558353e+01 	 
6.459821e+01 	 1.560067e+01 	 
6.473004e+01 	 1.561780e+01 	 
6.486187e+01 	 1.563492e+01 	 
6.499371e+01 	 1.565203e+01 	 
6.512554e+01 	 1.566914e+01 	 
6.525737e+01 	 1.568623e+01 	 
6.538921e+01 	 1.570332e+01 	 
6.552104e+01 	 1.572040e+01 	 
6.565287e+01 	 1.573748e+01 	 
6.578471e+01 	 1.575454e+01 	 
6.591654e+01 	 1.577159e+01 	 
6.604837e+01 	 1.578864e+01 	 
6.618020e+01 	 1.580568e+01 	 
6.631204e+01 	 1.582270e+01 	 
6.644387e+01 	 1.583972e+01 	 
6.657570e+01 	 1.585673e+01 	 
6.670754e+01 	 1.587372e+01 	 
6.683937e+01 	 1.589071e+01 	 
6.697120e+01 	 1.590768e+01 	 
6.710304e+01 	 1.592465e+01 	 
6.723487e+01 	 1.594160e+01 	 
6.736670e+01 	 1.595855e+01 	 
6.749853e+01 	 1.597548e+01 	 
6.763037e+01 	 1.599240e+01 	 
6.776220e+01 	 1.600930e+01 	 
6.789403e+01 	 1.602620e+01 	 
6.802587e+01 	 1.604308e+01 	 
6.815770e+01 	 1.605995e+01 	 
6.828953e+01 	 1.607681e+01 	 
6.842137e+01 	 1.609366e+01 	 
6.855320e+01 	 1.611049e+01 	 
6.868503e+01 	 1.612731e+01 	 
6.881687e+01 	 1.614412e+01 	 
6.894870e+01 	 1.616091e+01 	 
6.908053e+01 	 1.617769e+01 	 
6.921236e+01 	 1.619445e+01 	 
6.934420e+01 	 1.621120e+01 	 
6.947603e+01 	 1.622794e+01 	 
6.960786e+01 	 1.624466e+01 	 
6.973970e+01 	 1.626136e+01 	 
6.987153e+01 	 1.627805e+01 	 
7.000336e+01 	 1.629473e+01 	 
7.013520e+01 	 1.631139e+01 	 
7.026703e+01 	 1.632804e+01 	 
7.039886e+01 	 1.634467e+01 	 
7.053070e+01 	 1.636128e+01 	 
7.066253e+01 	 1.637788e+01 	 
7.079436e+01 	 1.639446e+01 	 
7.092619e+01 	 1.641102e+01 	 
7.105803e+01 	 1.642757e+01 	 
7.118986e+01 	 1.644410e+01 	 
7.132169e+01 	 1.646061e+01 	 
7.145353e+01 	 1.647710e+01 	 
7.158536e+01 	 1.649358e+01 	 
7.171719e+01 	 1.651004e+01 	 
7.184903e+01 	 1.652648e+01 	 
7.198086e+01 	 1.654291e+01 	 
7.211269e+01 	 1.655931e+01 	 
7.224453e+01 	 1.657570e+01 	 
7.237636e+01 	 1.659207e+01 	 
7.250819e+01 	 1.660842e+01 	 
7.264002e+01 	 1.662475e+01 	 
7.277186e+01 	 1.664106e+01 	 
7.290369e+01 	 1.665735e+01 	 
7.303552e+01 	 1.667362e+01 	 
7.316736e+01 	 1.668987e+01 	 
7.329919e+01 	 1.670610e+01 	 
7.343102e+01 	 1.672232e+01 	 
7.356286e+01 	 1.673851e+01 	 
7.369469e+01 	 1.675468e+01 	 
7.382652e+01 	 1.677082e+01 	 
7.395836e+01 	 1.678695e+01 	 
7.409019e+01 	 1.680306e+01 	 
7.422202e+01 	 1.681914e+01 	 
7.435385e+01 	 1.683521e+01 	 
7.448569e+01 	 1.685125e+01 	 
7.461752e+01 	 1.686727e+01 	 
7.474935e+01 	 1.688327e+01 	 
7.488119e+01 	 1.689924e+01 	 
7.501302e+01 	 1.691519e+01 	 
7.514485e+01 	 1.693112e+01 	 
7.527669e+01 	 1.694703e+01 	 
7.540852e+01 	 1.696291e+01 	 
7.554035e+01 	 1.697877e+01 	 
7.567219e+01 	 1.699461e+01 	 
7.580402e+01 	 1.701042e+01 	 
7.593585e+01 	 1.702621e+01 	 
7.606768e+01 	 1.704197e+01 	 
7.619952e+01 	 1.705771e+01 	 
7.633135e+01 	 1.707343e+01 	 
7.646318e+01 	 1.708912e+01 	 
7.659502e+01 	 1.710478e+01 	 
7.672685e+01 	 1.712042e+01 	 
7.685868e+01 	 1.713604e+01 	 
7.699052e+01 	 1.715163e+01 	 
7.712235e+01 	 1.716720e+01 	 
7.725418e+01 	 1.718273e+01 	 
7.738602e+01 	 1.719825e+01 	 
7.751785e+01 	 1.721373e+01 	 
7.764968e+01 	 1.722919e+01 	 
7.778151e+01 	 1.724463e+01 	 
7.791335e+01 	 1.726003e+01 	 
7.804518e+01 	 1.727541e+01 	 
7.817701e+01 	 1.729077e+01 	 
7.830885e+01 	 1.730609e+01 	 
7.844068e+01 	 1.732139e+01 	 
7.857251e+01 	 1.733666e+01 	 
7.870435e+01 	 1.735190e+01 	 
7.883618e+01 	 1.736712e+01 	 
7.896801e+01 	 1.738230e+01 	 
7.909985e+01 	 1.739746e+01 	 
7.923168e+01 	 1.741259e+01 	 
7.936351e+01 	 1.742769e+01 	 
7.949534e+01 	 1.744276e+01 	 
7.962718e+01 	 1.745781e+01 	 
7.975901e+01 	 1.747282e+01 	 
7.989084e+01 	 1.748780e+01 	 
8.002268e+01 	 1.750276e+01 	 
8.015451e+01 	 1.751768e+01 	 
8.028634e+01 	 1.753258e+01 	 
8.041818e+01 	 1.754744e+01 	 
8.055001e+01 	 1.756228e+01 	 
8.068184e+01 	 1.757708e+01 	 
8.081368e+01 	 1.759185e+01 	 
8.094551e+01 	 1.760659e+01 	 
8.107734e+01 	 1.762130e+01 	 
8.120917e+01 	 1.763598e+01 	 
8.134101e+01 	 1.765063e+01 	 
8.147284e+01 	 1.766525e+01 	 
8.160467e+01 	 1.767983e+01 	 
8.173651e+01 	 1.769439e+01 	 
8.186834e+01 	 1.770891e+01 	 
8.200017e+01 	 1.772340e+01 	 
8.213201e+01 	 1.773785e+01 	 
8.226384e+01 	 1.775228e+01 	 
8.239567e+01 	 1.776667e+01 	 
8.252751e+01 	 1.778102e+01 	 
8.265934e+01 	 1.779535e+01 	 
8.279117e+01 	 1.780964e+01 	 
8.292300e+01 	 1.782390e+01 	 
8.305484e+01 	 1.783812e+01 	 
8.318667e+01 	 1.785231e+01 	 
8.331850e+01 	 1.786647e+01 	 
8.345034e+01 	 1.788059e+01 	 
8.358217e+01 	 1.789468e+01 	 
8.371400e+01 	 1.790873e+01 	 
8.384584e+01 	 1.792275e+01 	 
8.397767e+01 	 1.793674e+01 	 
8.410950e+01 	 1.795069e+01 	 
8.424134e+01 	 1.796460e+01 	 
8.437317e+01 	 1.797848e+01 	 
8.450500e+01 	 1.799232e+01 	 
8.463683e+01 	 1.800613e+01 	 
8.476867e+01 	 1.801990e+01 	 
8.490050e+01 	 1.803364e+01 	 
8.503233e+01 	 1.804734e+01 	 
8.516417e+01 	 1.806100e+01 	 
8.529600e+01 	 1.807463e+01 	 
8.542783e+01 	 1.808822e+01 	 
8.555967e+01 	 1.810177e+01 	 
8.569150e+01 	 1.811529e+01 	 
8.582333e+01 	 1.812877e+01 	 
8.595517e+01 	 1.814221e+01 	 
8.608700e+01 	 1.815561e+01 	 
8.621883e+01 	 1.816898e+01 	 
8.635066e+01 	 1.818231e+01 	 
8.648250e+01 	 1.819560e+01 	 
8.661433e+01 	 1.820885e+01 	 
8.674616e+01 	 1.822207e+01 	 
8.687800e+01 	 1.823525e+01 	 
8.700983e+01 	 1.824838e+01 	 
8.714166e+01 	 1.826148e+01 	 
8.727350e+01 	 1.827454e+01 	 
8.740533e+01 	 1.828757e+01 	 
8.753716e+01 	 1.830055e+01 	 
8.766900e+01 	 1.831349e+01 	 
8.780083e+01 	 1.832639e+01 	 
8.793266e+01 	 1.833926e+01 	 
8.806449e+01 	 1.835208e+01 	 
8.819633e+01 	 1.836487e+01 	 
8.832816e+01 	 1.837761e+01 	 
8.845999e+01 	 1.839032e+01 	 
8.859183e+01 	 1.840298e+01 	 
8.872366e+01 	 1.841560e+01 	 
8.885549e+01 	 1.842819e+01 	 
8.898733e+01 	 1.844073e+01 	 
8.911916e+01 	 1.845323e+01 	 
8.925099e+01 	 1.846569e+01 	 
8.938283e+01 	 1.847811e+01 	 
8.951466e+01 	 1.849048e+01 	 
8.964649e+01 	 1.850282e+01 	 
8.977832e+01 	 1.851511e+01 	 
8.991016e+01 	 1.852736e+01 	 
9.004199e+01 	 1.853957e+01 	 
9.017382e+01 	 1.855174e+01 	 
9.030566e+01 	 1.856386e+01 	 
9.043749e+01 	 1.857595e+01 	 
9.056932e+01 	 1.858799e+01 	 
9.070116e+01 	 1.859998e+01 	 
9.083299e+01 	 1.861194e+01 	 
9.096482e+01 	 1.862385e+01 	 
9.109666e+01 	 1.863572e+01 	 
9.122849e+01 	 1.864754e+01 	 
9.136032e+01 	 1.865933e+01 	 
9.149215e+01 	 1.867106e+01 	 
9.162399e+01 	 1.868276e+01 	 
9.175582e+01 	 1.869441e+01 	 
9.188765e+01 	 1.870601e+01 	 
9.201949e+01 	 1.871758e+01 	 
9.215132e+01 	 1.872909e+01 	 
9.228315e+01 	 1.874057e+01 	 
9.241499e+01 	 1.875200e+01 	 
9.254682e+01 	 1.876338e+01 	 
9.267865e+01 	 1.877472e+01 	 
9.281049e+01 	 1.878601e+01 	 
9.294232e+01 	 1.879726e+01 	 
9.307415e+01 	 1.880847e+01 	 
9.320598e+01 	 1.881963e+01 	 
9.333782e+01 	 1.883074e+01 	 
9.346965e+01 	 1.884181e+01 	 
9.360148e+01 	 1.885283e+01 	 
9.373332e+01 	 1.886380e+01 	 
9.386515e+01 	 1.887473e+01 	 
9.399698e+01 	 1.888562e+01 	 
9.412882e+01 	 1.889646e+01 	 
9.426065e+01 	 1.890725e+01 	 
9.439248e+01 	 1.891799e+01 	 
9.452432e+01 	 1.892869e+01 	 
9.465615e+01 	 1.893934e+01 	 
9.478798e+01 	 1.894994e+01 	 
9.491981e+01 	 1.896050e+01 	 
9.505165e+01 	 1.897101e+01 	 
9.518348e+01 	 1.898147e+01 	 
9.531531e+01 	 1.899189e+01 	 
9.544715e+01 	 1.900226e+01 	 
9.557898e+01 	 1.901258e+01 	 
9.571081e+01 	 1.902285e+01 	 
9.584265e+01 	 1.903307e+01 	 
9.597448e+01 	 1.904325e+01 	 
9.610631e+01 	 1.905338e+01 	 
9.623815e+01 	 1.906346e+01 	 
9.636998e+01 	 1.907349e+01 	 
9.650181e+01 	 1.908347e+01 	 
9.663364e+01 	 1.909340e+01 	 
9.676548e+01 	 1.910329e+01 	 
9.689731e+01 	 1.911313e+01 	 
9.702914e+01 	 1.912291e+01 	 
9.716098e+01 	 1.913265e+01 	 
9.729281e+01 	 1.914234e+01 	 
9.742464e+01 	 1.915198e+01 	 
9.755648e+01 	 1.916157e+01 	 
9.768831e+01 	 1.917111e+01 	 
9.782014e+01 	 1.918060e+01 	 
9.795198e+01 	 1.919004e+01 	 
9.808381e+01 	 1.919944e+01 	 
9.821564e+01 	 1.920878e+01 	 
9.834747e+01 	 1.921807e+01 	 
9.847931e+01 	 1.922731e+01 	 
9.861114e+01 	 1.923650e+01 	 
9.874297e+01 	 1.924564e+01 	 
9.887481e+01 	 1.925473e+01 	 
9.900664e+01 	 1.926377e+01 	 
9.913847e+01 	 1.927276e+01 	 
9.927031e+01 	 1.928169e+01 	 
9.940214e+01 	 1.929058e+01 	 
9.953397e+01 	 1.929942e+01 	 
9.966581e+01 	 1.930820e+01 	 
9.979764e+01 	 1.931693e+01 	 
9.992947e+01 	 1.932561e+01 	 
1.000613e+02 	 1.933424e+01 	 
1.001931e+02 	 1.934282e+01 	 
1.003250e+02 	 1.935135e+01 	 
1.004568e+02 	 1.935982e+01 	 
1.005886e+02 	 1.936824e+01 	 
1.007205e+02 	 1.937661e+01 	 
1.008523e+02 	 1.938493e+01 	 
1.009841e+02 	 1.939320e+01 	 
1.011160e+02 	 1.940141e+01 	 
1.012478e+02 	 1.940957e+01 	 
1.013796e+02 	 1.941768e+01 	 
1.015115e+02 	 1.942574e+01 	 
1.016433e+02 	 1.943374e+01 	 
1.017751e+02 	 1.944169e+01 	 
1.019070e+02 	 1.944959e+01 	 
1.020388e+02 	 1.945743e+01 	 
1.021706e+02 	 1.946523e+01 	 
1.023025e+02 	 1.947296e+01 	 
1.024343e+02 	 1.948065e+01 	 
1.025661e+02 	 1.948828e+01 	 
1.026980e+02 	 1.949586e+01 	 
1.028298e+02 	 1.950338e+01 	 
1.029616e+02 	 1.951086e+01 	 
1.030935e+02 	 1.951827e+01 	 
1.032253e+02 	 1.952564e+01 	 
1.033571e+02 	 1.953295e+01 	 
1.034890e+02 	 1.954020e+01 	 
1.036208e+02 	 1.954740e+01 	 
1.037526e+02 	 1.955455e+01 	 
1.038845e+02 	 1.956164e+01 	 
1.040163e+02 	 1.956868e+01 	 
1.041481e+02 	 1.957567e+01 	 
1.042800e+02 	 1.958260e+01 	 
1.044118e+02 	 1.958947e+01 	 
1.045436e+02 	 1.959629e+01 	 
1.046755e+02 	 1.960306e+01 	 
1.048073e+02 	 1.960977e+01 	 
1.049391e+02 	 1.961643e+01 	 
1.050710e+02 	 1.962303e+01 	 
1.052028e+02 	 1.962957e+01 	 
1.053346e+02 	 1.963606e+01 	 
1.054665e+02 	 1.964250e+01 	 
1.055983e+02 	 1.964888e+01 	 
1.057301e+02 	 1.965521e+01 	 
1.058620e+02 	 1.966147e+01 	 
1.059938e+02 	 1.966769e+01 	 
1.061256e+02 	 1.967385e+01 	 
1.062575e+02 	 1.967995e+01 	 
1.063893e+02 	 1.968600e+01 	 
1.065211e+02 	 1.969199e+01 	 
1.066530e+02 	 1.969792e+01 	 
1.067848e+02 	 1.970380e+01 	 
1.069166e+02 	 1.970963e+01 	 
1.070485e+02 	 1.971539e+01 	 
1.071803e+02 	 1.972110e+01 	 
1.073121e+02 	 1.972676e+01 	 
1.074440e+02 	 1.973236e+01 	 
1.075758e+02 	 1.973790e+01 	 
1.077076e+02 	 1.974339e+01 	 
1.078395e+02 	 1.974881e+01 	 
1.079713e+02 	 1.975419e+01 	 
1.081031e+02 	 1.975950e+01 	 
1.082350e+02 	 1.976476e+01 	 
1.083668e+02 	 1.976997e+01 	 
1.084986e+02 	 1.977511e+01 	 
1.086305e+02 	 1.978020e+01 	 
1.087623e+02 	 1.978523e+01 	 
1.088941e+02 	 1.979021e+01 	 
1.090260e+02 	 1.979512e+01 	 
1.091578e+02 	 1.979998e+01 	 
1.092896e+02 	 1.980479e+01 	 
1.094215e+02 	 1.980953e+01 	 
1.095533e+02 	 1.981422e+01 	 
1.096851e+02 	 1.981886e+01 	 
1.098170e+02 	 1.982343e+01 	 
1.099488e+02 	 1.982795e+01 	 
1.100806e+02 	 1.983241e+01 	 
1.102125e+02 	 1.983681e+01 	 
1.103443e+02 	 1.984115e+01 	 
1.104761e+02 	 1.984544e+01 	 
1.106080e+02 	 1.984967e+01 	 
1.107398e+02 	 1.985384e+01 	 
1.108716e+02 	 1.985795e+01 	 
1.110035e+02 	 1.986201e+01 	 
1.111353e+02 	 1.986600e+01 	 
1.112671e+02 	 1.986994e+01 	 
1.113989e+02 	 1.987382e+01 	 
1.115308e+02 	 1.987765e+01 	 
1.116626e+02 	 1.988141e+01 	 
1.117944e+02 	 1.988512e+01 	 
1.119263e+02 	 1.988877e+01 	 
1.120581e+02 	 1.989236e+01 	 
1.121899e+02 	 1.989589e+01 	 
1.123218e+02 	 1.989937e+01 	 
1.124536e+02 	 1.990278e+01 	 
1.125854e+02 	 1.990614e+01 	 
1.127173e+02 	 1.990944e+01 	 
1.128491e+02 	 1.991268e+01 	 
1.129809e+02 	 1.991586e+01 	 
1.131128e+02 	 1.991898e+01 	 
1.132446e+02 	 1.992205e+01 	 
1.133764e+02 	 1.992505e+01 	 
1.135083e+02 	 1.992800e+01 	 
1.136401e+02 	 1.993089e+01 	 
1.137719e+02 	 1.993372e+01 	 
1.139038e+02 	 1.993649e+01 	 
1.140356e+02 	 1.993920e+01 	 
1.141674e+02 	 1.994186e+01 	 
1.142993e+02 	 1.994445e+01 	 
1.144311e+02 	 1.994699e+01 	 
1.145629e+02 	 1.994946e+01 	 
1.146948e+02 	 1.995188e+01 	 
1.148266e+02 	 1.995424e+01 	 
1.149584e+02 	 1.995654e+01 	 
1.150903e+02 	 1.995878e+01 	 
1.152221e+02 	 1.996096e+01 	 
1.153539e+02 	 1.996309e+01 	 
1.154858e+02 	 1.996515e+01 	 
1.156176e+02 	 1.996715e+01 	 
1.157494e+02 	 1.996910e+01 	 
1.158813e+02 	 1.997098e+01 	 
1.160131e+02 	 1.997281e+01 	 
1.161449e+02 	 1.997458e+01 	 
1.162768e+02 	 1.997629e+01 	 
1.164086e+02 	 1.997794e+01 	 
1.165404e+02 	 1.997953e+01 	 
1.166723e+02 	 1.998106e+01 	 
1.168041e+02 	 1.998253e+01 	 
1.169359e+02 	 1.998394e+01 	 
1.170678e+02 	 1.998529e+01 	 
1.171996e+02 	 1.998658e+01 	 
1.173314e+02 	 1.998782e+01 	 
1.174633e+02 	 1.998899e+01 	 
1.175951e+02 	 1.999011e+01 	 
1.177269e+02 	 1.999116e+01 	 
1.178588e+02 	 1.999216e+01 	 
1.179906e+02 	 1.999309e+01 	 
1.181224e+02 	 1.999397e+01 	 
1.182543e+02 	 1.999479e+01 	 
1.183861e+02 	 1.999555e+01 	 
1.185179e+02 	 1.999625e+01 	 
1.186498e+02 	 1.999688e+01 	 
1.187816e+02 	 1.999746e+01 	 
1.189134e+02 	 1.999798e+01 	 
1.190453e+02 	 1.999844e+01 	 
1.191771e+02 	 1.999884e+01 	 
1.193089e+02 	 1.999919e+01 	 
1.194408e+02 	 1.999947e+01 	 
1.195726e+02 	 1.999969e+01 	 
1.197044e+02 	 1.999985e+01 	 
1.198363e+02 	 1.999995e+01 	 
1.199681e+02 	 2.000000e+01 	 
1.200999e+02 	 2.000000e+01 	 
1.202318e+02 	 2.000000e+01 	 
1.203636e+02 	 2.000000e+01 	 
1.204954e+02 	 2.000000e+01 	 
1.206273e+02 	 2.000000e+01 	 
1.207591e+02 	 2.000000e+01 	 
1.208909e+02 	 2.000000e+01 	 
1.210228e+02 	 2.000000e+01 	 
1.211546e+02 	 2.000000e+01 	 
1.212864e+02 	 2.000000e+01 	 
1.214183e+02 	 2.000000e+01 	 
1.215501e+02 	 2.000000e+01 	 
1.216819e+02 	 2.000000e+01 	 
1.218138e+02 	 2.000000e+01 	 
1.219456e+02 	 2.000000e+01 	 
1.220774e+02 	 2.000000e+01 	 
1.222093e+02 	 2.000000e+01 	 
1.223411e+02 	 2.000000e+01 	 
1.224729e+02 	 2.000000e+01 	 
1.226048e+02 	 2.000000e+01 	 
1.227366e+02 	 2.000000e+01 	 
1.228684e+02 	 2.000000e+01 	 
1.230003e+02 	 2.000000e+01 	 
1.231321e+02 	 2.000000e+01 	 
1.232639e+02 	 2.000000e+01 	 
1.233958e+02 	 2.000000e+01 	 
1.235276e+02 	 2.000000e+01 	 
1.236594e+02 	 2.000000e+01 	 
1.237913e+02 	 2.000000e+01 	 
1.239231e+02 	 2.000000e+01 	 
1.240549e+02 	 2.000000e+01 	 
1.241868e+02 	 2.000000e+01 	 
1.243186e+02 	 2.000000e+01 	 
1.244504e+02 	 2.000000e+01 	 
1.245823e+02 	 2.000000e+01 	 
1.247141e+02 	 2.000000e+01 	 
1.248459e+02 	 2.000000e+01 	 
1.249778e+02 	 2.000000e+01 	 
1.251096e+02 	 2.000000e+01 	 
1.252414e+02 	 2.000000e+01 	 
1.253733e+02 	 2.000000e+01 	 
1.255051e+02 	 2.000000e+01 	 
1.256369e+02 	 2.000000e+01 	 
1.257688e+02 	 2.000000e+01 	 
1.259006e+02 	 2.000000e+01 	 
1.260324e+02 	 2.000000e+01 	 
1.261643e+02 	 2.000000e+01 	 
1.262961e+02 	 2.000000e+01 	 
1.264279e+02 	 2.000000e+01 	 
1.265598e+02 	 2.000000e+01 	 
1.266916e+02 	 2.000000e+01 	 
1.268234e+02 	 2.000000e+01 	 
1.269553e+02 	 2.000000e+01 	 
1.270871e+02 	 2.000000e+01 	 
1.272189e+02 	 2.000000e+01 	 
1.273508e+02 	 2.000000e+01 	 
1.274826e+02 	 2.000000e+01 	 
1.276144e+02 	 2.000000e+01 	 
1.277463e+02 	 2.000000e+01 	 
1.278781e+02 	 2.000000e+01 	 
1.280099e+02 	 2.000000e+01 	 
1.281418e+02 	 2.000000e+01 	 
1.282736e+02 	 2.000000e+01 	 
1.284054e+02 	 2.000000e+01 	 
1.285372e+02 	 2.000000e+01 	 
1.286691e+02 	 2.000000e+01 	 
1.288009e+02 	 2.000000e+01 	 
1.289327e+02 	 2.000000e+01 	 
1.290646e+02 	 2.000000e+01 	 
1.291964e+02 	 2.000000e+01 	 
1.293282e+02 	 2.000000e+01 	 
1.294601e+02 	 2.000000e+01 	 
1.295919e+02 	 2.000000e+01 	 
1.297237e+02 	 2.000000e+01 	 
1.298556e+02 	 2.000000e+01 	 
1.299874e+02 	 2.000000e+01 	 
1.301192e+02 	 2.000000e+01 	 
1.302511e+02 	 2.000000e+01 	 
1.303829e+02 	 2.000000e+01 	 
1.305147e+02 	 2.000000e+01 	 
1.306466e+02 	 2.000000e+01 	 
1.307784e+02 	 2.000000e+01 	 
1.309102e+02 	 2.000000e+01 	 
1.310421e+02 	 2.000000e+01 	 
1.311739e+02 	 2.000000e+01 	 
1.313057e+02 	 2.000000e+01 	 
1.314376e+02 	 2.000000e+01 	 
1.315694e+02 	 2.000000e+01 	 
1.317012e+02 	 2.000000e+01 	 
1.318331e+02 	 2.000000e+01 	 
1.319649e+02 	 2.000000e+01 	 
1.320967e+02 	 2.000000e+01 	 
1.322286e+02 	 2.000000e+01 	 
1.323604e+02 	 2.000000e+01 	 
1.324922e+02 	 2.000000e+01 	 
1.326241e+02 	 2.000000e+01 	 
1.327559e+02 	 2.000000e+01 	 
1.328877e+02 	 2.000000e+01 	 
1.330196e+02 	 2.000000e+01 	 
1.331514e+02 	 2.000000e+01 	 
1.332832e+02 	 2.000000e+01 	 
1.334151e+02 	 2.000000e+01 	 
1.335469e+02 	 2.000000e+01 	 
1.336787e+02 	 2.000000e+01 	 
1.338106e+02 	 2.000000e+01 	 
1.339424e+02 	 2.000000e+01 	 
1.340742e+02 	 2.000000e+01 	 
1.342061e+02 	 2.000000e+01 	 
1.343379e+02 	 2.000000e+01 	 
1.344697e+02 	 2.000000e+01 	 
1.346016e+02 	 2.000000e+01 	 
1.347334e+02 	 2.000000e+01 	 
1.348652e+02 	 2.000000e+01 	 
1.349971e+02 	 2.000000e+01 	 
1.351289e+02 	 2.000000e+01 	 
1.352607e+02 	 2.000000e+01 	 
1.353926e+02 	 2.000000e+01 	 
1.355244e+02 	 2.000000e+01 	 
1.356562e+02 	 2.000000e+01 	 
1.357881e+02 	 2.000000e+01 	 
1.359199e+02 	 2.000000e+01 	 
1.360517e+02 	 2.000000e+01 	 
1.361836e+02 	 2.000000e+01 	 
1.363154e+02 	 2.000000e+01 	 
1.364472e+02 	 2.000000e+01 	 
1.365791e+02 	 2.000000e+01 	 
1.367109e+02 	 2.000000e+01 	 
1.368427e+02 	 2.000000e+01 	 
1.369746e+02 	 2.000000e+01 	 
1.371064e+02 	 2.000000e+01 	 
1.372382e+02 	 2.000000e+01 	 
1.373701e+02 	 2.000000e+01 	 
1.375019e+02 	 2.000000e+01 	 
1.376337e+02 	 2.000000e+01 	 
1.377656e+02 	 2.000000e+01 	 
1.378974e+02 	 2.000000e+01 	 
1.380292e+02 	 2.000000e+01 	 
1.381611e+02 	 2.000000e+01 	 
1.382929e+02 	 2.000000e+01 	 
1.384247e+02 	 2.000000e+01 	 
1.385566e+02 	 2.000000e+01 	 
1.386884e+02 	 2.000000e+01 	 
1.388202e+02 	 2.000000e+01 	 
1.389521e+02 	 2.000000e+01 	 
1.390839e+02 	 2.000000e+01 	 
1.392157e+02 	 2.000000e+01 	 
1.393476e+02 	 2.000000e+01 	 
1.394794e+02 	 2.000000e+01 	 
1.396112e+02 	 2.000000e+01 	 
1.397431e+02 	 2.000000e+01 	 
1.398749e+02 	 2.000000e+01 	 
1.400067e+02 	 2.000000e+01 	 
1.401386e+02 	 2.000000e+01 	 
1.402704e+02 	 2.000000e+01 	 
1.404022e+02 	 2.000000e+01 	 
1.405341e+02 	 2.000000e+01 	 
1.406659e+02 	 2.000000e+01 	 
1.407977e+02 	 2.000000e+01 	 
1.409296e+02 	 2.000000e+01 	 
1.410614e+02 	 2.000000e+01 	 
1.411932e+02 	 2.000000e+01 	 
1.413251e+02 	 2.000000e+01 	 
1.414569e+02 	 2.000000e+01 	 
1.415887e+02 	 2.000000e+01 	 
1.417206e+02 	 2.000000e+01 	 
1.418524e+02 	 2.000000e+01 	 
1.419842e+02 	 2.000000e+01 	 
1.421161e+02 	 2.000000e+01 	 
1.422479e+02 	 2.000000e+01 	 
1.423797e+02 	 2.000000e+01 	 
1.425116e+02 	 2.000000e+01 	 
1.426434e+02 	 2.000000e+01 	 
1.427752e+02 	 2.000000e+01 	 
1.429071e+02 	 2.000000e+01 	 
1.430389e+02 	 2.000000e+01 	 
1.431707e+02 	 2.000000e+01 	 
1.433026e+02 	 2.000000e+01 	 
1.434344e+02 	 2.000000e+01 	 
1.435662e+02 	 2.000000e+01 	 
1.436981e+02 	 2.000000e+01 	 
1.438299e+02 	 2.000000e+01 	 
1.439617e+02 	 2.000000e+01 	 
1.440936e+02 	 2.000000e+01 	 
1.442254e+02 	 2.000000e+01 	 
1.443572e+02 	 2.000000e+01 	 
1.444891e+02 	 2.000000e+01 	 
1.446209e+02 	 2.000000e+01 	 
1.447527e+02 	 2.000000e+01 	 
1.448846e+02 	 2.000000e+01 	 
1.450164e+02 	 2.000000e+01 	 
1.451482e+02 	 2.000000e+01 	 
1.452800e+02 	 2.000000e+01 	 
1.454119e+02 	 2.000000e+01 	 
1.455437e+02 	 2.000000e+01 	 
1.456755e+02 	 2.000000e+01 	 
1.458074e+02 	 2.000000e+01 	 
1.459392e+02 	 2.000000e+01 	 
1.460710e+02 	 2.000000e+01 	 
1.462029e+02 	 2.000000e+01 	 
1.463347e+02 	 2.000000e+01 	 
1.464665e+02 	 2.000000e+01 	 
1.465984e+02 	 2.000000e+01 	 
1.467302e+02 	 2.000000e+01 	 
1.468620e+02 	 2.000000e+01 	 
1.469939e+02 	 2.000000e+01 	 
1.471257e+02 	 2.000000e+01 	 
1.472575e+02 	 2.000000e+01 	 
1.473894e+02 	 2.000000e+01 	 
1.475212e+02 	 2.000000e+01 	 
1.476530e+02 	 2.000000e+01 	 
1.477849e+02 	 2.000000e+01 	 
1.479167e+02 	 2.000000e+01 	 
1.480485e+02 	 2.000000e+01 	 
1.481804e+02 	 2.000000e+01 	 
1.483122e+02 	 2.000000e+01 	 
1.484440e+02 	 2.000000e+01 	 
1.485759e+02 	 2.000000e+01 	 
1.487077e+02 	 2.000000e+01 	 
1.488395e+02 	 2.000000e+01 	 
1.489714e+02 	 2.000000e+01 	 
1.491032e+02 	 2.000000e+01 	 
1.492350e+02 	 2.000000e+01 	 
1.493669e+02 	 2.000000e+01 	 
1.494987e+02 	 2.000000e+01 	 
1.496305e+02 	 2.000000e+01 	 
1.497624e+02 	 2.000000e+01 	 
1.498942e+02 	 2.000000e+01 	 
1.500260e+02 	 2.000000e+01 	 
1.501579e+02 	 1.999996e+01 	 
1.502897e+02 	 1.999985e+01 	 
1.504215e+02 	 1.999969e+01 	 
1.505534e+02 	 1.999947e+01 	 
1.506852e+02 	 1.999919e+01 	 
1.508170e+02 	 1.999885e+01 	 
1.509489e+02 	 1.999845e+01 	 
1.510807e+02 	 1.999799e+01 	 
1.512125e+02 	 1.999747e+01 	 
1.513444e+02 	 1.999690e+01 	 
1.514762e+02 	 1.999626e+01 	 
1.516080e+02 	 1.999556e+01 	 
1.517399e+02 	 1.999480e+01 	 
1.518717e+02 	 1.999399e+01 	 
1.520035e+02 	 1.999311e+01 	 
1.521354e+02 	 1.999218e+01 	 
1.522672e+02 	 1.999118e+01 	 
1.523990e+02 	 1.999013e+01 	 
1.525309e+02 	 1.998901e+01 	 
1.526627e+02 	 1.998784e+01 	 
1.527945e+02 	 1.998661e+01 	 
1.529264e+02 	 1.998532e+01 	 
1.530582e+02 	 1.998397e+01 	 
1.531900e+02 	 1.998256e+01 	 
1.533219e+02 	 1.998109e+01 	 
1.534537e+02 	 1.997956e+01 	 
1.535855e+02 	 1.997797e+01 	 
1.537174e+02 	 1.997632e+01 	 
1.538492e+02 	 1.997461e+01 	 
1.539810e+02 	 1.997285e+01 	 
1.541129e+02 	 1.997102e+01 	 
1.542447e+02 	 1.996914e+01 	 
1.543765e+02 	 1.996719e+01 	 
1.545084e+02 	 1.996519e+01 	 
1.546402e+02 	 1.996313e+01 	 
1.547720e+02 	 1.996100e+01 	 
1.549039e+02 	 1.995882e+01 	 
1.550357e+02 	 1.995658e+01 	 
1.551675e+02 	 1.995428e+01 	 
1.552994e+02 	 1.995193e+01 	 
1.554312e+02 	 1.994951e+01 	 
1.555630e+02 	 1.994703e+01 	 
1.556949e+02 	 1.994450e+01 	 
1.558267e+02 	 1.994191e+01 	 
1.559585e+02 	 1.993925e+01 	 
1.560904e+02 	 1.993654e+01 	 
1.562222e+02 	 1.993377e+01 	 
1.563540e+02 	 1.993094e+01 	 
1.564859e+02 	 1.992806e+01 	 
1.566177e+02 	 1.992511e+01 	 
1.567495e+02 	 1.992211e+01 	 
1.568814e+02 	 1.991904e+01 	 
1.570132e+02 	 1.991592e+01 	 
1.571450e+02 	 1.991274e+01 	 
1.572769e+02 	 1.990950e+01 	 
1.574087e+02 	 1.990620e+01 	 
1.575405e+02 	 1.990285e+01 	 
1.576724e+02 	 1.989943e+01 	 
1.578042e+02 	 1.989596e+01 	 
1.579360e+02 	 1.989243e+01 	 
1.580679e+02 	 1.988884e+01 	 
1.581997e+02 	 1.988519e+01 	 
1.583315e+02 	 1.988148e+01 	 
1.584634e+02 	 1.987772e+01 	 
1.585952e+02 	 1.987390e+01 	 
1.587270e+02 	 1.987002e+01 	 
1.588589e+02 	 1.986608e+01 	 
1.589907e+02 	 1.986208e+01 	 
1.591225e+02 	 1.985803e+01 	 
1.592544e+02 	 1.985392e+01 	 
1.593862e+02 	 1.984975e+01 	 
1.595180e+02 	 1.984552e+01 	 
1.596499e+02 	 1.984123e+01 	 
1.597817e+02 	 1.983689e+01 	 
1.599135e+02 	 1.983249e+01 	 
1.600454e+02 	 1.982803e+01 	 
1.601772e+02 	 1.982352e+01 	 
1.603090e+02 	 1.981894e+01 	 
1.604409e+02 	 1.981431e+01 	 
1.605727e+02 	 1.980963e+01 	 
1.607045e+02 	 1.980488e+01 	 
1.608364e+02 	 1.980008e+01 	 
1.609682e+02 	 1.979522e+01 	 
1.611000e+02 	 1.979030e+01 	 
1.612319e+02 	 1.978533e+01 	 
1.613637e+02 	 1.978030e+01 	 
1.614955e+02 	 1.977521e+01 	 
1.616274e+02 	 1.977006e+01 	 
1.617592e+02 	 1.976486e+01 	 
1.618910e+02 	 1.975960e+01 	 
1.620229e+02 	 1.975429e+01 	 
1.621547e+02 	 1.974892e+01 	 
1.622865e+02 	 1.974349e+01 	 
1.624183e+02 	 1.973801e+01 	 
1.625502e+02 	 1.973246e+01 	 
1.626820e+02 	 1.972687e+01 	 
1.628138e+02 	 1.972121e+01 	 
1.629457e+02 	 1.971550e+01 	 
1.630775e+02 	 1.970974e+01 	 
1.632093e+02 	 1.970392e+01 	 
1.633412e+02 	 1.969804e+01 	 
1.634730e+02 	 1.969210e+01 	 
1.636048e+02 	 1.968611e+01 	 
1.637367e+02 	 1.968007e+01 	 
1.638685e+02 	 1.967397e+01 	 
1.640003e+02 	 1.966781e+01 	 
1.641322e+02 	 1.966160e+01 	 
1.642640e+02 	 1.965533e+01 	 
1.643958e+02 	 1.964900e+01 	 
1.645277e+02 	 1.964262e+01 	 
1.646595e+02 	 1.963619e+01 	 
1.647913e+02 	 1.962970e+01 	 
1.649232e+02 	 1.962315e+01 	 
1.650550e+02 	 1.961655e+01 	 
1.651868e+02 	 1.960990e+01 	 
1.653187e+02 	 1.960319e+01 	 
1.654505e+02 	 1.959642e+01 	 
1.655823e+02 	 1.958960e+01 	 
1.657142e+02 	 1.958273e+01 	 
1.658460e+02 	 1.957580e+01 	 
1.659778e+02 	 1.956882e+01 	 
1.661097e+02 	 1.956178e+01 	 
1.662415e+02 	 1.955469e+01 	 
1.663733e+02 	 1.954754e+01 	 
1.665052e+02 	 1.954034e+01 	 
1.666370e+02 	 1.953309e+01 	 
1.667688e+02 	 1.952578e+01 	 
1.669007e+02 	 1.951842e+01 	 
1.670325e+02 	 1.951100e+01 	 
1.671643e+02 	 1.950353e+01 	 
1.672962e+02 	 1.949601e+01 	 
1.674280e+02 	 1.948843e+01 	 
1.675598e+02 	 1.948080e+01 	 
1.676917e+02 	 1.947311e+01 	 
1.678235e+02 	 1.946538e+01 	 
1.679553e+02 	 1.945759e+01 	 
1.680872e+02 	 1.944974e+01 	 
1.682190e+02 	 1.944184e+01 	 
1.683508e+02 	 1.943390e+01 	 
1.684827e+02 	 1.942589e+01 	 
1.686145e+02 	 1.941784e+01 	 
1.687463e+02 	 1.940973e+01 	 
1.688782e+02 	 1.940157e+01 	 
1.690100e+02 	 1.939336e+01 	 
1.691418e+02 	 1.938509e+01 	 
1.692737e+02 	 1.937677e+01 	 
1.694055e+02 	 1.936841e+01 	 
1.695373e+02 	 1.935998e+01 	 
1.696692e+02 	 1.935151e+01 	 
1.698010e+02 	 1.934299e+01 	 
1.699328e+02 	 1.933441e+01 	 
1.700647e+02 	 1.932578e+01 	 
1.701965e+02 	 1.931710e+01 	 
1.703283e+02 	 1.930837e+01 	 
1.704602e+02 	 1.929958e+01 	 
1.705920e+02 	 1.929075e+01 	 
1.707238e+02 	 1.928187e+01 	 
1.708557e+02 	 1.927293e+01 	 
1.709875e+02 	 1.926394e+01 	 
1.711193e+02 	 1.925490e+01 	 
1.712512e+02 	 1.924582e+01 	 
1.713830e+02 	 1.923668e+01 	 
1.715148e+02 	 1.922749e+01 	 
1.716467e+02 	 1.921825e+01 	 
1.717785e+02 	 1.920896e+01 	 
1.719103e+02 	 1.919962e+01 	 
1.720422e+02 	 1.919023e+01 	 
1.721740e+02 	 1.918079e+01 	 
1.723058e+02 	 1.917130e+01 	 
1.724377e+02 	 1.916176e+01 	 
1.725695e+02 	 1.915217e+01 	 
1.727013e+02 	 1.914253e+01 	 
1.728332e+02 	 1.913284e+01 	 
1.729650e+02 	 1.912310e+01 	 
1.730968e+02 	 1.911331e+01 	 
1.732287e+02 	 1.910348e+01 	 
1.733605e+02 	 1.909360e+01 	 
1.734923e+02 	 1.908366e+01 	 
1.736242e+02 	 1.907368e+01 	 
1.737560e+02 	 1.906365e+01 	 
1.738878e+02 	 1.905357e+01 	 
1.740197e+02 	 1.904344e+01 	 
1.741515e+02 	 1.903327e+01 	 
1.742833e+02 	 1.902305e+01 	 
1.744152e+02 	 1.901277e+01 	 
1.745470e+02 	 1.900245e+01 	 
1.746788e+02 	 1.899209e+01 	 
1.748107e+02 	 1.898167e+01 	 
1.749425e+02 	 1.897121e+01 	 
1.750743e+02 	 1.896070e+01 	 
1.752062e+02 	 1.895015e+01 	 
1.753380e+02 	 1.893954e+01 	 
1.754698e+02 	 1.892889e+01 	 
1.756017e+02 	 1.891820e+01 	 
1.757335e+02 	 1.890745e+01 	 
1.758653e+02 	 1.889666e+01 	 
1.759972e+02 	 1.888583e+01 	 
1.761290e+02 	 1.887494e+01 	 
1.762608e+02 	 1.886402e+01 	 
1.763927e+02 	 1.885304e+01 	 
1.765245e+02 	 1.884202e+01 	 
1.766563e+02 	 1.883095e+01 	 
1.767882e+02 	 1.881984e+01 	 
1.769200e+02 	 1.880868e+01 	 
1.770518e+02 	 1.879748e+01 	 
1.771837e+02 	 1.878623e+01 	 
1.773155e+02 	 1.877494e+01 	 
1.774473e+02 	 1.876360e+01 	 
1.775792e+02 	 1.875222e+01 	 
1.777110e+02 	 1.874079e+01 	 
1.778428e+02 	 1.872931e+01 	 
1.779747e+02 	 1.871780e+01 	 
1.781065e+02 	 1.870624e+01 	 
1.782383e+02 	 1.869463e+01 	 
1.783702e+02 	 1.868298e+01 	 
1.785020e+02 	 1.867129e+01 	 
1.786338e+02 	 1.865955e+01 	 
1.787657e+02 	 1.864777e+01 	 
1.788975e+02 	 1.863595e+01 	 
1.790293e+02 	 1.862408e+01 	 
1.791612e+02 	 1.861217e+01 	 
1.792930e+02 	 1.860022e+01 	 
1.794248e+02 	 1.858822e+01 	 
1.795566e+02 	 1.857618e+01 	 
1.796885e+02 	 1.856410e+01 	 
1.798203e+02 	 1.855197e+01 	 
1.799521e+02 	 1.853981e+01 	 
1.800840e+02 	 1.852760e+01 	 
1.802158e+02 	 1.851535e+01 	 
1.803476e+02 	 1.850305e+01 	 
1.804795e+02 	 1.849072e+01 	 
1.806113e+02 	 1.847834e+01 	 
1.807431e+02 	 1.846593e+01 	 
1.808750e+02 	 1.845347e+01 	 
1.810068e+02 	 1.844097e+01 	 
1.811386e+02 	 1.842843e+01 	 
1.812705e+02 	 1.841585e+01 	 
1.814023e+02 	 1.840322e+01 	 
1.815341e+02 	 1.839056e+01 	 
1.816660e+02 	 1.837786e+01 	 
1.817978e+02 	 1.836511e+01 	 
1.819296e+02 	 1.835233e+01 	 
1.820615e+02 	 1.833951e+01 	 
1.821933e+02 	 1.832664e+01 	 
1.823251e+02 	 1.831374e+01 	 
1.824570e+02 	 1.830080e+01 	 
1.825888e+02 	 1.828782e+01 	 
1.827206e+02 	 1.827480e+01 	 
1.828525e+02 	 1.826173e+01 	 
1.829843e+02 	 1.824864e+01 	 
1.831161e+02 	 1.823550e+01 	 
1.832480e+02 	 1.822232e+01 	 
1.833798e+02 	 1.820911e+01 	 
1.835116e+02 	 1.819586e+01 	 
1.836435e+02 	 1.818257e+01 	 
1.837753e+02 	 1.816924e+01 	 
1.839071e+02 	 1.815587e+01 	 
1.840390e+02 	 1.814247e+01 	 
1.841708e+02 	 1.812902e+01 	 
1.843026e+02 	 1.811555e+01 	 
1.844345e+02 	 1.810203e+01 	 
1.845663e+02 	 1.808848e+01 	 
1.846981e+02 	 1.807489e+01 	 
1.848300e+02 	 1.806126e+01 	 
1.849618e+02 	 1.804760e+01 	 
1.850936e+02 	 1.803390e+01 	 
1.852255e+02 	 1.802017e+01 	 
1.853573e+02 	 1.800639e+01 	 
1.854891e+02 	 1.799259e+01 	 
1.856210e+02 	 1.797875e+01 	 
1.857528e+02 	 1.796487e+01 	 
1.858846e+02 	 1.795095e+01 	 
1.860165e+02 	 1.793701e+01 	 
1.861483e+02 	 1.792302e+01 	 
1.862801e+02 	 1.790900e+01 	 
1.864120e+02 	 1.789495e+01 	 
1.865438e+02 	 1.788086e+01 	 
1.866756e+02 	 1.786674e+01 	 
1.868075e+02 	 1.785259e+01 	 
1.869393e+02 	 1.783840e+01 	 
1.870711e+02 	 1.782417e+01 	 
1.872030e+02 	 1.780992e+01 	 
1.873348e+02 	 1.779563e+01 	 
1.874666e+02 	 1.778130e+01 	 
1.875985e+02 	 1.776694e+01 	 
1.877303e+02 	 1.775255e+01 	 
1.878621e+02 	 1.773813e+01 	 
1.879940e+02 	 1.772367e+01 	 
1.881258e+02 	 1.770919e+01 	 
1.882576e+02 	 1.769467e+01 	 
1.883895e+02 	 1.768011e+01 	 
1.885213e+02 	 1.766553e+01 	 
1.886531e+02 	 1.765091e+01 	 
1.887850e+02 	 1.763627e+01 	 
1.889168e+02 	 1.762159e+01 	 
1.890486e+02 	 1.760688e+01 	 
1.891805e+02 	 1.759214e+01 	 
1.893123e+02 	 1.757736e+01 	 
1.894441e+02 	 1.756256e+01 	 
1.895760e+02 	 1.754773e+01 	 
1.897078e+02 	 1.753286e+01 	 
1.898396e+02 	 1.751797e+01 	 
1.899715e+02 	 1.750305e+01 	 
1.901033e+02 	 1.748809e+01 	 
1.902351e+02 	 1.747311e+01 	 
1.903670e+02 	 1.745810e+01 	 
1.904988e+02 	 1.744305e+01 	 
1.906306e+02 	 1.742798e+01 	 
1.907625e+02 	 1.741288e+01 	 
1.908943e+02 	 1.739775e+01 	 
1.910261e+02 	 1.738260e+01 	 
1.911580e+02 	 1.736741e+01 	 
1.912898e+02 	 1.735220e+01 	 
1.914216e+02 	 1.733696e+01 	 
1.915535e+02 	 1.732168e+01 	 
1.916853e+02 	 1.730639e+01 	 
1.918171e+02 	 1.729106e+01 	 
1.919490e+02 	 1.727571e+01 	 
1.920808e+02 	 1.726033e+01 	 
1.922126e+02 	 1.724492e+01 	 
1.923445e+02 	 1.722949e+01 	 
1.924763e+02 	 1.721403e+01 	 
1.926081e+02 	 1.719855e+01 	 
1.927400e+02 	 1.718303e+01 	 
1.928718e+02 	 1.716750e+01 	 
1.930036e+02 	 1.715193e+01 	 
1.931355e+02 	 1.713634e+01 	 
1.932673e+02 	 1.712073e+01 	 
1.933991e+02 	 1.710509e+01 	 
1.935310e+02 	 1.708942e+01 	 
1.936628e+02 	 1.707373e+01 	 
1.937946e+02 	 1.705802e+01 	 
1.939265e+02 	 1.704228e+01 	 
1.940583e+02 	 1.702651e+01 	 
1.941901e+02 	 1.701072e+01 	 
1.943220e+02 	 1.699491e+01 	 
1.944538e+02 	 1.697908e+01 	 
1.945856e+02 	 1.696322e+01 	 
1.947175e+02 	 1.694733e+01 	 
1.948493e+02 	 1.693143e+01 	 
1.949811e+02 	 1.691550e+01 	 
1.951130e+02 	 1.689955e+01 	 
1.952448e+02 	 1.688357e+01 	 
1.953766e+02 	 1.686758e+01 	 
1.955085e+02 	 1.685156e+01 	 
1.956403e+02 	 1.683552e+01 	 
1.957721e+02 	 1.681945e+01 	 
1.959040e+02 	 1.680337e+01 	 
1.960358e+02 	 1.678726e+01 	 
1.961676e+02 	 1.677114e+01 	 
1.962995e+02 	 1.675499e+01 	 
1.964313e+02 	 1.673882e+01 	 
1.965631e+02 	 1.672263e+01 	 
1.966949e+02 	 1.670642e+01 	 
1.968268e+02 	 1.669019e+01 	 
1.969586e+02 	 1.667393e+01 	 
1.970904e+02 	 1.665766e+01 	 
1.972223e+02 	 1.664137e+01 	 
1.973541e+02 	 1.662506e+01 	 
1.974859e+02 	 1.660873e+01 	 
1.976178e+02 	 1.659238e+01 	 
1.977496e+02 	 1.657602e+01 	 
1.978814e+02 	 1.655963e+01 	 
1.980133e+02 	 1.654322e+01 	 
1.981451e+02 	 1.652680e+01 	 
1.982769e+02 	 1.651036e+01 	 
1.984088e+02 	 1.649390e+01 	 
1.985406e+02 	 1.647742e+01 	 
1.986724e+02 	 1.646093e+01 	 
1.988043e+02 	 1.644442e+01 	 
1.989361e+02 	 1.642788e+01 	 
1.990679e+02 	 1.641134e+01 	 
1.991998e+02 	 1.639477e+01 	 
1.993316e+02 	 1.637819e+01 	 
1.994634e+02 	 1.636160e+01 	 
1.995953e+02 	 1.634499e+01 	 
1.997271e+02 	 1.632836e+01 	 
1.998589e+02 	 1.631171e+01 	 
1.999908e+02 	 1.629505e+01 	 
2.001226e+02 	 1.627838e+01 	 
2.002544e+02 	 1.626169e+01 	 
2.003863e+02 	 1.624498e+01 	 
2.005181e+02 	 1.622826e+01 	 
2.006499e+02 	 1.621152e+01 	 
2.007818e+02 	 1.619477e+01 	 
2.009136e+02 	 1.617801e+01 	 
2.010454e+02 	 1.616123e+01 	 
2.011773e+02 	 1.614444e+01 	 
2.013091e+02 	 1.612763e+01 	 
2.014409e+02 	 1.611081e+01 	 
2.015728e+02 	 1.609398e+01 	 
2.017046e+02 	 1.607714e+01 	 
2.018364e+02 	 1.606028e+01 	 
2.019683e+02 	 1.604341e+01 	 
2.021001e+02 	 1.602652e+01 	 
2.022319e+02 	 1.600963e+01 	 
2.023638e+02 	 1.599272e+01 	 
2.024956e+02 	 1.597580e+01 	 
2.026274e+02 	 1.595887e+01 	 
2.027593e+02 	 1.594193e+01 	 
2.028911e+02 	 1.592498e+01 	 
2.030229e+02 	 1.590801e+01 	 
2.031548e+02 	 1.589104e+01 	 
2.032866e+02 	 1.587405e+01 	 
2.034184e+02 	 1.585705e+01 	 
2.035503e+02 	 1.584005e+01 	 
2.036821e+02 	 1.582303e+01 	 
2.038139e+02 	 1.580600e+01 	 
2.039458e+02 	 1.578897e+01 	 
2.040776e+02 	 1.577192e+01 	 
2.042094e+02 	 1.575487e+01 	 
2.043413e+02 	 1.573780e+01 	 
2.044731e+02 	 1.572073e+01 	 
2.046049e+02 	 1.570365e+01 	 
2.047368e+02 	 1.568656e+01 	 
2.048686e+02 	 1.566946e+01 	 
2.050004e+02 	 1.565236e+01 	 
2.051323e+02 	 1.563525e+01 	 
2.052641e+02 	 1.561812e+01 	 
2.053959e+02 	 1.560100e+01 	 
2.055278e+02 	 1.558386e+01 	 
2.056596e+02 	 1.556672e+01 	 
2.057914e+02 	 1.554957e+01 	 
2.059233e+02 	 1.553241e+01 	 
2.060551e+02 	 1.551525e+01 	 
2.061869e+02 	 1.549808e+01 	 
2.063188e+02 	 1.548091e+01 	 
2.064506e+02 	 1.546373e+01 	 
2.065824e+02 	 1.544655e+01 	 
2.067143e+02 	 1.542936e+01 	 
2.068461e+02 	 1.541216e+01 	 
2.069779e+02 	 1.539496e+01 	 
2.071098e+02 	 1.537775e+01 	 
2.072416e+02 	 1.536054e+01 	 
2.073734e+02 	 1.534333e+01 	 
2.075053e+02 	 1.532611e+01 	 
2.076371e+02 	 1.530889e+01 	 
2.077689e+02 	 1.529166e+01 	 
2.079008e+02 	 1.527443e+01 	 
2.080326e+02 	 1.525720e+01 	 
2.081644e+02 	 1.523997e+01 	 
2.082963e+02 	 1.522273e+01 	 
2.084281e+02 	 1.520549e+01 	 
2.085599e+02 	 1.518824e+01 	 
2.086918e+02 	 1.517100e+01 	 
2.088236e+02 	 1.515375e+01 	 
2.089554e+02 	 1.513650e+01 	 
2.090873e+02 	 1.511925e+01 	 
2.092191e+02 	 1.510200e+01 	 
2.093509e+02 	 1.508474e+01 	 
2.094828e+02 	 1.506749e+01 	 
2.096146e+02 	 1.505023e+01 	 
2.097464e+02 	 1.503298e+01 	 
2.098783e+02 	 1.501572e+01 	 
2.100101e+02 	 1.499846e+01 	 
2.101419e+02 	 1.498121e+01 	 
2.102738e+02 	 1.496395e+01 	 
2.104056e+02 	 1.494669e+01 	 
2.105374e+02 	 1.492944e+01 	 
2.106693e+02 	 1.491218e+01 	 
2.108011e+02 	 1.489493e+01 	 
2.109329e+02 	 1.487768e+01 	 
2.110648e+02 	 1.486042e+01 	 
2.111966e+02 	 1.484318e+01 	 
2.113284e+02 	 1.482593e+01 	 
2.114603e+02 	 1.480868e+01 	 
2.115921e+02 	 1.479144e+01 	 
2.117239e+02 	 1.477420e+01 	 
2.118558e+02 	 1.475696e+01 	 
2.119876e+02 	 1.473973e+01 	 
2.121194e+02 	 1.472249e+01 	 
2.122513e+02 	 1.470527e+01 	 
2.123831e+02 	 1.468804e+01 	 
2.125149e+02 	 1.467082e+01 	 
2.126468e+02 	 1.465360e+01 	 
2.127786e+02 	 1.463639e+01 	 
2.129104e+02 	 1.461918e+01 	 
2.130423e+02 	 1.460197e+01 	 
2.131741e+02 	 1.458478e+01 	 
2.133059e+02 	 1.456758e+01 	 
2.134378e+02 	 1.455039e+01 	 
2.135696e+02 	 1.453321e+01 	 
2.137014e+02 	 1.451603e+01 	 
2.138332e+02 	 1.449885e+01 	 
2.139651e+02 	 1.448169e+01 	 
2.140969e+02 	 1.446453e+01 	 
2.142287e+02 	 1.444737e+01 	 
2.143606e+02 	 1.443022e+01 	 
2.144924e+02 	 1.441308e+01 	 
2.146242e+02 	 1.439595e+01 	 
2.147561e+02 	 1.437882e+01 	 
2.148879e+02 	 1.436170e+01 	 
2.150197e+02 	 1.434459e+01 	 
2.151516e+02 	 1.432749e+01 	 
2.152834e+02 	 1.431039e+01 	 
2.154152e+02 	 1.429330e+01 	 
2.155471e+02 	 1.427622e+01 	 
2.156789e+02 	 1.425915e+01 	 
2.158107e+02 	 1.424209e+01 	 
2.159426e+02 	 1.422504e+01 	 
2.160744e+02 	 1.420799e+01 	 
2.162062e+02 	 1.419096e+01 	 
2.163381e+02 	 1.417393e+01 	 
2.164699e+02 	 1.415692e+01 	 
2.166017e+02 	 1.413992e+01 	 
2.167336e+02 	 1.412292e+01 	 
2.168654e+02 	 1.410594e+01 	 
2.169972e+02 	 1.408896e+01 	 
2.171291e+02 	 1.407200e+01 	 
2.172609e+02 	 1.405505e+01 	 
2.173927e+02 	 1.403811e+01 	 
2.175246e+02 	 1.402118e+01 	 
2.176564e+02 	 1.400426e+01 	 
2.177882e+02 	 1.398736e+01 	 
2.179201e+02 	 1.397046e+01 	 
2.180519e+02 	 1.395358e+01 	 
2.181837e+02 	 1.393672e+01 	 
2.183156e+02 	 1.391986e+01 	 
2.184474e+02 	 1.390302e+01 	 
2.185792e+02 	 1.388619e+01 	 
2.187111e+02 	 1.386937e+01 	 
2.188429e+02 	 1.385257e+01 	 
2.189747e+02 	 1.383578e+01 	 
2.191066e+02 	 1.381900e+01 	 
2.192384e+02 	 1.380224e+01 	 
2.193702e+02 	 1.378549e+01 	 
2.195021e+02 	 1.376876e+01 	 
2.196339e+02 	 1.375204e+01 	 
2.197657e+02 	 1.373534e+01 	 
2.198976e+02 	 1.371865e+01 	 
2.200294e+02 	 1.370198e+01 	 
2.201612e+02 	 1.368532e+01 	 
2.202931e+02 	 1.366868e+01 	 
2.204249e+02 	 1.365205e+01 	 
2.205567e+02 	 1.363544e+01 	 
2.206886e+02 	 1.361885e+01 	 
2.208204e+02 	 1.360227e+01 	 
2.209522e+02 	 1.358571e+01 	 
2.210841e+02 	 1.356917e+01 	 
2.212159e+02 	 1.355264e+01 	 
2.213477e+02 	 1.353613e+01 	 
2.214796e+02 	 1.351964e+01 	 
2.216114e+02 	 1.350316e+01 	 
2.217432e+02 	 1.348671e+01 	 
2.218751e+02 	 1.347027e+01 	 
2.220069e+02 	 1.345385e+01 	 
2.221387e+02 	 1.343745e+01 	 
2.222706e+02 	 1.342106e+01 	 
2.224024e+02 	 1.340470e+01 	 
2.225342e+02 	 1.338835e+01 	 
2.226661e+02 	 1.337203e+01 	 
2.227979e+02 	 1.335572e+01 	 
2.229297e+02 	 1.333943e+01 	 
2.230616e+02 	 1.332317e+01 	 
2.231934e+02 	 1.330692e+01 	 
2.233252e+02 	 1.329069e+01 	 
2.234571e+02 	 1.327448e+01 	 
2.235889e+02 	 1.325830e+01 	 
2.237207e+02 	 1.324213e+01 	 
2.238526e+02 	 1.322599e+01 	 
2.239844e+02 	 1.320986e+01 	 
2.241162e+02 	 1.319376e+01 	 
2.242481e+02 	 1.317768e+01 	 
2.243799e+02 	 1.316162e+01 	 
2.245117e+02 	 1.314558e+01 	 
2.246436e+02 	 1.312957e+01 	 
2.247754e+02 	 1.311358e+01 	 
2.249072e+02 	 1.309761e+01 	 
2.250391e+02 	 1.308166e+01 	 
2.251709e+02 	 1.306573e+01 	 
2.253027e+02 	 1.304983e+01 	 
2.254346e+02 	 1.303395e+01 	 
2.255664e+02 	 1.301810e+01 	 
2.256982e+02 	 1.300227e+01 	 
2.258301e+02 	 1.298646e+01 	 
2.259619e+02 	 1.297068e+01 	 
2.260937e+02 	 1.295492e+01 	 
2.262256e+02 	 1.293918e+01 	 
2.263574e+02 	 1.292347e+01 	 
2.264892e+02 	 1.290779e+01 	 
2.266211e+02 	 1.289212e+01 	 
2.267529e+02 	 1.287649e+01 	 
2.268847e+02 	 1.286088e+01 	 
2.270166e+02 	 1.284529e+01 	 
2.271484e+02 	 1.282973e+01 	 
2.272802e+02 	 1.281420e+01 	 
2.274121e+02 	 1.279869e+01 	 
2.275439e+02 	 1.278321e+01 	 
2.276757e+02 	 1.276776e+01 	 
2.278076e+02 	 1.275233e+01 	 
2.279394e+02 	 1.273693e+01 	 
2.280712e+02 	 1.272155e+01 	 
2.282031e+02 	 1.270620e+01 	 
2.283349e+02 	 1.269088e+01 	 
2.284667e+02 	 1.267559e+01 	 
2.285986e+02 	 1.266033e+01 	 
2.287304e+02 	 1.264509e+01 	 
2.288622e+02 	 1.262988e+01 	 
2.289941e+02 	 1.261470e+01 	 
2.291259e+02 	 1.259955e+01 	 
2.292577e+02 	 1.258442e+01 	 
2.293896e+02 	 1.256933e+01 	 
2.295214e+02 	 1.255426e+01 	 
2.296532e+02 	 1.253922e+01 	 
2.297851e+02 	 1.252422e+01 	 
2.299169e+02 	 1.250924e+01 	 
2.300487e+02 	 1.249429e+01 	 
2.301806e+02 	 1.247937e+01 	 
2.303124e+02 	 1.246448e+01 	 
2.304442e+02 	 1.244963e+01 	 
2.305761e+02 	 1.243480e+01 	 
2.307079e+02 	 1.242000e+01 	 
2.308397e+02 	 1.240523e+01 	 
2.309715e+02 	 1.239050e+01 	 
2.311034e+02 	 1.237579e+01 	 
2.312352e+02 	 1.236112e+01 	 
2.313670e+02 	 1.234648e+01 	 
2.314989e+02 	 1.233187e+01 	 
2.316307e+02 	 1.231729e+01 	 
2.317625e+02 	 1.230274e+01 	 
2.318944e+02 	 1.228823e+01 	 
2.320262e+02 	 1.227375e+01 	 
2.321580e+02 	 1.225930e+01 	 
2.322899e+02 	 1.224488e+01 	 
2.324217e+02 	 1.223049e+01 	 
2.325535e+02 	 1.221614e+01 	 
2.326854e+02 	 1.220182e+01 	 
2.328172e+02 	 1.218754e+01 	 
2.329490e+02 	 1.217329e+01 	 
2.330809e+02 	 1.215907e+01 	 
2.332127e+02 	 1.214489e+01 	 
2.333445e+02 	 1.213074e+01 	 
2.334764e+02 	 1.211662e+01 	 
2.336082e+02 	 1.210254e+01 	 
2.337400e+02 	 1.208849e+01 	 
2.338719e+02 	 1.207448e+01 	 
2.340037e+02 	 1.206050e+01 	 
2.341355e+02 	 1.204656e+01 	 
2.342674e+02 	 1.203266e+01 	 
2.343992e+02 	 1.201878e+01 	 
2.345310e+02 	 1.200495e+01 	 
2.346629e+02 	 1.199115e+01 	 
2.347947e+02 	 1.197738e+01 	 
2.349265e+02 	 1.196365e+01 	 
2.350584e+02 	 1.194996e+01 	 
2.351902e+02 	 1.193631e+01 	 
2.353220e+02 	 1.192269e+01 	 
2.354539e+02 	 1.190910e+01 	 
2.355857e+02 	 1.189556e+01 	 
2.357175e+02 	 1.188205e+01 	 
2.358494e+02 	 1.186858e+01 	 
2.359812e+02 	 1.185514e+01 	 
2.361130e+02 	 1.184174e+01 	 
2.362449e+02 	 1.182838e+01 	 
2.363767e+02 	 1.181506e+01 	 
2.365085e+02 	 1.180178e+01 	 
2.366404e+02 	 1.178853e+01 	 
2.367722e+02 	 1.177533e+01 	 
2.369040e+02 	 1.176216e+01 	 
2.370359e+02 	 1.174903e+01 	 
2.371677e+02 	 1.173593e+01 	 
2.372995e+02 	 1.172288e+01 	 
2.374314e+02 	 1.170987e+01 	 
2.375632e+02 	 1.169689e+01 	 
2.376950e+02 	 1.168396e+01 	 
2.378269e+02 	 1.167106e+01 	 
2.379587e+02 	 1.165820e+01 	 
2.380905e+02 	 1.164539e+01 	 
2.382224e+02 	 1.163261e+01 	 
2.383542e+02 	 1.161988e+01 	 
2.384860e+02 	 1.160718e+01 	 
2.386179e+02 	 1.159452e+01 	 
2.387497e+02 	 1.158191e+01 	 
2.388815e+02 	 1.156933e+01 	 
2.390134e+02 	 1.155680e+01 	 
2.391452e+02 	 1.154431e+01 	 
2.392770e+02 	 1.153186e+01 	 
2.394089e+02 	 1.151945e+01 	 
2.395407e+02 	 1.150708e+01 	 
2.396725e+02 	 1.149475e+01 	 
2.398044e+02 	 1.148247e+01 	 
2.399362e+02 	 1.147022e+01 	 
2.400680e+02 	 1.145802e+01 	 
2.401999e+02 	 1.144586e+01 	 
2.403317e+02 	 1.143375e+01 	 
2.404635e+02 	 1.142167e+01 	 
2.405954e+02 	 1.140964e+01 	 
2.407272e+02 	 1.139765e+01 	 
2.408590e+02 	 1.138571e+01 	 
2.409909e+02 	 1.137380e+01 	 
2.411227e+02 	 1.136194e+01 	 
2.412545e+02 	 1.135013e+01 	 
2.413864e+02 	 1.133835e+01 	 
2.415182e+02 	 1.132662e+01 	 
2.416500e+02 	 1.131494e+01 	 
2.417819e+02 	 1.130330e+01 	 
2.419137e+02 	 1.129170e+01 	 
2.420455e+02 	 1.128015e+01 	 
2.421774e+02 	 1.126864e+01 	 
2.423092e+02 	 1.125717e+01 	 
2.424410e+02 	 1.124575e+01 	 
2.425729e+02 	 1.123438e+01 	 
2.427047e+02 	 1.122305e+01 	 
2.428365e+02 	 1.121176e+01 	 
2.429684e+02 	 1.120052e+01 	 
2.431002e+02 	 1.118933e+01 	 
2.432320e+02 	 1.117818e+01 	 
2.433639e+02 	 1.116707e+01 	 
2.434957e+02 	 1.115601e+01 	 
2.436275e+02 	 1.114500e+01 	 
2.437594e+02 	 1.113403e+01 	 
2.438912e+02 	 1.112311e+01 	 
2.440230e+02 	 1.111224e+01 	 
2.441549e+02 	 1.110141e+01 	 
2.442867e+02 	 1.109063e+01 	 
2.444185e+02 	 1.107989e+01 	 
2.445504e+02 	 1.106920e+01 	 
2.446822e+02 	 1.105856e+01 	 
2.448140e+02 	 1.104797e+01 	 
2.449459e+02 	 1.103742e+01 	 
2.450777e+02 	 1.102692e+01 	 
2.452095e+02 	 1.101647e+01 	 
2.453414e+02 	 1.100606e+01 	 
2.454732e+02 	 1.099570e+01 	 
2.456050e+02 	 1.098539e+01 	 
2.457369e+02 	 1.097513e+01 	 
2.458687e+02 	 1.096491e+01 	 
2.460005e+02 	 1.095475e+01 	 
2.461324e+02 	 1.094463e+01 	 
2.462642e+02 	 1.093456e+01 	 
2.463960e+02 	 1.092454e+01 	 
2.465279e+02 	 1.091456e+01 	 
2.466597e+02 	 1.090464e+01 	 
2.467915e+02 	 1.089476e+01 	 
2.469234e+02 	 1.088494e+01 	 
2.470552e+02 	 1.087516e+01 	 
2.471870e+02 	 1.086543e+01 	 
2.473189e+02 	 1.085575e+01 	 
2.474507e+02 	 1.084612e+01 	 
2.475825e+02 	 1.083654e+01 	 
2.477144e+02 	 1.082701e+01 	 
2.478462e+02 	 1.081753e+01 	 
2.479780e+02 	 1.080810e+01 	 
2.481098e+02 	 1.079872e+01 	 
2.482417e+02 	 1.078938e+01 	 
2.483735e+02 	 1.078010e+01 	 
2.485053e+02 	 1.077087e+01 	 
2.486372e+02 	 1.076169e+01 	 
2.487690e+02 	 1.075256e+01 	 
2.489008e+02 	 1.074348e+01 	 
2.490327e+02 	 1.073445e+01 	 
2.491645e+02 	 1.072547e+01 	 
2.492963e+02 	 1.071655e+01 	 
2.494282e+02 	 1.070767e+01 	 
2.495600e+02 	 1.069885e+01 	 
2.496918e+02 	 1.069007e+01 	 
2.498237e+02 	 1.068135e+01 	 
2.499555e+02 	 1.067268e+01 	 
2.500873e+02 	 1.066406e+01 	 
2.502192e+02 	 1.065549e+01 	 
2.503510e+02 	 1.064698e+01 	 
2.504828e+02 	 1.063851e+01 	 
2.506147e+02 	 1.063010e+01 	 
2.507465e+02 	 1.062174e+01 	 
2.508783e+02 	 1.061343e+01 	 
2.510102e+02 	 1.060518e+01 	 
2.511420e+02 	 1.059697e+01 	 
2.512738e+02 	 1.058882e+01 	 
2.514057e+02 	 1.058072e+01 	 
2.515375e+02 	 1.057268e+01 	 
2.516693e+02 	 1.056468e+01 	 
2.518012e+02 	 1.055674e+01 	 
2.519330e+02 	 1.054886e+01 	 
2.520648e+02 	 1.054102e+01 	 
2.521967e+02 	 1.053324e+01 	 
2.523285e+02 	 1.052551e+01 	 
2.524603e+02 	 1.051784e+01 	 
2.525922e+02 	 1.051022e+01 	 
2.527240e+02 	 1.050265e+01 	 
2.528558e+02 	 1.049514e+01 	 
2.529877e+02 	 1.048767e+01 	 
2.531195e+02 	 1.048027e+01 	 
2.532513e+02 	 1.047292e+01 	 
2.533832e+02 	 1.046562e+01 	 
2.535150e+02 	 1.045837e+01 	 
2.536468e+02 	 1.045118e+01 	 
2.537787e+02 	 1.044404e+01 	 
2.539105e+02 	 1.043696e+01 	 
2.540423e+02 	 1.042993e+01 	 
2.541742e+02 	 1.042296e+01 	 
2.543060e+02 	 1.041604e+01 	 
2.544378e+02 	 1.040918e+01 	 
2.545697e+02 	 1.040237e+01 	 
2.547015e+02 	 1.039561e+01 	 
2.548333e+02 	 1.038891e+01 	 
2.549652e+02 	 1.038227e+01 	 
2.550970e+02 	 1.037568e+01 	 
2.552288e+02 	 1.036914e+01 	 
2.553607e+02 	 1.036266e+01 	 
2.554925e+02 	 1.035624e+01 	 
2.556243e+02 	 1.034987e+01 	 
2.557562e+02 	 1.034355e+01 	 
2.558880e+02 	 1.033729e+01 	 
2.560198e+02 	 1.033109e+01 	 
2.561517e+02 	 1.032494e+01 	 
2.562835e+02 	 1.031885e+01 	 
2.564153e+02 	 1.031282e+01 	 
2.565472e+02 	 1.030684e+01 	 
2.566790e+02 	 1.030091e+01 	 
2.568108e+02 	 1.029504e+01 	 
2.569427e+02 	 1.028923e+01 	 
2.570745e+02 	 1.028347e+01 	 
2.572063e+02 	 1.027777e+01 	 
2.573382e+02 	 1.027213e+01 	 
2.574700e+02 	 1.026654e+01 	 
2.576018e+02 	 1.026101e+01 	 
2.577337e+02 	 1.025554e+01 	 
2.578655e+02 	 1.025012e+01 	 
2.579973e+02 	 1.024476e+01 	 
2.581292e+02 	 1.023945e+01 	 
2.582610e+02 	 1.023421e+01 	 
2.583928e+02 	 1.022901e+01 	 
2.585247e+02 	 1.022388e+01 	 
2.586565e+02 	 1.021880e+01 	 
2.587883e+02 	 1.021378e+01 	 
2.589202e+02 	 1.020882e+01 	 
2.590520e+02 	 1.020391e+01 	 
2.591838e+02 	 1.019906e+01 	 
2.593157e+02 	 1.019427e+01 	 
2.594475e+02 	 1.018953e+01 	 
2.595793e+02 	 1.018486e+01 	 
2.597112e+02 	 1.018024e+01 	 
2.598430e+02 	 1.017567e+01 	 
2.599748e+02 	 1.017117e+01 	 
2.601067e+02 	 1.016672e+01 	 
2.602385e+02 	 1.016233e+01 	 
2.603703e+02 	 1.015800e+01 	 
2.605022e+02 	 1.015372e+01 	 
2.606340e+02 	 1.014951e+01 	 
2.607658e+02 	 1.014535e+01 	 
2.608977e+02 	 1.014124e+01 	 
2.610295e+02 	 1.013720e+01 	 
2.611613e+02 	 1.013321e+01 	 
2.612932e+02 	 1.012929e+01 	 
2.614250e+02 	 1.012542e+01 	 
2.615568e+02 	 1.012160e+01 	 
2.616887e+02 	 1.011785e+01 	 
2.618205e+02 	 1.011416e+01 	 
2.619523e+02 	 1.011052e+01 	 
2.620842e+02 	 1.010694e+01 	 
2.622160e+02 	 1.010342e+01 	 
2.623478e+02 	 1.009996e+01 	 
2.624797e+02 	 1.009655e+01 	 
2.626115e+02 	 1.009321e+01 	 
2.627433e+02 	 1.008992e+01 	 
2.628752e+02 	 1.008669e+01 	 
2.630070e+02 	 1.008352e+01 	 
2.631388e+02 	 1.008041e+01 	 
2.632707e+02 	 1.007735e+01 	 
2.634025e+02 	 1.007436e+01 	 
2.635343e+02 	 1.007142e+01 	 
2.636662e+02 	 1.006855e+01 	 
2.637980e+02 	 1.006573e+01 	 
2.639298e+02 	 1.006297e+01 	 
2.640617e+02 	 1.006027e+01 	 
2.641935e+02 	 1.005763e+01 	 
2.643253e+02 	 1.005504e+01 	 
2.644572e+02 	 1.005252e+01 	 
2.645890e+02 	 1.005005e+01 	 
2.647208e+02 	 1.004765e+01 	 
2.648527e+02 	 1.004530e+01 	 
2.649845e+02 	 1.004301e+01 	 
2.651163e+02 	 1.004078e+01 	 
2.652481e+02 	 1.003861e+01 	 
2.653800e+02 	 1.003650e+01 	 
2.655118e+02 	 1.003445e+01 	 
2.656436e+02 	 1.003246e+01 	 
2.657755e+02 	 1.003052e+01 	 
2.659073e+02 	 1.002865e+01 	 
2.660391e+02 	 1.002683e+01 	 
2.661710e+02 	 1.002508e+01 	 
2.663028e+02 	 1.002338e+01 	 
2.664346e+02 	 1.002175e+01 	 
2.665665e+02 	 1.002017e+01 	 
2.666983e+02 	 1.001865e+01 	 
2.668301e+02 	 1.001719e+01 	 
2.669620e+02 	 1.001579e+01 	 
2.670938e+02 	 1.001445e+01 	 
2.672256e+02 	 1.001317e+01 	 
2.673575e+02 	 1.001195e+01 	 
2.674893e+02 	 1.001078e+01 	 
2.676211e+02 	 1.000968e+01 	 
2.677530e+02 	 1.000864e+01 	 
2.678848e+02 	 1.000765e+01 	 
2.680166e+02 	 1.000673e+01 	 
2.681485e+02 	 1.000586e+01 	 
2.682803e+02 	 1.000506e+01 	 
2.684121e+02 	 1.000431e+01 	 
2.685440e+02 	 1.000362e+01 	 
2.686758e+02 	 1.000300e+01 	 
2.688076e+02 	 1.000243e+01 	 
2.689395e+02 	 1.000192e+01 	 
2.690713e+02 	 1.000147e+01 	 
2.692031e+02 	 1.000108e+01 	 
2.693350e+02 	 1.000075e+01 	 
2.694668e+02 	 1.000048e+01 	 
2.695986e+02 	 1.000027e+01 	 
2.697305e+02 	 1.000012e+01 	 
2.698623e+02 	 1.000003e+01 	 
2.699941e+02 	 1.000000e+01 	 
