x0	p000	p001	p002	p003	p004	p005	p006	
0.000000e+00 	1.891056e-08 	1.660476e-08 	1.718812e-08 	1.878073e-08 	2.813628e-08 	3.201257e-08 	7.317881e-07 	 
5.599305e-01 	9.148377e-08 	9.296103e-08 	1.006675e-07 	1.120026e-07 	1.471926e-07 	2.443425e-07 	2.739652e-06 	 
1.119861e+00 	5.010125e-08 	5.707890e-08 	6.537377e-08 	8.179238e-08 	1.210124e-07 	2.954758e-07 	3.159719e-06 	 
1.679792e+00 	3.674509e-08 	4.186349e-08 	5.069973e-08 	7.107430e-08 	1.116586e-07 	2.224231e-07 	3.402673e-06 	 
2.239722e+00 	4.385178e-08 	4.767041e-08 	5.749298e-08 	7.634304e-08 	9.642918e-08 	1.491729e-07 	3.384102e-06 	 
2.799653e+00 	6.672404e-08 	7.142862e-08 	8.809445e-08 	1.137843e-07 	1.155715e-07 	1.545139e-07 	3.197066e-06 	 
3.359583e+00 	5.133871e-08 	5.461856e-08 	7.063263e-08 	8.034072e-08 	5.694177e-08 	1.842037e-07 	4.118548e-06 	 
3.919514e+00 	5.897564e-08 	6.654878e-08 	8.022180e-08 	6.806720e-08 	1.217551e-07 	4.230750e-07 	2.802243e-06 	 
4.479444e+00 	6.303134e-08 	6.981141e-08 	7.146257e-08 	4.396490e-08 	2.066350e-07 	4.309140e-07 	4.308657e-06 	 
5.039375e+00 	5.256105e-08 	6.131796e-08 	5.473019e-08 	7.416565e-08 	2.335358e-07 	1.752947e-07 	9.603053e-06 	 
5.599305e+00 	2.720504e-08 	3.118874e-08 	2.589941e-08 	4.768752e-08 	9.904756e-08 	1.173363e-07 	8.186657e-06 	 
6.159236e+00 	6.982601e-09 	7.597598e-09 	7.832198e-09 	1.632554e-08 	6.382578e-09 	1.565001e-07 	4.013375e-06 	 
6.719166e+00 	1.070454e-08 	1.226173e-08 	1.600336e-08 	2.234541e-08 	3.873698e-08 	1.817248e-07 	3.534952e-06 	 
7.279097e+00 	8.513361e-09 	9.903072e-09 	1.373487e-08 	1.644437e-08 	4.631166e-08 	1.178990e-07 	6.150598e-06 	 
7.839027e+00 	3.840362e-09 	4.525780e-09 	6.713266e-09 	6.201315e-09 	2.922696e-08 	9.503224e-08 	7.051412e-06 	 
8.398958e+00 	3.771294e-09 	4.507623e-09 	6.614388e-09 	7.019214e-09 	1.535620e-08 	2.289161e-07 	7.458598e-06 	 
8.958888e+00 	3.146287e-09 	3.985011e-09 	5.660680e-09 	9.120471e-09 	5.268290e-09 	2.846602e-07 	1.127697e-05 	 
9.518819e+00 	1.923750e-09 	2.528998e-09 	3.430911e-09 	6.890924e-09 	8.758648e-09 	1.292473e-07 	1.197012e-05 	 
1.007875e+01 	1.130242e-09 	1.560240e-09 	2.170767e-09 	4.326017e-09 	1.289738e-08 	4.808100e-08 	7.724357e-06 	 
1.063868e+01 	9.876415e-10 	1.473028e-09 	2.271661e-09 	3.962713e-09 	1.292259e-08 	8.644538e-08 	8.964432e-06 	 
1.119861e+01 	4.574491e-10 	7.099707e-10 	1.162105e-09 	1.895260e-09 	5.173500e-09 	7.168919e-08 	8.437043e-06 	 
1.175854e+01 	2.368929e-10 	3.946045e-10 	7.146219e-10 	1.162814e-09 	1.548573e-09 	3.413699e-08 	1.076805e-05 	 
1.231847e+01 	2.124408e-10 	3.691481e-10 	7.038038e-10 	1.257142e-09 	2.196438e-09 	3.818046e-08 	1.341230e-05 	 
1.287840e+01 	1.569092e-10 	2.981862e-10 	6.180121e-10 	1.308828e-09 	3.781512e-09 	4.546399e-08 	1.246329e-05 	 
1.343833e+01 	1.158845e-10 	2.360424e-10 	5.170081e-10 	1.184066e-09 	3.483556e-09 	5.093894e-08 	1.754910e-05 	 
1.399826e+01 	1.310182e-10 	2.829010e-10 	6.358124e-10 	1.433693e-09 	2.705260e-09 	2.916014e-08 	1.530784e-05 	 
1.455819e+01 	9.288932e-11 	2.227690e-10 	5.389073e-10 	1.241006e-09 	2.184838e-09 	1.830098e-08 	9.105730e-06 	 
1.511812e+01 	5.928909e-11 	1.545096e-10 	3.990524e-10 	9.641747e-10 	1.882410e-09 	1.573902e-08 	7.634071e-06 	 
1.567805e+01 	2.293436e-11 	6.555801e-11 	1.829763e-10 	4.621849e-10 	1.333713e-09 	1.647450e-08 	6.661485e-06 	 
1.623799e+01 	1.265834e-11 	3.387786e-11 	9.727520e-11 	2.639233e-10 	8.907686e-10 	2.225773e-08 	8.538030e-06 	 
1.679792e+01 	1.225926e-11 	2.737210e-11 	7.367727e-11 	1.991399e-10 	7.593234e-10 	2.723356e-08 	7.728152e-06 	 
1.735785e+01 	9.204088e-12 	2.062605e-11 	5.709886e-11 	1.576193e-10 	6.330924e-10 	1.535673e-08 	2.302897e-06 	 
1.791778e+01 	6.857139e-12 	1.802755e-11 	5.537866e-11 	1.607374e-10 	6.467145e-10 	8.776015e-09 	1.165005e-06 	 
1.847771e+01 	5.095001e-12 	1.287598e-11 	3.922025e-11 	1.143646e-10 	5.402318e-10 	6.427864e-09 	1.256633e-06 	 
1.903764e+01 	8.030046e-12 	1.859548e-11 	5.172896e-11 	1.534175e-10 	5.931577e-10 	9.042228e-09 	1.736660e-06 	 
1.959757e+01 	6.737899e-12 	1.402764e-11 	3.554753e-11 	1.052736e-10 	3.745858e-10 	8.048051e-09 	1.362827e-06 	 
2.015750e+01 	4.240777e-12 	8.163628e-12 	2.086758e-11 	7.495042e-11 	3.587134e-10 	5.137387e-09 	9.955269e-07 	 
2.071743e+01 	3.558472e-12 	7.817864e-12 	2.164019e-11 	7.695246e-11 	5.778543e-10 	6.879195e-09 	1.167549e-06 	 
2.127736e+01 	2.667467e-12 	5.704936e-12 	1.615303e-11 	4.837920e-11 	3.846758e-10 	7.323811e-09 	1.014095e-06 	 
2.183729e+01 	2.581093e-12 	5.549340e-12 	1.438988e-11 	5.059392e-11 	2.303973e-10 	2.787243e-09 	5.233508e-07 	 
2.239722e+01 	2.623551e-12 	5.664593e-12 	1.376468e-11 	3.981874e-11 	1.517970e-10 	1.243041e-09 	4.842115e-07 	 
2.295715e+01 	1.620930e-12 	3.937791e-12 	1.007129e-11 	3.305107e-11 	1.362444e-10 	7.520870e-10 	3.569633e-07 	 
2.351708e+01 	1.287249e-12 	3.793619e-12 	1.035087e-11 	2.864667e-11 	1.050778e-10 	4.894545e-10 	2.404473e-07 	 
2.407701e+01 	9.873917e-13 	2.968831e-12 	9.031484e-12 	2.492878e-11 	8.438875e-11 	4.210684e-10 	2.059936e-07 	 
2.463694e+01 	1.036533e-12 	3.279523e-12 	1.050956e-11 	3.578551e-11 	1.161955e-10 	6.153332e-10 	1.972889e-07 	 
2.519687e+01 	7.318584e-13 	1.674067e-12 	4.795962e-12 	1.586738e-11 	6.899442e-11 	3.052469e-10 	1.885448e-07 	 
2.575680e+01 	5.585514e-13 	1.921533e-12 	5.138457e-12 	1.519488e-11 	6.396606e-11 	2.474190e-10 	1.496610e-07 	 
2.631673e+01 	6.646890e-13 	1.762375e-12 	5.867532e-12 	1.360366e-11 	5.045380e-11 	2.314290e-10 	2.236683e-07 	 
2.687667e+01 	1.039099e-11 	7.789087e-12 	1.108485e-11 	3.026988e-11 	8.721636e-11 	3.862688e-10 	2.398690e-07 	 
2.743660e+01 	2.196525e-10 	4.760558e-10 	6.036117e-10 	4.994329e-10 	2.768982e-10 	3.707122e-10 	1.676061e-07 	 
2.799653e+01 	2.456655e-09 	4.262922e-09 	3.902363e-09 	2.247868e-09 	8.543465e-10 	1.037880e-09 	1.406120e-07 	 
2.855646e+01 	2.826384e-09 	3.352404e-09 	2.705348e-09 	1.758911e-09 	9.906185e-10 	1.078561e-09 	1.407559e-07 	 
2.911639e+01 	3.485049e-10 	2.574730e-10 	2.296146e-10 	2.277591e-10 	2.014961e-10 	3.490530e-10 	1.325062e-07 	 
2.967632e+01 	9.813016e-12 	1.246482e-11 	7.523152e-12 	2.121296e-11 	4.696810e-11 	1.460247e-10 	8.767921e-08 	 
3.023625e+01 	5.877237e-12 	3.441317e-12 	3.319480e-12 	9.028392e-12 	2.829716e-11 	1.566934e-10 	6.439566e-08 	 
3.079618e+01 	2.359472e-12 	1.116714e-12 	2.868709e-12 	9.265704e-12 	2.746240e-11 	1.113795e-10 	8.656409e-08 	 
3.135611e+01 	1.247770e-12 	9.926106e-13 	1.910509e-12 	6.623994e-12 	1.982088e-11 	1.528788e-10 	9.658441e-08 	 
3.191604e+01 	8.248991e-13 	7.986073e-13 	1.574321e-12 	5.549373e-12 	2.531346e-11 	1.979750e-10 	4.943607e-08 	 
3.247597e+01 	4.982346e-13 	3.656829e-13 	9.178203e-13 	4.042894e-12 	1.796766e-11 	1.397485e-10 	3.023058e-08 	 
3.303590e+01 	3.262667e-13 	2.776064e-13 	9.100692e-13 	4.932975e-12 	2.191895e-11 	1.053490e-10 	2.822853e-08 	 
3.359583e+01 	2.588781e-13 	3.189019e-13 	1.240051e-12 	6.397460e-12 	2.869901e-11 	1.312762e-10 	3.677345e-08 	 
3.415576e+01 	3.766229e-13 	3.480258e-13 	1.053121e-12 	5.402118e-12 	2.740749e-11 	1.412205e-10 	1.941276e-08 	 
3.471569e+01 	3.570608e-13 	3.720039e-13 	8.877073e-13 	4.048894e-12 	2.447385e-11 	1.395838e-10 	1.713822e-08 	 
3.527562e+01 	3.073744e-13 	4.493301e-13 	1.011238e-12 	3.685348e-12 	2.452776e-11 	1.222648e-10 	2.360047e-08 	 
3.583555e+01 	2.077513e-13 	3.151218e-13 	8.667890e-13 	3.871623e-12 	2.336878e-11 	1.090909e-10 	1.563158e-08 	 
3.639548e+01 	1.590592e-13 	2.317302e-13 	7.148929e-13 	2.737529e-12 	1.305423e-11 	7.963823e-11 	1.286190e-08 	 
3.695541e+01 	1.340373e-13 	1.719092e-13 	5.121322e-13 	2.196761e-12 	1.023924e-11 	4.974712e-11 	1.578230e-08 	 
3.751534e+01 	9.945042e-14 	1.459754e-13 	3.894330e-13 	1.754069e-12 	1.080731e-11 	4.715137e-11 	9.155122e-09 	 
3.807528e+01 	5.750667e-14 	1.053757e-13 	4.569222e-13 	2.299579e-12 	1.342156e-11 	5.246705e-11 	7.177419e-09 	 
3.863521e+01 	5.045227e-14 	1.295815e-13 	5.097324e-13 	1.967357e-12 	7.149982e-12 	3.241287e-11 	6.831067e-09 	 
3.919514e+01 	4.278282e-14 	1.423682e-13 	6.062956e-13 	2.167757e-12 	8.435719e-12 	3.547025e-11 	7.972829e-09 	 
3.975507e+01 	7.034831e-14 	1.259214e-13 	4.864565e-13 	2.057620e-12 	1.123855e-11 	5.644943e-11 	7.192453e-09 	 
4.031500e+01 	3.459531e-14 	7.838550e-14 	2.998759e-13 	1.299002e-12 	7.447205e-12 	4.266987e-11 	5.677577e-09 	 
4.087493e+01 	2.663566e-14 	5.472250e-14 	2.033107e-13 	1.144010e-12 	7.871377e-12 	4.099768e-11 	1.922757e-09 	 
4.143486e+01 	2.692293e-14 	5.396854e-14 	2.251503e-13 	1.131087e-12 	5.745076e-12 	2.946782e-11 	3.424892e-09 	 
4.199479e+01 	1.795813e-14 	6.331453e-14 	3.566012e-13 	1.501078e-12 	5.281855e-12 	2.409543e-11 	4.221392e-09 	 
4.255472e+01 	1.427540e-14 	4.745718e-14 	2.601094e-13 	1.276398e-12 	5.840188e-12 	2.675471e-11 	3.302588e-09 	 
4.311465e+01 	9.156241e-15 	3.884071e-14 	1.653500e-13 	7.327562e-13 	4.408941e-12 	2.368618e-11 	2.558696e-09 	 
4.367458e+01 	1.002701e-14 	3.118137e-14 	1.759345e-13 	1.043327e-12 	4.969631e-12 	2.461978e-11 	2.582995e-09 	 
4.423451e+01 	1.056086e-14 	2.076741e-14 	1.295576e-13 	7.856347e-13 	4.520194e-12 	2.642666e-11 	1.410460e-09 	 
4.479444e+01 	1.218972e-14 	1.914342e-14 	1.194210e-13 	5.977560e-13 	3.888884e-12 	1.841635e-11 	1.222877e-09 	 
4.535437e+01 	1.182091e-14 	1.553873e-14 	1.240431e-13 	7.403663e-13 	4.325678e-12 	1.687926e-11 	1.284529e-09 	 
4.591430e+01 	9.199365e-15 	2.030117e-14 	1.076492e-13 	7.537766e-13 	3.899510e-12 	1.632762e-11 	1.421647e-09 	 
4.647423e+01 	8.027688e-15 	2.019984e-14 	8.893683e-14 	6.382625e-13 	3.552018e-12 	1.766529e-11 	1.626678e-09 	 
4.703416e+01 	6.080694e-15 	1.485800e-14 	5.971629e-14 	3.755069e-13 	2.029313e-12 	1.102032e-11 	1.383661e-09 	 
4.759409e+01 	5.581735e-15 	1.120271e-14 	5.568217e-14 	4.096887e-13 	2.644285e-12 	1.420226e-11 	1.233963e-09 	 
4.815402e+01 	6.043418e-15 	1.537883e-14 	6.723258e-14 	5.686329e-13 	3.034066e-12 	1.439796e-11 	1.047370e-09 	 
4.871396e+01 	5.790854e-15 	1.463840e-14 	6.432323e-14 	5.198800e-13 	2.726131e-12 	1.171843e-11 	7.864127e-10 	 
4.927389e+01 	4.325567e-15 	1.313066e-14 	7.190563e-14 	4.577726e-13 	2.589308e-12 	1.053825e-11 	9.491356e-10 	 
4.983382e+01 	4.357742e-15 	9.806020e-15 	7.617993e-14 	4.094816e-13 	2.251047e-12 	1.110016e-11 	1.204074e-09 	 
5.039375e+01 	5.002906e-15 	6.744384e-15 	6.012764e-14 	3.349124e-13 	1.966013e-12 	1.177443e-11 	7.643542e-10 	 
5.095368e+01 	4.298645e-15 	5.631638e-15 	5.046873e-14 	2.407221e-13 	1.359413e-12 	7.659008e-12 	6.675880e-10 	 
5.151361e+01 	2.602017e-15 	4.707397e-15 	5.514138e-14 	2.679898e-13 	1.963052e-12 	1.015175e-11 	6.049075e-10 	 
5.207354e+01 	1.472223e-15 	4.522287e-15 	4.854918e-14 	2.949385e-13 	2.067597e-12 	1.286994e-11 	5.290311e-10 	 
5.263347e+01 	1.495123e-15 	5.123874e-15 	3.798640e-14 	2.181878e-13 	1.389824e-12 	7.167570e-12 	6.200135e-10 	 
5.319340e+01 	1.732956e-15 	4.991081e-15 	4.282453e-14 	2.376087e-13 	1.374597e-12 	5.402195e-12 	6.490302e-10 	 
5.375333e+01 	1.929464e-14 	1.736509e-14 	5.458969e-14 	2.420901e-13 	1.464705e-12 	6.862881e-12 	8.060522e-10 	 
5.431326e+01 	6.198499e-13 	1.313670e-13 	1.662899e-13 	3.549339e-13 	1.760538e-12 	7.771563e-12 	5.330642e-10 	 
5.487319e+01 	2.872160e-12 	1.856447e-12 	1.584911e-12 	8.830712e-13 	1.882837e-12 	7.991533e-12 	4.740456e-10 	 
5.543312e+01 	7.481564e-12 	1.027868e-11 	3.693796e-12 	1.361085e-12 	2.251910e-12 	7.469050e-12 	4.898227e-10 	 
5.599305e+01 	1.338948e-11 	9.058856e-12 	2.611568e-12 	2.512583e-12 	1.409338e-12 	5.498899e-12 	4.033980e-10 	 
5.655298e+01 	1.331264e-11 	4.779662e-12 	3.352176e-12 	1.955167e-12 	1.208382e-12 	4.074100e-12 	3.541007e-10 	 
5.711291e+01 	1.195856e-11 	6.971553e-12 	5.557025e-12 	3.380518e-12 	2.750677e-12 	3.049851e-12 	2.960075e-10 	 
5.767284e+01 	2.226586e-12 	2.031043e-12 	1.888093e-12 	1.375560e-12 	1.567402e-12 	4.614828e-12 	2.251812e-10 	 
5.823277e+01 	5.124488e-13 	3.415061e-13 	2.947527e-13 	3.183145e-13 	1.029779e-12 	4.971354e-12 	2.481096e-10 	 
5.879270e+01 	1.531493e-13 	2.014034e-13 	1.831189e-13 	2.082187e-13 	9.653062e-13 	4.159046e-12 	2.643238e-10 	 
5.935264e+01 	3.106705e-14 	3.729236e-14 	5.337915e-14 	1.524926e-13 	8.331653e-13 	3.659819e-12 	2.621649e-10 	 
5.991257e+01 	1.847951e-14 	1.076739e-14 	2.180106e-14 	7.637021e-14 	5.016982e-13 	2.162835e-12 	2.333303e-10 	 
6.047250e+01 	5.428030e-15 	8.595866e-15 	2.180104e-14 	7.475772e-14 	4.732989e-13 	1.721253e-12 	2.115769e-10 	 
6.103243e+01 	2.750650e-15 	4.089270e-15 	1.480574e-14 	5.851491e-14 	4.377699e-13 	2.146122e-12 	1.812919e-10 	 
6.159236e+01 	3.969401e-15 	3.658924e-15 	1.161971e-14 	4.603250e-14 	2.778247e-13 	2.025090e-12 	1.263870e-10 	 
6.215229e+01 	3.461693e-15 	5.167202e-15 	1.137489e-14 	5.443559e-14 	2.698946e-13 	2.191832e-12 	1.271102e-10 	 
6.271222e+01 	1.885054e-15 	3.008271e-15 	1.146288e-14 	6.903116e-14 	3.283757e-13 	2.168219e-12 	1.452871e-10 	 
6.327215e+01 	1.143474e-15 	1.546291e-15 	1.152315e-14 	6.259360e-14 	2.861088e-13 	1.822971e-12 	1.342428e-10 	 
6.383208e+01 	8.354571e-16 	1.273297e-15 	1.242409e-14 	5.847771e-14 	3.317630e-13 	1.569948e-12 	1.133645e-10 	 
6.439201e+01 	7.415779e-16 	1.681664e-15 	1.042086e-14 	5.103369e-14 	4.148705e-13 	1.229498e-12 	1.137138e-10 	 
6.495194e+01 	8.996205e-16 	1.069645e-15 	6.262027e-15 	3.900487e-14 	3.704926e-13 	1.179341e-12 	6.433341e-11 	 
6.551187e+01 	6.569836e-16 	1.204760e-15 	5.586758e-15 	3.062151e-14 	2.573505e-13 	9.526129e-13 	8.717909e-11 	 
6.607180e+01 	5.440769e-16 	1.187916e-15 	7.183796e-15 	3.828841e-14 	2.211252e-13 	1.037714e-12 	7.525327e-11 	 
6.663173e+01 	4.379098e-16 	1.051715e-15 	7.168525e-15 	4.388980e-14 	2.405690e-13 	1.882196e-12 	6.140460e-11 	 
6.719166e+01 	4.241520e-16 	1.107620e-15 	6.796946e-15 	4.734946e-14 	3.058171e-13 	1.506554e-12 	9.036272e-11 	 
6.775159e+01 	3.614647e-16 	1.177711e-15 	6.451074e-15 	4.535286e-14 	2.887476e-13 	1.582149e-12 	9.021683e-11 	 
6.831152e+01 	2.906584e-16 	1.060860e-15 	5.572889e-15 	2.749188e-14 	2.237432e-13 	1.207613e-12 	7.450839e-11 	 
6.887145e+01 	2.964404e-16 	8.620521e-16 	6.483163e-15 	3.289129e-14 	2.468121e-13 	9.353691e-13 	7.182618e-11 	 
6.943138e+01 	2.372736e-16 	5.327165e-16 	4.193052e-15 	2.937648e-14 	1.782501e-13 	1.432602e-12 	7.788288e-11 	 
6.999132e+01 	1.367714e-16 	5.454890e-16 	3.859638e-15 	1.998542e-14 	2.394896e-13 	1.548602e-12 	7.996941e-11 	 
7.055125e+01 	1.058904e-16 	6.748888e-16 	5.291418e-15 	2.509237e-14 	2.755664e-13 	1.104732e-12 	5.362946e-11 	 
7.111118e+01 	8.481719e-17 	3.927937e-16 	3.933178e-15 	2.193581e-14 	2.109201e-13 	1.386080e-12 	4.357779e-11 	 
7.167111e+01 	5.582461e-17 	4.188577e-16 	3.905861e-15 	1.712349e-14 	1.789600e-13 	1.285794e-12 	4.567519e-11 	 
7.223104e+01 	6.734009e-17 	4.196476e-16 	4.305528e-15 	2.060318e-14 	1.716149e-13 	1.022849e-12 	3.744537e-11 	 
7.279097e+01 	6.668762e-17 	4.551552e-16 	4.337128e-15 	2.461223e-14 	2.181101e-13 	9.297893e-13 	4.235017e-11 	 
7.335090e+01 	6.601976e-17 	3.536875e-16 	3.397756e-15 	1.965604e-14 	1.648046e-13 	9.370493e-13 	3.271426e-11 	 
7.391083e+01 	5.469123e-17 	2.732391e-16 	2.761544e-15 	1.759723e-14 	1.152622e-13 	6.285236e-13 	2.337712e-11 	 
7.447076e+01 	3.944381e-17 	3.351964e-16 	2.892114e-15 	2.335986e-14 	1.658564e-13 	4.695431e-13 	2.238888e-11 	 
7.503069e+01 	4.105502e-17 	3.680276e-16 	3.074740e-15 	2.642470e-14 	1.837545e-13 	5.766570e-13 	2.787426e-11 	 
7.559062e+01 	3.564770e-17 	2.322872e-16 	2.038016e-15 	1.679285e-14 	1.231536e-13 	6.762557e-13 	2.070841e-11 	 
7.615055e+01 	2.611351e-17 	1.705469e-16 	1.884684e-15 	2.063836e-14 	1.413418e-13 	6.457826e-13 	2.035647e-11 	 
7.671048e+01 	4.238504e-17 	2.897644e-16 	3.228642e-15 	2.722562e-14 	1.593355e-13 	7.568024e-13 	2.086328e-11 	 
7.727041e+01 	4.126193e-17 	3.535454e-16 	3.161072e-15 	2.532280e-14 	1.430849e-13 	7.625766e-13 	1.747866e-11 	 
7.783034e+01 	2.776768e-17 	2.574191e-16 	2.150556e-15 	1.950483e-14 	1.399488e-13 	6.040644e-13 	1.838360e-11 	 
7.839027e+01 	4.153107e-17 	2.803089e-16 	2.303955e-15 	1.777413e-14 	1.273723e-13 	5.087794e-13 	1.584154e-11 	 
7.895020e+01 	3.411975e-17 	2.449752e-16 	1.970578e-15 	1.477742e-14 	8.094063e-14 	4.508633e-13 	2.243904e-11 	 
7.951013e+01 	2.615894e-17 	1.170020e-16 	1.392669e-15 	1.089160e-14 	7.771235e-14 	3.251095e-13 	2.189051e-11 	 
8.007006e+01 	3.220733e-17 	1.231475e-16 	1.406379e-15 	1.290511e-14 	9.744919e-14 	2.901542e-13 	1.409655e-11 	 
8.063000e+01 	5.695550e-17 	3.493884e-16 	2.005456e-15 	1.374476e-14 	9.509824e-14 	2.896815e-13 	2.005936e-11 	 
8.118993e+01 	1.887563e-15 	2.050997e-15 	3.067145e-15 	1.475865e-14 	1.084442e-13 	4.544664e-13 	2.223281e-11 	 
8.174986e+01 	1.257237e-14 	4.324925e-15 	5.054803e-15 	1.548567e-14 	1.026240e-13 	3.384149e-13 	1.936327e-11 	 
8.230979e+01 	1.779024e-14 	1.364370e-14 	9.394345e-15 	1.432154e-14 	7.175299e-14 	4.213848e-13 	1.336431e-11 	 
8.286972e+01 	3.663000e-14 	1.867314e-14 	1.648047e-14 	1.598831e-14 	6.222484e-14 	4.696492e-13 	9.664605e-12 	 
8.342965e+01 	1.646232e-13 	1.836021e-14 	4.052343e-14 	2.590317e-14 	6.902918e-14 	3.015483e-13 	1.418941e-11 	 
8.398958e+01 	1.395662e-13 	4.517064e-14 	3.376321e-14 	3.851256e-14 	8.423758e-14 	4.060447e-13 	1.051527e-11 	 
8.454951e+01 	6.171002e-14 	3.743560e-14 	2.350288e-14 	3.534055e-14 	9.019898e-14 	2.962627e-13 	1.040601e-11 	 
8.510944e+01 	6.186407e-14 	2.383402e-14 	2.105701e-14 	3.389014e-14 	7.024354e-14 	3.833331e-13 	9.873826e-12 	 
8.566937e+01 	8.620183e-14 	4.728234e-14 	3.128531e-14 	3.855578e-14 	4.230007e-14 	4.066533e-13 	9.563439e-12 	 
8.622930e+01 	2.041001e-14 	1.279784e-14 	1.118031e-14 	2.629191e-14 	5.554522e-14 	2.675165e-13 	8.591063e-12 	 
8.678923e+01 	9.848109e-16 	9.988746e-16 	1.933120e-15 	1.516248e-14 	6.374350e-14 	1.884651e-13 	5.599615e-12 	 
8.734916e+01 	1.003584e-15 	7.297210e-16 	1.416310e-15 	1.267510e-14 	5.485117e-14 	1.984212e-13 	4.341299e-12 	 
8.790909e+01 	5.040115e-16 	5.537140e-16 	1.803664e-15 	1.498776e-14 	5.304928e-14 	2.842689e-13 	6.426351e-12 	 
8.846902e+01 	1.362906e-16 	2.407115e-16 	1.534140e-15 	1.207706e-14 	5.620222e-14 	2.870294e-13 	7.711351e-12 	 
8.902895e+01 	7.985582e-17 	1.260118e-16 	8.355872e-16 	7.032346e-15 	4.596712e-14 	2.397417e-13 	9.539642e-12 	 
8.958888e+01 	4.080233e-17 	9.308072e-17 	7.115855e-16 	6.752036e-15 	4.543992e-14 	1.774610e-13 	8.870157e-12 	 
9.014881e+01 	1.390635e-17 	9.881481e-17 	9.813768e-16 	8.476640e-15 	5.044916e-14 	1.174631e-13 	8.511836e-12 	 
9.070874e+01 	2.758999e-17 	1.036112e-16 	9.494316e-16 	8.138113e-15 	3.022955e-14 	1.840141e-13 	5.914911e-12 	 
9.126867e+01 	2.545262e-17 	1.033849e-16 	1.083624e-15 	9.261670e-15 	3.134431e-14 	2.066539e-13 	5.358682e-12 	 
9.182861e+01 	1.820642e-17 	8.420792e-17 	7.992533e-16 	5.719894e-15 	3.941664e-14 	1.903732e-13 	5.629402e-12 	 
9.238854e+01 	1.456892e-17 	9.274890e-17 	6.822274e-16 	5.242226e-15 	4.295829e-14 	2.303165e-13 	5.379295e-12 	 
9.294847e+01 	2.044172e-17 	9.930144e-17 	7.411114e-16 	6.177713e-15 	3.837293e-14 	1.494702e-13 	4.385054e-12 	 
9.350840e+01 	1.568707e-17 	6.810657e-17 	6.324801e-16 	5.366195e-15 	3.311325e-14 	1.412558e-13 	4.005376e-12 	 
9.406833e+01 	8.923531e-18 	4.724180e-17 	5.437542e-16 	4.970130e-15 	3.459612e-14 	1.397665e-13 	2.944278e-12 	 
9.462826e+01 	1.223520e-17 	7.743514e-17 	7.869920e-16 	6.078005e-15 	4.426788e-14 	1.868998e-13 	3.679988e-12 	 
9.518819e+01 	1.552815e-17 	5.406963e-17 	6.065728e-16 	6.227092e-15 	4.565089e-14 	1.897154e-13 	3.615596e-12 	 
9.574812e+01 	1.772618e-17 	5.627046e-17 	4.794769e-16 	5.654190e-15 	4.553124e-14 	1.692063e-13 	3.809677e-12 	 
9.630805e+01 	1.465623e-17 	6.715063e-17 	3.659792e-16 	2.865212e-15 	4.160932e-14 	2.016389e-13 	4.658361e-12 	 
9.686798e+01 	1.131461e-17 	5.633994e-17 	3.298161e-16 	3.263366e-15 	4.303437e-14 	2.126331e-13 	5.817814e-12 	 
9.742791e+01 	2.066942e-17 	5.308358e-17 	4.351754e-16 	4.147108e-15 	3.235891e-14 	2.313624e-13 	4.820372e-12 	 
9.798784e+01 	2.171551e-17 	5.017428e-17 	5.380486e-16 	4.636765e-15 	2.430820e-14 	2.334894e-13 	3.224983e-12 	 
9.854777e+01 	4.775036e-17 	7.269880e-17 	5.371270e-16 	4.851452e-15 	3.123301e-14 	1.942100e-13 	3.852204e-12 	 
9.910770e+01 	2.126546e-16 	1.506792e-16 	3.957081e-16 	3.807135e-15 	3.632044e-14 	1.700933e-13 	4.229528e-12 	 
9.966763e+01 	2.324607e-16 	1.382513e-16 	5.535816e-16 	5.089466e-15 	3.030177e-14 	1.678382e-13 	3.775871e-12 	 
1.002276e+02 	1.611808e-16 	1.036855e-16 	9.389631e-16 	7.390179e-15 	2.865449e-14 	1.826150e-13 	2.999640e-12 	 
1.007875e+02 	1.612631e-16 	3.563931e-16 	9.433894e-16 	5.779392e-15 	3.416796e-14 	1.531172e-13 	2.891538e-12 	 
1.013474e+02 	2.431131e-16 	4.002785e-16 	7.956045e-16 	5.112337e-15 	3.511565e-14 	1.497113e-13 	4.725978e-12 	 
1.019074e+02 	3.317794e-16 	2.224099e-16 	7.662890e-16 	4.160416e-15 	4.076058e-14 	1.797375e-13 	4.274714e-12 	 
1.024673e+02 	2.373769e-16 	2.136816e-16 	8.275944e-16 	3.640755e-15 	4.445440e-14 	2.185772e-13 	3.850966e-12 	 
1.030272e+02 	7.951901e-17 	1.084831e-16 	7.624434e-16 	3.635276e-15 	4.268084e-14 	3.317630e-13 	2.637226e-12 	 
1.035871e+02 	6.573030e-17 	1.031082e-16 	8.423031e-16 	5.458271e-15 	5.176707e-14 	2.024954e-13 	2.964616e-12 	 
1.041471e+02 	7.312993e-17 	7.593630e-17 	7.620255e-16 	5.228050e-15 	6.414610e-14 	1.056495e-13 	3.438487e-12 	 
1.047070e+02 	4.160425e-17 	5.190790e-17 	6.412182e-16 	4.145428e-15 	4.845947e-14 	2.166711e-13 	2.638037e-12 	 
1.052669e+02 	2.021421e-17 	5.283495e-17 	6.723278e-16 	2.981870e-15 	4.682713e-14 	2.697884e-13 	2.381863e-12 	 
1.058269e+02 	8.690303e-18 	4.736055e-17 	7.603717e-16 	3.789842e-15 	3.337031e-14 	2.988236e-13 	2.703696e-12 	 
1.063868e+02 	1.540386e-17 	4.748001e-17 	8.792335e-16 	4.519725e-15 	2.963439e-14 	2.497578e-13 	2.854937e-12 	 
