x0	P4	P5	
6.000000e+01 	1.065330e-04 	-1.171392e-03 	 
6.001556e+01 	-8.155856e-06 	-1.159165e-03 	 
6.003125e+01 	-1.619737e-04 	-1.044659e-03 	 
6.004678e+01 	-2.225446e-04 	-8.641244e-04 	 
6.006247e+01 	-2.265168e-04 	-8.615527e-04 	 
6.007812e+01 	-2.144519e-04 	-1.124859e-03 	 
6.009366e+01 	-1.554559e-04 	-1.374886e-03 	 
6.010934e+01 	-1.052445e-04 	-1.328092e-03 	 
6.012500e+01 	-2.048679e-04 	-1.133448e-03 	 
6.014062e+01 	-4.602841e-04 	-1.033533e-03 	 
6.015619e+01 	-6.433903e-04 	-1.103884e-03 	 
6.017184e+01 	-6.165072e-04 	-1.344682e-03 	 
6.018750e+01 	-4.706482e-04 	-1.617153e-03 	 
6.020312e+01 	-3.381172e-04 	-1.741446e-03 	 
6.021869e+01 	-2.672085e-04 	-1.717626e-03 	 
6.023431e+01 	-2.774338e-04 	-1.618772e-03 	 
6.024997e+01 	-3.759199e-04 	-1.502112e-03 	 
6.026562e+01 	-5.170057e-04 	-1.445898e-03 	 
6.028128e+01 	-6.146596e-04 	-1.501065e-03 	 
6.029681e+01 	-6.556010e-04 	-1.544676e-03 	 
6.031247e+01 	-5.823321e-04 	-1.435181e-03 	 
6.032812e+01 	-3.263618e-04 	-1.275935e-03 	 
6.034378e+01 	-9.520943e-05 	-1.177267e-03 	 
6.035931e+01 	-8.212770e-05 	-1.179652e-03 	 
6.037497e+01 	-1.692440e-04 	-1.273677e-03 	 
6.039059e+01 	-3.382894e-04 	-1.329180e-03 	 
6.040625e+01 	-6.111550e-04 	-1.278927e-03 	 
6.042178e+01 	-7.166754e-04 	-1.195001e-03 	 
6.043744e+01 	-5.258717e-04 	-1.158572e-03 	 
6.045309e+01 	-2.990669e-04 	-1.177786e-03 	 
6.046875e+01 	-2.170747e-04 	-1.197840e-03 	 
6.048428e+01 	-1.227605e-04 	-1.268692e-03 	 
6.049994e+01 	5.464273e-05 	-1.469571e-03 	 
6.051559e+01 	1.707609e-04 	-1.621073e-03 	 
6.053125e+01 	1.285060e-04 	-1.479599e-03 	 
6.054691e+01 	-1.318841e-05 	-1.044216e-03 	 
6.056244e+01 	-1.802654e-04 	-5.904518e-04 	 
6.057809e+01 	-4.121503e-04 	-4.186637e-04 	 
6.059375e+01 	-6.256857e-04 	-4.099696e-04 	 
6.060928e+01 	-6.202201e-04 	-2.865680e-04 	 
6.062494e+01 	-4.850057e-04 	-1.068986e-04 	 
6.064059e+01 	-5.067188e-04 	1.662844e-05 	 
6.065625e+01 	-6.295595e-04 	2.794467e-05 	 
6.067178e+01 	-5.970172e-04 	-1.064098e-04 	 
6.068744e+01 	-4.849577e-04 	-2.041900e-04 	 
6.070309e+01 	-5.580607e-04 	-2.254115e-04 	 
6.071875e+01 	-7.301062e-04 	-3.944045e-04 	 
6.073428e+01 	-7.715818e-04 	-7.112096e-04 	 
6.074994e+01 	-7.528351e-04 	-9.151654e-04 	 
6.076559e+01 	-6.817174e-04 	-9.722450e-04 	 
6.078125e+01 	-4.787233e-04 	-9.240680e-04 	 
6.079678e+01 	-3.359654e-04 	-8.183478e-04 	 
6.081244e+01 	-3.379934e-04 	-8.501640e-04 	 
6.082809e+01 	-3.400067e-04 	-1.136593e-03 	 
6.084375e+01 	-3.336467e-04 	-1.618299e-03 	 
6.085938e+01 	-3.997563e-04 	-1.969032e-03 	 
6.087491e+01 	-5.505682e-04 	-1.810485e-03 	 
6.089056e+01 	-6.342460e-04 	-1.221321e-03 	 
6.090622e+01 	-4.400903e-04 	-6.762080e-04 	 
6.092184e+01 	-9.878310e-05 	-5.221771e-04 	 
6.093750e+01 	-1.986144e-05 	-7.024645e-04 	 
6.095312e+01 	-4.064185e-04 	-8.997893e-04 	 
6.096875e+01 	-9.819483e-04 	-9.693010e-04 	 
6.098441e+01 	-1.197580e-03 	-1.004602e-03 	 
6.099991e+01 	-7.982997e-04 	-1.065297e-03 	 
6.101556e+01 	-2.313878e-04 	-1.075199e-03 	 
6.103119e+01 	-6.078831e-05 	-9.414990e-04 	 
6.104681e+01 	-2.823863e-04 	-7.722475e-04 	 
6.106247e+01 	-6.152943e-04 	-8.168960e-04 	 
6.107809e+01 	-8.894844e-04 	-1.092356e-03 	 
6.109372e+01 	-1.020137e-03 	-1.296187e-03 	 
6.110934e+01 	-9.683371e-04 	-1.256458e-03 	 
6.112497e+01 	-8.935227e-04 	-1.063138e-03 	 
6.114059e+01 	-9.641663e-04 	-7.481723e-04 	 
6.115622e+01 	-1.123258e-03 	-3.156376e-04 	 
6.117184e+01 	-1.285540e-03 	9.533243e-05 	 
6.118747e+01 	-1.392445e-03 	2.915651e-04 	 
6.120309e+01 	-1.430054e-03 	1.621860e-04 	 
6.121872e+01 	-1.364927e-03 	-2.019577e-04 	 
6.123438e+01 	-1.222538e-03 	-5.135057e-04 	 
6.125000e+01 	-1.191489e-03 	-5.169173e-04 	 
6.126562e+01 	-1.251756e-03 	-3.278583e-04 	 
6.128125e+01 	-1.087949e-03 	-2.339395e-04 	 
6.129688e+01 	-6.785714e-04 	-2.750502e-04 	 
6.131247e+01 	-3.821664e-04 	-2.836765e-04 	 
6.132809e+01 	-4.223121e-04 	-8.428383e-05 	 
6.134369e+01 	-7.188119e-04 	2.725741e-04 	 
6.135928e+01 	-1.029931e-03 	4.850571e-04 	 
6.137500e+01 	-1.178566e-03 	4.090199e-04 	 
6.139059e+01 	-1.109617e-03 	2.381908e-04 	 
6.140622e+01 	-9.179652e-04 	2.106628e-04 	 
6.142181e+01 	-7.776741e-04 	3.180815e-04 	 
6.143741e+01 	-6.833797e-04 	3.814444e-04 	 
6.145312e+01 	-5.281910e-04 	3.618249e-04 	 
6.146872e+01 	-3.893069e-04 	3.435722e-04 	 
6.148431e+01 	-5.472229e-04 	2.711467e-04 	 
6.150000e+01 	-1.064379e-03 	1.187131e-04 	 
6.151559e+01 	-1.562235e-03 	6.401023e-05 	 
6.153119e+01 	-1.596753e-03 	1.373998e-04 	 
6.154691e+01 	-1.250385e-03 	2.663411e-04 	 
6.156247e+01 	-9.611499e-04 	4.366428e-04 	 
6.157806e+01 	-9.157084e-04 	5.460244e-04 	 
6.159378e+01 	-9.868426e-04 	3.984252e-04 	 
6.160934e+01 	-1.084268e-03 	-8.755934e-05 	 
6.162494e+01 	-1.177656e-03 	-8.238540e-04 	 
6.164062e+01 	-1.152580e-03 	-1.465304e-03 	 
6.165622e+01 	-8.836047e-04 	-1.639841e-03 	 
6.167178e+01 	-5.130970e-04 	-1.418432e-03 	 
6.168750e+01 	-1.919048e-04 	-1.188131e-03 	 
6.170309e+01 	6.871102e-05 	-1.137661e-03 	 
6.171866e+01 	1.925970e-04 	-1.215504e-03 	 
6.173438e+01 	9.478090e-05 	-1.319560e-03 	 
6.174994e+01 	-1.430114e-04 	-1.308376e-03 	 
6.176553e+01 	-2.941239e-04 	-1.038898e-03 	 
6.178125e+01 	-3.458790e-04 	-5.623283e-04 	 
6.179684e+01 	-4.163889e-04 	-2.215717e-04 	 
6.181244e+01 	-3.936489e-04 	-1.482397e-04 	 
6.182812e+01 	-1.416784e-04 	-1.958172e-04 	 
6.184372e+01 	1.878729e-04 	-2.440863e-04 	 
6.185931e+01 	3.824117e-04 	-2.683741e-04 	 
6.187491e+01 	4.601908e-04 	-3.338646e-04 	 
6.189062e+01 	6.259072e-04 	-5.134120e-04 	 
6.190622e+01 	9.138691e-04 	-8.094192e-04 	 
6.192181e+01 	1.012406e-03 	-1.122947e-03 	 
6.193744e+01 	8.334167e-04 	-1.261519e-03 	 
6.195316e+01 	7.553172e-04 	-1.284932e-03 	 
6.196875e+01 	1.005716e-03 	-1.387704e-03 	 
6.198434e+01 	1.425491e-03 	-1.537803e-03 	 
6.199997e+01 	1.707256e-03 	-1.640249e-03 	 
6.201556e+01 	1.553981e-03 	-1.636871e-03 	 
6.203119e+01 	1.048982e-03 	-1.513737e-03 	 
6.204681e+01 	6.357357e-04 	-1.416011e-03 	 
6.206241e+01 	5.306100e-04 	-1.457747e-03 	 
6.207812e+01 	5.512992e-04 	-1.525543e-03 	 
6.209375e+01 	4.247081e-04 	-1.458814e-03 	 
6.210934e+01 	1.421394e-04 	-1.269221e-03 	 
6.212497e+01 	-5.901543e-05 	-1.065568e-03 	 
6.214056e+01 	-1.031307e-04 	-9.278767e-04 	 
6.215619e+01 	-5.214811e-05 	-8.780874e-04 	 
6.217188e+01 	4.155014e-05 	-8.967263e-04 	 
6.218750e+01 	2.242136e-04 	-1.024314e-03 	 
6.220309e+01 	5.965416e-04 	-1.389989e-03 	 
6.221869e+01 	8.833128e-04 	-1.912637e-03 	 
6.223431e+01 	8.063737e-04 	-2.346048e-03 	 
6.225003e+01 	5.968253e-04 	-2.580146e-03 	 
6.226562e+01 	5.277667e-04 	-2.607471e-03 	 
6.228122e+01 	6.168838e-04 	-2.487436e-03 	 
6.229681e+01 	8.390642e-04 	-2.286685e-03 	 
6.231244e+01 	9.750265e-04 	-1.994416e-03 	 
6.232803e+01 	7.229863e-04 	-1.631837e-03 	 
6.234375e+01 	3.103866e-04 	-1.345573e-03 	 
6.235938e+01 	1.427349e-04 	-1.262222e-03 	 
6.237497e+01 	1.584370e-04 	-1.346241e-03 	 
6.239056e+01 	2.689440e-05 	-1.469454e-03 	 
6.240619e+01 	-3.012449e-04 	-1.492155e-03 	 
6.242188e+01 	-5.227880e-04 	-1.342740e-03 	 
6.243750e+01 	-4.340250e-04 	-1.188201e-03 	 
6.245309e+01 	-2.229827e-04 	-1.259957e-03 	 
6.246869e+01 	-1.613586e-04 	-1.464395e-03 	 
6.248438e+01 	-3.389756e-04 	-1.522374e-03 	 
6.249997e+01 	-5.881365e-04 	-1.471017e-03 	 
6.251556e+01 	-6.640586e-04 	-1.571161e-03 	 
6.253125e+01 	-5.429759e-04 	-1.858153e-03 	 
6.254684e+01 	-3.772718e-04 	-2.075215e-03 	 
6.256241e+01 	-3.206108e-04 	-2.033869e-03 	 
6.257812e+01 	-4.000559e-04 	-1.828176e-03 	 
6.259369e+01 	-5.065987e-04 	-1.684736e-03 	 
6.260941e+01 	-5.933869e-04 	-1.728184e-03 	 
6.262497e+01 	-8.149140e-04 	-1.837315e-03 	 
6.264056e+01 	-1.174528e-03 	-1.775810e-03 	 
6.265616e+01 	-1.421578e-03 	-1.535346e-03 	 
6.267188e+01 	-1.380719e-03 	-1.268573e-03 	 
6.268747e+01 	-1.177206e-03 	-1.035458e-03 	 
6.270306e+01 	-9.856319e-04 	-9.760989e-04 	 
6.271878e+01 	-7.554274e-04 	-1.183867e-03 	 
6.273434e+01 	-5.510313e-04 	-1.420129e-03 	 
6.274994e+01 	-5.255266e-04 	-1.518532e-03 	 
6.276553e+01 	-5.647967e-04 	-1.576129e-03 	 
6.278125e+01 	-4.729388e-04 	-1.692177e-03 	 
6.279681e+01 	-1.731225e-04 	-1.919318e-03 	 
6.281241e+01 	1.828442e-04 	-2.190339e-03 	 
6.282812e+01 	3.598892e-04 	-2.318482e-03 	 
6.284369e+01 	3.443016e-04 	-2.194920e-03 	 
6.285928e+01 	2.922659e-04 	-1.904856e-03 	 
6.287500e+01 	2.656045e-04 	-1.621108e-03 	 
6.289056e+01 	1.822625e-04 	-1.552651e-03 	 
6.290616e+01 	1.791113e-04 	-1.712589e-03 	 
6.292188e+01 	3.726104e-04 	-1.786597e-03 	 
6.293744e+01 	5.215150e-04 	-1.606603e-03 	 
6.295303e+01 	4.901277e-04 	-1.362597e-03 	 
6.296872e+01 	4.335779e-04 	-1.212339e-03 	 
6.298431e+01 	5.441447e-04 	-1.215812e-03 	 
6.299991e+01 	7.553102e-04 	-1.422042e-03 	 
6.301562e+01 	7.995481e-04 	-1.705013e-03 	 
6.303119e+01 	6.200999e-04 	-1.852703e-03 	 
6.304678e+01 	4.221331e-04 	-1.823027e-03 	 
6.306250e+01 	3.708215e-04 	-1.689244e-03 	 
6.307806e+01 	4.539456e-04 	-1.547294e-03 	 
6.309366e+01 	5.347857e-04 	-1.428808e-03 	 
6.310938e+01 	4.902194e-04 	-1.255852e-03 	 
6.312497e+01 	2.978109e-04 	-1.059597e-03 	 
6.314056e+01 	-2.394987e-05 	-1.021503e-03 	 
6.315616e+01 	-3.550728e-04 	-1.194762e-03 	 
6.317184e+01 	-4.332026e-04 	-1.434716e-03 	 
6.318744e+01 	-1.874537e-04 	-1.633811e-03 	 
6.320312e+01 	1.282218e-04 	-1.729087e-03 	 
6.321869e+01 	3.093912e-04 	-1.628785e-03 	 
6.323438e+01 	3.655564e-04 	-1.411573e-03 	 
6.324994e+01 	4.485027e-04 	-1.372486e-03 	 
6.326562e+01 	6.178184e-04 	-1.704749e-03 	 
6.328119e+01 	6.930517e-04 	-2.219381e-03 	 
6.329688e+01 	5.961428e-04 	-2.521561e-03 	 
6.331247e+01 	4.652591e-04 	-2.435399e-03 	 
6.332803e+01 	4.151615e-04 	-2.213325e-03 	 
6.334372e+01 	4.761501e-04 	-2.101822e-03 	 
6.335928e+01 	6.235477e-04 	-2.025343e-03 	 
6.337497e+01 	8.092590e-04 	-1.921525e-03 	 
6.339056e+01 	8.286664e-04 	-1.780686e-03 	 
6.340622e+01 	5.329312e-04 	-1.566350e-03 	 
6.342178e+01 	1.717618e-04 	-1.339812e-03 	 
6.343747e+01 	6.530107e-05 	-1.288480e-03 	 
6.345303e+01 	2.519276e-04 	-1.476480e-03 	 
6.346872e+01 	5.440869e-04 	-1.730111e-03 	 
6.348428e+01 	7.749759e-04 	-1.834317e-03 	 
6.349997e+01 	9.379247e-04 	-1.811369e-03 	 
6.351553e+01 	1.008085e-03 	-1.944361e-03 	 
6.353122e+01 	9.108096e-04 	-2.367826e-03 	 
6.354678e+01 	8.341388e-04 	-2.722728e-03 	 
6.356247e+01 	9.716042e-04 	-2.578087e-03 	 
6.357803e+01 	1.121949e-03 	-2.062190e-03 	 
6.359372e+01 	1.023972e-03 	-1.642687e-03 	 
6.360928e+01 	7.560590e-04 	-1.535935e-03 	 
6.362497e+01 	5.651236e-04 	-1.664867e-03 	 
6.364062e+01 	4.805612e-04 	-1.952285e-03 	 
6.365619e+01 	3.743764e-04 	-2.200818e-03 	 
6.367188e+01 	3.313531e-04 	-2.093061e-03 	 
6.368744e+01 	6.057781e-04 	-1.684580e-03 	 
6.370312e+01 	1.105137e-03 	-1.385572e-03 	 
6.371869e+01 	1.482459e-03 	-1.387568e-03 	 
6.373438e+01 	1.645807e-03 	-1.578914e-03 	 
6.374994e+01 	1.693283e-03 	-1.816093e-03 	 
6.376559e+01 	1.657960e-03 	-1.998299e-03 	 
6.378116e+01 	1.567673e-03 	-2.006803e-03 	 
6.379684e+01 	1.496913e-03 	-1.783686e-03 	 
6.381250e+01 	1.425111e-03 	-1.408792e-03 	 
6.382806e+01 	1.237990e-03 	-1.123762e-03 	 
6.384375e+01 	9.859871e-04 	-1.011379e-03 	 
6.385931e+01 	8.210506e-04 	-9.600582e-04 	 
6.387497e+01 	6.993320e-04 	-9.629384e-04 	 
6.389053e+01 	4.711143e-04 	-1.001586e-03 	 
6.390622e+01 	2.541525e-04 	-1.035408e-03 	 
6.392191e+01 	2.759018e-04 	-1.084980e-03 	 
6.393744e+01 	4.129870e-04 	-1.158300e-03 	 
6.395312e+01 	2.802828e-04 	-1.232918e-03 	 
6.396869e+01 	-9.798324e-05 	-1.244908e-03 	 
6.398434e+01 	-3.066694e-04 	-1.181487e-03 	 
6.400000e+01 	-2.318958e-04 	-1.079132e-03 	 
6.401556e+01 	-1.013832e-04 	-9.898027e-04 	 
6.403125e+01 	-7.250839e-05 	-9.767224e-04 	 
6.404681e+01 	-7.444839e-05 	-1.035488e-03 	 
6.406247e+01 	-1.153439e-04 	-1.048459e-03 	 
6.407803e+01 	-3.735003e-04 	-1.023423e-03 	 
6.409372e+01 	-8.056701e-04 	-1.114848e-03 	 
6.410938e+01 	-1.034091e-03 	-1.154755e-03 	 
6.412494e+01 	-8.153606e-04 	-8.653790e-04 	 
6.414062e+01 	-4.884322e-04 	-3.684780e-04 	 
6.415619e+01 	-5.536432e-04 	-1.616470e-05 	 
6.417184e+01 	-1.030966e-03 	4.013780e-05 	 
6.418750e+01 	-1.383012e-03 	-8.710881e-05 	 
6.420306e+01 	-1.286404e-03 	-2.187475e-04 	 
6.421875e+01 	-1.075344e-03 	-2.548596e-04 	 
6.423431e+01 	-1.059387e-03 	-2.474111e-04 	 
6.424997e+01 	-1.046433e-03 	-3.366321e-04 	 
6.426553e+01 	-7.435364e-04 	-5.869238e-04 	 
6.428122e+01 	-3.598338e-04 	-9.697464e-04 	 
6.429688e+01 	-2.303760e-04 	-1.312244e-03 	 
6.431244e+01 	-3.583339e-04 	-1.333783e-03 	 
6.432809e+01 	-5.223219e-04 	-1.008636e-03 	 
6.434378e+01 	-5.910796e-04 	-6.463441e-04 	 
6.435931e+01 	-6.570879e-04 	-4.671031e-04 	 
6.437500e+01 	-8.397960e-04 	-4.851154e-04 	 
6.439053e+01 	-1.192146e-03 	-5.276957e-04 	 
6.440622e+01 	-1.566374e-03 	-4.688442e-04 	 
6.442188e+01 	-1.765168e-03 	-4.660929e-04 	 
6.443741e+01 	-1.661709e-03 	-5.650351e-04 	 
6.445309e+01 	-1.288784e-03 	-6.791566e-04 	 
6.446875e+01 	-1.049620e-03 	-8.861073e-04 	 
6.448441e+01 	-1.309288e-03 	-1.179133e-03 	 
6.449994e+01 	-1.700695e-03 	-1.396158e-03 	 
6.451559e+01 	-1.688822e-03 	-1.454687e-03 	 
6.453125e+01 	-1.328197e-03 	-1.473997e-03 	 
6.454688e+01 	-9.686597e-04 	-1.604775e-03 	 
6.456241e+01 	-7.833108e-04 	-1.706128e-03 	 
6.457806e+01 	-8.091713e-04 	-1.526038e-03 	 
6.459372e+01 	-1.101928e-03 	-1.208216e-03 	 
6.460938e+01 	-1.536843e-03 	-1.069981e-03 	 
6.462491e+01 	-1.807114e-03 	-1.110943e-03 	 
6.464056e+01 	-1.828398e-03 	-1.089600e-03 	 
6.465622e+01 	-1.765420e-03 	-9.799668e-04 	 
6.467188e+01 	-1.710944e-03 	-8.511230e-04 	 
6.468741e+01 	-1.614404e-03 	-7.418544e-04 	 
6.470306e+01 	-1.370918e-03 	-7.789949e-04 	 
6.471872e+01 	-9.959374e-04 	-9.553403e-04 	 
6.473438e+01 	-6.247657e-04 	-1.045697e-03 	 
6.474994e+01 	-4.597462e-04 	-8.736691e-04 	 
6.476559e+01 	-5.706278e-04 	-5.739933e-04 	 
6.478125e+01 	-8.553259e-04 	-3.796580e-04 	 
6.479681e+01 	-1.128489e-03 	-3.481003e-04 	 
6.481247e+01 	-1.152651e-03 	-3.350300e-04 	 
6.482812e+01 	-9.779374e-04 	-2.548054e-04 	 
6.484369e+01 	-8.172709e-04 	-2.236976e-04 	 
6.485934e+01 	-6.293649e-04 	-2.509667e-04 	 
6.487500e+01 	-4.669465e-04 	-2.532670e-04 	 
6.489056e+01 	-5.600972e-04 	-3.003067e-04 	 
6.490622e+01 	-8.373624e-04 	-4.113887e-04 	 
6.492188e+01 	-9.629383e-04 	-4.939137e-04 	 
6.493741e+01 	-7.906157e-04 	-5.365922e-04 	 
6.495309e+01 	-4.979516e-04 	-5.470251e-04 	 
6.496875e+01 	-3.186708e-04 	-4.198632e-04 	 
6.498428e+01 	-3.514730e-04 	-1.697738e-04 	 
6.499997e+01 	-5.195207e-04 	-1.080266e-04 	 
6.501562e+01 	-7.303313e-04 	-3.070682e-04 	 
6.503119e+01 	-8.729976e-04 	-5.059238e-04 	 
6.504684e+01 	-7.794202e-04 	-7.201463e-04 	 
6.506250e+01 	-5.603047e-04 	-8.965520e-04 	 
6.507806e+01 	-4.309976e-04 	-8.821149e-04 	 
6.509372e+01 	-4.757895e-04 	-8.401090e-04 	 
6.510938e+01 	-6.698710e-04 	-8.860168e-04 	 
6.512491e+01 	-8.253354e-04 	-9.828873e-04 	 
6.514056e+01 	-7.449101e-04 	-1.131376e-03 	 
6.515622e+01 	-5.348678e-04 	-1.315857e-03 	 
6.517188e+01 	-4.892281e-04 	-1.330792e-03 	 
6.518741e+01 	-6.318301e-04 	-1.107299e-03 	 
6.520306e+01 	-7.234087e-04 	-8.312396e-04 	 
6.521872e+01 	-6.353610e-04 	-7.499914e-04 	 
6.523438e+01 	-5.172542e-04 	-9.504148e-04 	 
6.524991e+01 	-6.133510e-04 	-1.111628e-03 	 
6.526556e+01 	-9.615200e-04 	-9.269738e-04 	 
6.528122e+01 	-1.311974e-03 	-5.501802e-04 	 
6.529688e+01 	-1.305195e-03 	-2.992395e-04 	 
6.531241e+01 	-9.630181e-04 	-1.917559e-04 	 
6.532806e+01 	-6.833638e-04 	-1.759422e-04 	 
6.534372e+01 	-7.036354e-04 	-3.248889e-04 	 
6.535938e+01 	-8.524827e-04 	-5.548602e-04 	 
6.537494e+01 	-8.590024e-04 	-7.229245e-04 	 
6.539059e+01 	-7.050635e-04 	-9.152973e-04 	 
6.540625e+01 	-4.870560e-04 	-1.115507e-03 	 
6.542191e+01 	-2.753529e-04 	-1.113842e-03 	 
6.543744e+01 	-1.612922e-04 	-8.815476e-04 	 
6.545306e+01 	-2.795860e-04 	-6.904259e-04 	 
6.546872e+01 	-6.768821e-04 	-8.036367e-04 	 
6.548438e+01 	-1.117677e-03 	-9.985926e-04 	 
6.550000e+01 	-1.321345e-03 	-8.938023e-04 	 
6.551553e+01 	-1.346210e-03 	-5.318066e-04 	 
6.553119e+01 	-1.299786e-03 	-1.486660e-04 	 
6.554681e+01 	-1.163507e-03 	1.642409e-04 	 
6.556244e+01 	-9.757364e-04 	2.768628e-04 	 
6.557806e+01 	-7.962053e-04 	8.263618e-05 	 
6.559369e+01 	-6.985801e-04 	-1.894490e-04 	 
6.560931e+01 	-7.286075e-04 	-2.732521e-04 	 
6.562497e+01 	-7.695803e-04 	-1.806277e-04 	 
6.564059e+01 	-7.281650e-04 	-9.106369e-06 	 
6.565622e+01 	-6.408592e-04 	1.272655e-04 	 
6.567184e+01 	-5.206475e-04 	7.535998e-05 	 
6.568750e+01 	-4.922041e-04 	-5.632877e-05 	 
6.570312e+01 	-7.961422e-04 	1.986691e-05 	 
6.571878e+01 	-1.355951e-03 	2.156310e-04 	 
6.573428e+01 	-1.820215e-03 	2.600511e-04 	 
6.574994e+01 	-1.952614e-03 	2.175632e-04 	 
6.576556e+01 	-1.759790e-03 	1.493736e-04 	 
6.578119e+01 	-1.568768e-03 	1.319166e-04 	 
6.579684e+01 	-1.703860e-03 	3.326074e-04 	 
6.581247e+01 	-1.892250e-03 	6.010520e-04 	 
6.582809e+01 	-1.763645e-03 	6.907532e-04 	 
6.584375e+01 	-1.561908e-03 	5.545871e-04 	 
6.585938e+01 	-1.548299e-03 	1.914256e-04 	 
6.587491e+01 	-1.580942e-03 	-2.442645e-04 	 
6.589056e+01 	-1.493903e-03 	-4.744122e-04 	 
6.590622e+01 	-1.308900e-03 	-5.001388e-04 	 
6.592184e+01 	-1.215184e-03 	-3.891366e-04 	 
6.593750e+01 	-1.313263e-03 	-1.081851e-04 	 
6.595312e+01 	-1.438885e-03 	2.051387e-04 	 
6.596866e+01 	-1.500319e-03 	2.909683e-04 	 
6.598431e+01 	-1.626182e-03 	2.043257e-04 	 
6.599994e+01 	-1.948596e-03 	1.744748e-04 	 
6.601559e+01 	-2.266031e-03 	2.460741e-04 	 
6.603122e+01 	-2.189437e-03 	3.800491e-04 	 
6.604684e+01 	-1.735453e-03 	4.787848e-04 	 
6.606247e+01 	-1.218085e-03 	3.570082e-04 	 
6.607812e+01 	-9.502637e-04 	-1.716789e-05 	 
6.609375e+01 	-9.664567e-04 	-4.424718e-04 	 
6.610928e+01 	-1.027474e-03 	-7.274333e-04 	 
6.612494e+01 	-1.049787e-03 	-8.399082e-04 	 
6.614059e+01 	-1.092874e-03 	-7.703676e-04 	 
6.615622e+01 	-9.905997e-04 	-5.450817e-04 	 
6.617188e+01 	-5.511076e-04 	-3.064954e-04 	 
6.618753e+01 	6.650734e-05 	-2.172863e-04 	 
6.620303e+01 	5.026109e-04 	-2.521650e-04 	 
6.621869e+01 	4.054744e-04 	-2.819853e-04 	 
6.623431e+01 	-1.773370e-04 	-3.282107e-04 	 
6.624997e+01 	-7.171744e-04 	-4.203364e-04 	 
6.626559e+01 	-9.692829e-04 	-3.994721e-04 	 
6.628125e+01 	-9.645296e-04 	-1.005191e-04 	 
6.629678e+01 	-7.946550e-04 	3.658390e-04 	 
6.631244e+01 	-7.145237e-04 	6.655650e-04 	 
6.632809e+01 	-8.481163e-04 	5.913654e-04 	 
6.634375e+01 	-1.014111e-03 	1.214295e-04 	 
6.635931e+01 	-9.909231e-04 	-5.767691e-04 	 
6.637497e+01 	-8.282574e-04 	-1.049050e-03 	 
6.639062e+01 	-7.207334e-04 	-1.042101e-03 	 
6.640625e+01 	-7.092208e-04 	-7.916543e-04 	 
6.642178e+01 	-7.075607e-04 	-6.107566e-04 	 
6.643744e+01 	-6.902730e-04 	-4.760274e-04 	 
6.645309e+01 	-7.430055e-04 	-3.260450e-04 	 
6.646875e+01 	-9.432887e-04 	-2.145434e-04 	 
6.648438e+01 	-1.187510e-03 	-6.858639e-05 	 
6.650000e+01 	-1.248510e-03 	2.593803e-04 	 
6.651566e+01 	-1.076739e-03 	5.970279e-04 	 
6.653125e+01 	-9.056899e-04 	6.461046e-04 	 
6.654688e+01 	-9.103875e-04 	4.360996e-04 	 
6.656250e+01 	-9.565683e-04 	1.365757e-04 	 
6.657812e+01 	-7.620715e-04 	-4.734971e-06 	 
6.659375e+01 	-3.964674e-04 	1.392566e-04 	 
6.660938e+01 	-1.249133e-04 	3.174242e-04 	 
6.662500e+01 	-6.740425e-05 	3.938842e-04 	 
6.664062e+01 	-2.415310e-04 	5.385223e-04 	 
6.665622e+01 	-5.528149e-04 	7.461670e-04 	 
6.667184e+01 	-9.408957e-04 	8.526136e-04 	 
6.668747e+01 	-1.342628e-03 	8.526647e-04 	 
6.670306e+01 	-1.520879e-03 	8.674786e-04 	 
6.671869e+01 	-1.371041e-03 	8.983932e-04 	 
6.673431e+01 	-1.027903e-03 	8.306942e-04 	 
6.674994e+01 	-6.441558e-04 	6.843250e-04 	 
6.676556e+01 	-4.410562e-04 	7.093159e-04 	 
6.678119e+01 	-5.472020e-04 	8.876344e-04 	 
6.679681e+01 	-7.361192e-04 	8.138220e-04 	 
6.681244e+01 	-7.694976e-04 	4.326383e-04 	 
6.682809e+01 	-7.647600e-04 	1.237946e-04 	 
6.684372e+01 	-8.789886e-04 	7.910349e-05 	 
6.685934e+01 	-1.023920e-03 	1.425459e-04 	 
6.687497e+01 	-1.077701e-03 	3.038207e-04 	 
6.689059e+01 	-1.029039e-03 	6.082559e-04 	 
6.690622e+01 	-9.081759e-04 	7.775550e-04 	 
6.692184e+01 	-7.996113e-04 	5.860367e-04 	 
6.693747e+01 	-8.761407e-04 	2.782819e-04 	 
6.695309e+01 	-1.022855e-03 	1.188901e-04 	 
6.696869e+01 	-1.110365e-03 	1.963245e-04 	 
6.698431e+01 	-1.203617e-03 	4.147564e-04 	 
6.699997e+01 	-1.089098e-03 	4.833172e-04 	 
6.701559e+01 	-6.524943e-04 	2.592096e-04 	 
6.703122e+01 	-2.540031e-04 	6.662231e-05 	 
6.704684e+01 	-2.703979e-04 	3.367059e-04 	 
6.706247e+01 	-5.379944e-04 	8.435584e-04 	 
6.707809e+01 	-6.457482e-04 	1.067139e-03 	 
6.709369e+01 	-4.859381e-04 	1.005384e-03 	 
6.710931e+01 	-2.097555e-04 	8.782692e-04 	 
6.712494e+01 	-6.686696e-05 	8.098716e-04 	 
6.714059e+01 	-1.722207e-04 	7.591256e-04 	 
6.715622e+01 	-2.575341e-04 	6.771350e-04 	 
6.717184e+01 	-1.132663e-04 	5.865563e-04 	 
6.718747e+01 	1.305734e-04 	4.663547e-04 	 
6.720309e+01 	3.839433e-04 	3.347928e-04 	 
6.721875e+01 	5.839845e-04 	2.413803e-04 	 
6.723438e+01 	5.205682e-04 	1.825104e-04 	 
6.725000e+01 	5.211860e-05 	6.968231e-05 	 
6.726566e+01 	-5.318909e-04 	-1.034398e-04 	 
6.728116e+01 	-8.599827e-04 	-1.684279e-04 	 
6.729681e+01 	-7.455313e-04 	-9.679140e-05 	 
6.731247e+01 	-4.069301e-04 	2.703283e-05 	 
6.732809e+01 	-1.939039e-04 	1.749810e-04 	 
6.734372e+01 	-2.673245e-04 	2.169615e-04 	 
6.735938e+01 	-5.635681e-04 	9.106178e-06 	 
6.737500e+01 	-9.125930e-04 	-3.590161e-04 	 
6.739053e+01 	-1.125193e-03 	-5.759655e-04 	 
6.740619e+01 	-1.103595e-03 	-4.592172e-04 	 
6.742184e+01 	-9.957555e-04 	-2.493871e-04 	 
6.743747e+01 	-8.864536e-04 	-1.793415e-04 	 
6.745312e+01 	-7.299581e-04 	-1.422735e-04 	 
6.746866e+01 	-6.422232e-04 	2.645985e-05 	 
6.748431e+01 	-6.495300e-04 	2.518847e-04 	 
6.749997e+01 	-5.922332e-04 	3.560233e-04 	 
6.751562e+01 	-3.511788e-04 	3.275417e-04 	 
6.753125e+01 	2.977761e-05 	1.616302e-04 	 
6.754678e+01 	3.423631e-04 	-6.997413e-05 	 
6.756244e+01 	4.942773e-04 	-1.297339e-04 	 
6.757806e+01 	4.747785e-04 	3.779704e-05 	 
6.759372e+01 	3.062587e-04 	2.558213e-04 	 
6.760934e+01 	1.265605e-04 	5.097901e-04 	 
6.762497e+01 	8.564955e-05 	8.902817e-04 	 
6.764059e+01 	1.916202e-04 	1.217031e-03 	 
6.765619e+01 	2.832005e-04 	1.241233e-03 	 
6.767181e+01 	2.188983e-04 	1.047961e-03 	 
6.768741e+01 	9.572515e-05 	8.527905e-04 	 
6.770312e+01 	1.236555e-04 	5.889436e-04 	 
6.771875e+01 	3.854594e-04 	1.120638e-04 	 
6.773434e+01 	7.654644e-04 	-3.663114e-04 	 
6.774994e+01 	1.133173e-03 	-6.605367e-04 	 
6.776553e+01 	1.388165e-03 	-8.969112e-04 	 
6.778125e+01 	1.390637e-03 	-9.829557e-04 	 
6.779684e+01 	1.170790e-03 	-7.895804e-04 	 
6.781244e+01 	9.134079e-04 	-5.280474e-04 	 
6.782803e+01 	7.265966e-04 	-4.298054e-04 	 
6.784375e+01 	7.105705e-04 	-4.485194e-04 	 
6.785934e+01 	8.624626e-04 	-4.859609e-04 	 
6.787494e+01 	1.005985e-03 	-5.531632e-04 	 
6.789053e+01 	9.920779e-04 	-5.623715e-04 	 
6.790625e+01 	9.636520e-04 	-4.648041e-04 	 
6.792184e+01 	1.136475e-03 	-4.718488e-04 	 
6.793744e+01 	1.367940e-03 	-7.277869e-04 	 
6.795303e+01 	1.505382e-03 	-1.096747e-03 	 
6.796875e+01 	1.595069e-03 	-1.391800e-03 	 
6.798434e+01 	1.662413e-03 	-1.589056e-03 	 
6.799994e+01 	1.621934e-03 	-1.713665e-03 	 
6.801553e+01 	1.524055e-03 	-1.783531e-03 	 
6.803125e+01 	1.519978e-03 	-1.773166e-03 	 
6.804688e+01 	1.571046e-03 	-1.684796e-03 	 
6.806247e+01 	1.589109e-03 	-1.651152e-03 	 
6.807809e+01 	1.535829e-03 	-1.647400e-03 	 
6.809372e+01 	1.431543e-03 	-1.519046e-03 	 
6.810931e+01 	1.360505e-03 	-1.346727e-03 	 
6.812494e+01 	1.301264e-03 	-1.441510e-03 	 
6.814056e+01 	1.097905e-03 	-1.749881e-03 	 
6.815619e+01 	8.177343e-04 	-1.952106e-03 	 
6.817178e+01 	7.012266e-04 	-1.944564e-03 	 
6.818750e+01 	8.035075e-04 	-1.717332e-03 	 
6.820312e+01 	1.019603e-03 	-1.281720e-03 	 
6.821875e+01 	1.252188e-03 	-9.942322e-04 	 
6.823434e+01 	1.432370e-03 	-1.174293e-03 	 
6.824997e+01 	1.465314e-03 	-1.629037e-03 	 
6.826559e+01 	1.414468e-03 	-2.028941e-03 	 
6.828122e+01 	1.443738e-03 	-2.209129e-03 	 
6.829681e+01 	1.623505e-03 	-2.168950e-03 	 
6.831244e+01 	1.930759e-03 	-1.924053e-03 	 
6.832803e+01 	2.222158e-03 	-1.591341e-03 	 
6.834375e+01 	2.389620e-03 	-1.381073e-03 	 
6.835934e+01 	2.471535e-03 	-1.269768e-03 	 
6.837494e+01 	2.458507e-03 	-1.056654e-03 	 
6.839053e+01 	2.288479e-03 	-7.900572e-04 	 
6.840625e+01 	2.058142e-03 	-7.597835e-04 	 
6.842184e+01 	1.972390e-03 	-1.050855e-03 	 
6.843744e+01 	2.125209e-03 	-1.392561e-03 	 
6.845312e+01 	2.310202e-03 	-1.504246e-03 	 
6.846872e+01 	2.370033e-03 	-1.403727e-03 	 
6.848428e+01 	2.438491e-03 	-1.191603e-03 	 
6.850000e+01 	2.567095e-03 	-9.360066e-04 	 
6.851556e+01 	2.611440e-03 	-8.335667e-04 	 
6.853125e+01 	2.482895e-03 	-1.037646e-03 	 
6.854684e+01 	2.213410e-03 	-1.390903e-03 	 
6.856241e+01 	1.853457e-03 	-1.633081e-03 	 
6.857809e+01 	1.530396e-03 	-1.611677e-03 	 
6.859369e+01 	1.434242e-03 	-1.488941e-03 	 
6.860938e+01 	1.604676e-03 	-1.515781e-03 	 
6.862497e+01 	1.950652e-03 	-1.673906e-03 	 
6.864056e+01 	2.175329e-03 	-1.813384e-03 	 
6.865625e+01 	1.953803e-03 	-1.865873e-03 	 
6.867184e+01 	1.587368e-03 	-1.847449e-03 	 
6.868741e+01 	1.508623e-03 	-1.754516e-03 	 
6.870309e+01 	1.638967e-03 	-1.664807e-03 	 
6.871869e+01 	1.733857e-03 	-1.675988e-03 	 
6.873438e+01 	1.768545e-03 	-1.641039e-03 	 
6.874997e+01 	1.808691e-03 	-1.479371e-03 	 
6.876553e+01 	1.918248e-03 	-1.447761e-03 	 
6.878122e+01 	2.125215e-03 	-1.583493e-03 	 
6.879681e+01 	2.373656e-03 	-1.704362e-03 	 
6.881250e+01 	2.585774e-03 	-1.892094e-03 	 
6.882806e+01 	2.639916e-03 	-2.160891e-03 	 
6.884375e+01 	2.487653e-03 	-2.189256e-03 	 
6.885934e+01 	2.236110e-03 	-1.897360e-03 	 
6.887491e+01 	1.978814e-03 	-1.655868e-03 	 
6.889059e+01 	1.806221e-03 	-1.638485e-03 	 
6.890619e+01 	1.851316e-03 	-1.656497e-03 	 
6.892188e+01 	2.019645e-03 	-1.608918e-03 	 
6.893747e+01 	2.098522e-03 	-1.704354e-03 	 
6.895306e+01 	2.142995e-03 	-1.937811e-03 	 
6.896875e+01 	2.294872e-03 	-2.036877e-03 	 
6.898434e+01 	2.437228e-03 	-1.904546e-03 	 
6.899991e+01 	2.526549e-03 	-1.612627e-03 	 
6.901559e+01 	2.642690e-03 	-1.365027e-03 	 
6.903116e+01 	2.693119e-03 	-1.421143e-03 	 
6.904684e+01 	2.598821e-03 	-1.567889e-03 	 
6.906241e+01 	2.355246e-03 	-1.429646e-03 	 
6.907809e+01 	2.011703e-03 	-1.042681e-03 	 
6.909366e+01 	1.690388e-03 	-6.220308e-04 	 
6.910934e+01 	1.573579e-03 	-4.250709e-04 	 
6.912491e+01 	1.797140e-03 	-6.626293e-04 	 
6.914059e+01 	2.139564e-03 	-1.143009e-03 	 
6.915619e+01 	2.168872e-03 	-1.397699e-03 	 
6.917188e+01 	1.869801e-03 	-1.244631e-03 	 
6.918744e+01 	1.594005e-03 	-9.274164e-04 	 
6.920312e+01 	1.525220e-03 	-6.833514e-04 	 
6.921869e+01 	1.548158e-03 	-6.099093e-04 	 
6.923438e+01 	1.555414e-03 	-6.829556e-04 	 
6.924994e+01 	1.262894e-03 	-7.088577e-04 	 
6.926562e+01 	6.765283e-04 	-6.439939e-04 	 
6.928122e+01 	3.081011e-04 	-6.059520e-04 	 
6.929681e+01 	4.249412e-04 	-6.033862e-04 	 
6.931250e+01 	8.561213e-04 	-5.630041e-04 	 
6.932806e+01 	1.246014e-03 	-4.942875e-04 	 
6.934375e+01 	1.359505e-03 	-4.409862e-04 	 
6.935934e+01 	1.286584e-03 	-4.084814e-04 	 
6.937500e+01 	1.238712e-03 	-5.241714e-04 	 
6.939059e+01 	1.291851e-03 	-7.453962e-04 	 
6.940625e+01 	1.368424e-03 	-8.552930e-04 	 
6.942181e+01 	1.354105e-03 	-8.760790e-04 	 
6.943750e+01 	1.289465e-03 	-9.186261e-04 	 
6.945306e+01 	1.272107e-03 	-9.800311e-04 	 
6.946875e+01 	1.205781e-03 	-9.264299e-04 	 
6.948434e+01 	1.067342e-03 	-7.199567e-04 	 
6.950003e+01 	1.042185e-03 	-5.857603e-04 	 
6.951559e+01 	1.156176e-03 	-7.104283e-04 	 
6.953125e+01 	1.262322e-03 	-9.327832e-04 	 
6.954681e+01 	1.262322e-03 	-9.641398e-04 	 
6.956250e+01 	1.170743e-03 	-7.949077e-04 	 
6.957806e+01 	1.061055e-03 	-5.790583e-04 	 
6.959372e+01 	9.802568e-04 	-4.601839e-04 	 
6.960928e+01 	1.072086e-03 	-5.682005e-04 	 
6.962494e+01 	1.302185e-03 	-7.932574e-04 	 
6.964059e+01 	1.396681e-03 	-8.286490e-04 	 
6.965625e+01 	1.309111e-03 	-5.306209e-04 	 
6.967181e+01 	1.326002e-03 	-1.416980e-04 	 
6.968747e+01 	1.455283e-03 	-5.464112e-06 	 
6.970312e+01 	1.438547e-03 	-2.191658e-04 	 
6.971869e+01 	1.288330e-03 	-5.901161e-04 	 
6.973434e+01 	1.165397e-03 	-8.774900e-04 	 
6.974991e+01 	1.087663e-03 	-1.068296e-03 	 
6.976559e+01 	1.105379e-03 	-1.300443e-03 	 
6.978125e+01 	1.314866e-03 	-1.632585e-03 	 
6.979684e+01 	1.528130e-03 	-1.904346e-03 	 
6.981250e+01 	1.525928e-03 	-1.913619e-03 	 
6.982806e+01 	1.406809e-03 	-1.595973e-03 	 
6.984375e+01 	1.364152e-03 	-1.015715e-03 	 
6.985934e+01 	1.362004e-03 	-5.338472e-04 	 
6.987500e+01 	1.225330e-03 	-5.857319e-04 	 
6.989059e+01 	9.277315e-04 	-1.025155e-03 	 
6.990616e+01 	6.280443e-04 	-1.322217e-03 	 
6.992184e+01 	5.242466e-04 	-1.317643e-03 	 
6.993741e+01 	6.772289e-04 	-1.254233e-03 	 
6.995309e+01 	1.051141e-03 	-1.278711e-03 	 
6.996866e+01 	1.439868e-03 	-1.184613e-03 	 
6.998434e+01 	1.611141e-03 	-1.016327e-03 	 
6.999991e+01 	1.576667e-03 	-1.156748e-03 	 
7.001559e+01 	1.428660e-03 	-1.571573e-03 	 
7.003116e+01 	1.212405e-03 	-1.988469e-03 	 
7.004684e+01 	8.712432e-04 	-2.223480e-03 	 
7.006250e+01 	4.398205e-04 	-2.057300e-03 	 
7.007806e+01 	2.703394e-04 	-1.646421e-03 	 
7.009372e+01 	5.403856e-04 	-1.511467e-03 	 
7.010938e+01 	8.021828e-04 	-1.650466e-03 	 
7.012494e+01 	7.316366e-04 	-1.659827e-03 	 
7.014059e+01 	5.748713e-04 	-1.475289e-03 	 
7.015616e+01 	5.354234e-04 	-1.369279e-03 	 
7.017184e+01 	7.332013e-04 	-1.552550e-03 	 
7.018750e+01 	1.135767e-03 	-1.934094e-03 	 
7.020306e+01 	1.415449e-03 	-2.013061e-03 	 
7.021872e+01 	1.413604e-03 	-1.661707e-03 	 
7.023438e+01 	1.247707e-03 	-1.488169e-03 	 
7.024994e+01 	1.075603e-03 	-1.829280e-03 	 
7.026559e+01 	1.012335e-03 	-2.348693e-03 	 
7.028125e+01 	1.074988e-03 	-2.640498e-03 	 
7.029681e+01 	1.322603e-03 	-2.579959e-03 	 
7.031247e+01 	1.779575e-03 	-2.302533e-03 	 
7.032812e+01 	2.138083e-03 	-2.048735e-03 	 
7.034378e+01 	2.007915e-03 	-1.937639e-03 	 
7.035931e+01 	1.568416e-03 	-1.978296e-03 	 
7.037497e+01 	1.210892e-03 	-2.102546e-03 	 
7.039062e+01 	9.784620e-04 	-2.262477e-03 	 
7.040616e+01 	8.179476e-04 	-2.434666e-03 	 
7.042181e+01 	9.524296e-04 	-2.482251e-03 	 
7.043747e+01 	1.593208e-03 	-2.388800e-03 	 
7.045312e+01 	2.335952e-03 	-2.357967e-03 	 
7.046866e+01 	2.587009e-03 	-2.510901e-03 	 
7.048434e+01 	2.454046e-03 	-2.872530e-03 	 
7.050000e+01 	2.455625e-03 	-3.351699e-03 	 
7.051556e+01 	2.607318e-03 	-3.520097e-03 	 
7.053122e+01 	2.634788e-03 	-3.201051e-03 	 
7.054688e+01 	2.623361e-03 	-2.766732e-03 	 
7.056244e+01 	2.736963e-03 	-2.565493e-03 	 
7.057809e+01 	2.870678e-03 	-2.647249e-03 	 
7.059366e+01 	2.849475e-03 	-2.948136e-03 	 
7.060934e+01 	2.576949e-03 	-3.308256e-03 	 
7.062500e+01 	2.108930e-03 	-3.463488e-03 	 
7.064056e+01 	1.723178e-03 	-3.317742e-03 	 
7.065622e+01 	1.598036e-03 	-2.980412e-03 	 
7.067178e+01 	1.876330e-03 	-2.709958e-03 	 
7.068747e+01 	2.487973e-03 	-2.694495e-03 	 
7.070312e+01 	3.023238e-03 	-2.764936e-03 	 
7.071869e+01 	3.113354e-03 	-2.820329e-03 	 
7.073438e+01 	2.705978e-03 	-3.003890e-03 	 
7.074994e+01 	2.259324e-03 	-3.331528e-03 	 
7.076559e+01 	2.220715e-03 	-3.652505e-03 	 
7.078116e+01 	2.549292e-03 	-3.707998e-03 	 
7.079684e+01 	3.002559e-03 	-3.254237e-03 	 
7.081250e+01 	3.468604e-03 	-2.606777e-03 	 
7.082806e+01 	3.689169e-03 	-2.297909e-03 	 
7.084375e+01 	3.363966e-03 	-2.429753e-03 	 
7.085934e+01 	2.737017e-03 	-2.707962e-03 	 
7.087503e+01 	2.270121e-03 	-2.798813e-03 	 
7.089059e+01 	2.057030e-03 	-2.714119e-03 	 
7.090616e+01 	2.124066e-03 	-2.705049e-03 	 
7.092184e+01 	2.518095e-03 	-2.782041e-03 	 
7.093741e+01 	3.079297e-03 	-2.663631e-03 	 
7.095309e+01 	3.561744e-03 	-2.420977e-03 	 
7.096878e+01 	3.780210e-03 	-2.480403e-03 	 
7.098431e+01 	3.735693e-03 	-2.901016e-03 	 
7.100000e+01 	3.599986e-03 	-3.206040e-03 	 
7.101553e+01 	3.457081e-03 	-3.038154e-03 	 
7.103122e+01 	3.250135e-03 	-2.564649e-03 	 
7.104688e+01 	2.954468e-03 	-2.094910e-03 	 
7.106241e+01 	2.815621e-03 	-1.793312e-03 	 
7.107806e+01 	3.083078e-03 	-1.655343e-03 	 
7.109375e+01 	3.546714e-03 	-1.654304e-03 	 
7.110928e+01 	3.691889e-03 	-1.800856e-03 	 
7.112494e+01 	3.486819e-03 	-2.019649e-03 	 
7.114059e+01 	3.418621e-03 	-2.207612e-03 	 
7.115625e+01 	3.537427e-03 	-2.283288e-03 	 
7.117178e+01 	3.489427e-03 	-2.252015e-03 	 
7.118744e+01 	3.250508e-03 	-2.106508e-03 	 
7.120309e+01 	3.046322e-03 	-1.909206e-03 	 
7.121875e+01 	2.920124e-03 	-1.861330e-03 	 
7.123431e+01 	2.815123e-03 	-2.127006e-03 	 
7.124997e+01 	2.797211e-03 	-2.396574e-03 	 
7.126562e+01 	2.908360e-03 	-2.151490e-03 	 
7.128125e+01 	3.089673e-03 	-1.619355e-03 	 
7.129681e+01 	3.253145e-03 	-1.317274e-03 	 
7.131244e+01 	3.352236e-03 	-1.175569e-03 	 
7.132809e+01 	3.421312e-03 	-1.040387e-03 	 
7.134375e+01 	3.422753e-03 	-1.057597e-03 	 
7.135938e+01 	3.285607e-03 	-1.269736e-03 	 
7.137503e+01 	3.218047e-03 	-1.543476e-03 	 
7.139053e+01 	3.530139e-03 	-1.690422e-03 	 
7.140619e+01 	4.129112e-03 	-1.778346e-03 	 
7.142181e+01 	4.592714e-03 	-1.950227e-03 	 
7.143747e+01 	4.768362e-03 	-2.013899e-03 	 
7.145309e+01 	4.809372e-03 	-1.772113e-03 	 
7.146872e+01 	4.685225e-03 	-1.485203e-03 	 
7.148438e+01 	4.254635e-03 	-1.335426e-03 	 
7.150000e+01 	3.565236e-03 	-1.210561e-03 	 
7.151556e+01 	2.922756e-03 	-1.121021e-03 	 
7.153122e+01 	2.634910e-03 	-1.104717e-03 	 
7.154688e+01 	2.799847e-03 	-1.071200e-03 	 
7.156241e+01 	3.302314e-03 	-1.079033e-03 	 
7.157806e+01 	3.861923e-03 	-1.322279e-03 	 
7.159372e+01 	4.218571e-03 	-1.728883e-03 	 
7.160938e+01 	4.251163e-03 	-2.099700e-03 	 
7.162494e+01 	3.943777e-03 	-2.448473e-03 	 
7.164059e+01 	3.506867e-03 	-2.620748e-03 	 
7.165625e+01 	3.238528e-03 	-2.240126e-03 	 
7.167181e+01 	3.203833e-03 	-1.506082e-03 	 
7.168750e+01 	3.209358e-03 	-1.011373e-03 	 
7.170303e+01 	3.065694e-03 	-9.320639e-04 	 
7.171872e+01 	2.794817e-03 	-1.103256e-03 	 
7.173438e+01 	2.505092e-03 	-1.473919e-03 	 
7.174994e+01 	2.324468e-03 	-1.944057e-03 	 
7.176562e+01 	2.369321e-03 	-2.156510e-03 	 
7.178116e+01 	2.595931e-03 	-1.883464e-03 	 
7.179684e+01 	2.806238e-03 	-1.383148e-03 	 
7.181250e+01 	2.945807e-03 	-1.057936e-03 	 
7.182806e+01 	3.072168e-03 	-1.084869e-03 	 
7.184372e+01 	3.173620e-03 	-1.417057e-03 	 
7.185938e+01 	3.175033e-03 	-1.714777e-03 	 
7.187494e+01 	3.120423e-03 	-1.744116e-03 	 
7.189059e+01 	3.102914e-03 	-1.710918e-03 	 
7.190625e+01 	3.212003e-03 	-1.769175e-03 	 
7.192181e+01 	3.540856e-03 	-1.914946e-03 	 
7.193744e+01 	3.978215e-03 	-2.058969e-03 	 
7.195309e+01 	4.247320e-03 	-2.032485e-03 	 
7.196875e+01 	4.215128e-03 	-1.895482e-03 	 
7.198428e+01 	3.980423e-03 	-1.829068e-03 	 
7.199994e+01 	3.696207e-03 	-1.777802e-03 	 
7.201559e+01 	3.416932e-03 	-1.595532e-03 	 
7.203125e+01 	3.097740e-03 	-1.374950e-03 	 
7.204691e+01 	2.893405e-03 	-1.285406e-03 	 
7.206244e+01 	3.109713e-03 	-1.317723e-03 	 
7.207809e+01 	3.698051e-03 	-1.464172e-03 	 
7.209375e+01 	4.145735e-03 	-1.794784e-03 	 
7.210931e+01 	4.152076e-03 	-2.127705e-03 	 
7.212497e+01 	4.183906e-03 	-2.372634e-03 	 
7.214062e+01 	4.575356e-03 	-2.641255e-03 	 
7.215619e+01 	4.888318e-03 	-2.813202e-03 	 
7.217181e+01 	4.746557e-03 	-2.609924e-03 	 
7.218747e+01 	4.343046e-03 	-2.136600e-03 	 
7.220312e+01 	4.004254e-03 	-1.798140e-03 	 
7.221869e+01 	3.916937e-03 	-1.854472e-03 	 
7.223434e+01 	4.046062e-03 	-2.183262e-03 	 
7.225000e+01 	4.026707e-03 	-2.326317e-03 	 
7.226553e+01 	3.807196e-03 	-2.098103e-03 	 
7.228119e+01 	3.897495e-03 	-1.853803e-03 	 
7.229684e+01 	4.362358e-03 	-1.919660e-03 	 
7.231250e+01 	4.602665e-03 	-2.230997e-03 	 
7.232806e+01 	4.375432e-03 	-2.583650e-03 	 
7.234372e+01 	4.071996e-03 	-2.696910e-03 	 
7.235938e+01 	3.966691e-03 	-2.437415e-03 	 
7.237503e+01 	4.022297e-03 	-2.157598e-03 	 
7.239056e+01 	4.300516e-03 	-2.228697e-03 	 
7.240622e+01 	4.721783e-03 	-2.517220e-03 	 
7.242188e+01 	4.896175e-03 	-2.676232e-03 	 
7.243753e+01 	4.632808e-03 	-2.636747e-03 	 
7.245306e+01 	4.168932e-03 	-2.408037e-03 	 
7.246872e+01 	3.815194e-03 	-1.934365e-03 	 
7.248438e+01 	3.595397e-03 	-1.544990e-03 	 
7.249994e+01 	3.391999e-03 	-1.488476e-03 	 
7.251559e+01 	3.164180e-03 	-1.528825e-03 	 
7.253125e+01 	2.986932e-03 	-1.469226e-03 	 
7.254681e+01 	2.959900e-03 	-1.541621e-03 	 
7.256247e+01 	3.092004e-03 	-1.884536e-03 	 
7.257803e+01 	3.327072e-03 	-2.160956e-03 	 
7.259372e+01 	3.539327e-03 	-2.202303e-03 	 
7.260938e+01 	3.582650e-03 	-2.271934e-03 	 
7.262494e+01 	3.438447e-03 	-2.502641e-03 	 
7.264059e+01 	3.316107e-03 	-2.684354e-03 	 
7.265625e+01 	3.353621e-03 	-2.645747e-03 	 
7.267181e+01 	3.407022e-03 	-2.479032e-03 	 
7.268750e+01 	3.321095e-03 	-2.182565e-03 	 
7.270306e+01 	3.243506e-03 	-1.891222e-03 	 
7.271872e+01 	3.296145e-03 	-1.838440e-03 	 
7.273431e+01 	3.345590e-03 	-1.984839e-03 	 
7.274997e+01 	3.333143e-03 	-2.334822e-03 	 
7.276556e+01 	3.412120e-03 	-2.946624e-03 	 
7.278125e+01 	3.597937e-03 	-3.515286e-03 	 
7.279681e+01 	3.716602e-03 	-3.742262e-03 	 
7.281250e+01 	3.851459e-03 	-3.641581e-03 	 
7.282806e+01 	4.165931e-03 	-3.331822e-03 	 
7.284375e+01 	4.490450e-03 	-3.061451e-03 	 
7.285934e+01 	4.436884e-03 	-3.125690e-03 	 
7.287491e+01 	3.919080e-03 	-3.442017e-03 	 
7.289062e+01 	3.451970e-03 	-3.623146e-03 	 
7.290619e+01 	3.306997e-03 	-3.515355e-03 	 
7.292188e+01 	3.359979e-03 	-3.280815e-03 	 
7.293747e+01 	3.818828e-03 	-3.058003e-03 	 
7.295312e+01 	4.565324e-03 	-2.902982e-03 	 
7.296869e+01 	4.823839e-03 	-2.973429e-03 	 
7.298438e+01 	4.409737e-03 	-3.386350e-03 	 
7.299994e+01 	4.036346e-03 	-3.789758e-03 	 
7.301559e+01 	4.158071e-03 	-3.704851e-03 	 
7.303128e+01 	4.455281e-03 	-3.286187e-03 	 
7.304681e+01 	4.496265e-03 	-2.921302e-03 	 
7.306247e+01 	4.403637e-03 	-2.661603e-03 	 
7.307803e+01 	4.459980e-03 	-2.632447e-03 	 
7.309369e+01 	4.631619e-03 	-3.086174e-03 	 
7.310934e+01 	4.819893e-03 	-3.746342e-03 	 
7.312500e+01 	5.015089e-03 	-3.913305e-03 	 
7.314053e+01 	5.241436e-03 	-3.585146e-03 	 
7.315619e+01 	5.482121e-03 	-3.356877e-03 	 
7.317184e+01 	5.545304e-03 	-3.484668e-03 	 
7.318750e+01 	5.270900e-03 	-3.715116e-03 	 
7.320303e+01 	4.846281e-03 	-3.715954e-03 	 
7.321869e+01 	4.496720e-03 	-3.509547e-03 	 
7.323434e+01 	4.261595e-03 	-3.382026e-03 	 
7.325003e+01 	4.275224e-03 	-3.386624e-03 	 
7.326556e+01 	4.591082e-03 	-3.305031e-03 	 
7.328122e+01 	5.019536e-03 	-3.296809e-03 	 
7.329688e+01 	5.358227e-03 	-3.722477e-03 	 
7.331244e+01 	5.583507e-03 	-4.339424e-03 	 
7.332809e+01 	5.688999e-03 	-4.631945e-03 	 
7.334375e+01 	5.597262e-03 	-4.509433e-03 	 
7.335938e+01 	5.323428e-03 	-4.132653e-03 	 
7.337494e+01 	4.966568e-03 	-3.586852e-03 	 
7.339059e+01 	4.540436e-03 	-3.025001e-03 	 
7.340625e+01 	4.040938e-03 	-2.654574e-03 	 
7.342191e+01 	3.741599e-03 	-2.433725e-03 	 
7.343744e+01 	3.888022e-03 	-2.294431e-03 	 
7.345309e+01 	4.239310e-03 	-2.279083e-03 	 
7.346872e+01 	4.405986e-03 	-2.361577e-03 	 
7.348438e+01 	4.304857e-03 	-2.458144e-03 	 
7.349991e+01 	4.084089e-03 	-2.638052e-03 	 
7.351556e+01 	4.006210e-03 	-2.972479e-03 	 
7.353122e+01 	4.086502e-03 	-3.464257e-03 	 
7.354691e+01 	4.138735e-03 	-3.861981e-03 	 
7.356244e+01 	4.099570e-03 	-3.762251e-03 	 
7.357812e+01 	4.037305e-03 	-3.251631e-03 	 
7.359369e+01 	4.092975e-03 	-2.950412e-03 	 
7.360934e+01 	4.329197e-03 	-3.170160e-03 	 
7.362491e+01 	4.727852e-03 	-3.493773e-03 	 
7.364059e+01 	5.108011e-03 	-3.639677e-03 	 
7.365616e+01 	5.192909e-03 	-3.658442e-03 	 
7.367184e+01 	4.935091e-03 	-3.631683e-03 	 
7.368741e+01 	4.650259e-03 	-3.807734e-03 	 
7.370309e+01 	4.614351e-03 	-4.228474e-03 	 
7.371869e+01 	4.867353e-03 	-4.458244e-03 	 
7.373438e+01 	5.321639e-03 	-4.345308e-03 	 
7.374994e+01 	5.719948e-03 	-4.218070e-03 	 
7.376562e+01 	5.891578e-03 	-4.388784e-03 	 
7.378122e+01 	5.945355e-03 	-4.744730e-03 	 
7.379678e+01 	5.831870e-03 	-5.001356e-03 	 
7.381247e+01 	5.515768e-03 	-5.149009e-03 	 
7.382806e+01 	5.178598e-03 	-5.066656e-03 	 
7.384375e+01 	4.990888e-03 	-4.605749e-03 	 
7.385931e+01 	5.001560e-03 	-4.093676e-03 	 
7.387500e+01 	5.081656e-03 	-3.840544e-03 	 
7.389056e+01 	5.155262e-03 	-3.917014e-03 	 
7.390625e+01 	5.211198e-03 	-4.276121e-03 	 
7.392181e+01 	5.135018e-03 	-4.670512e-03 	 
7.393750e+01 	4.993149e-03 	-4.859483e-03 	 
7.395306e+01 	5.144989e-03 	-4.837759e-03 	 
7.396872e+01 	5.651688e-03 	-4.855220e-03 	 
7.398428e+01 	6.022378e-03 	-5.050782e-03 	 
7.399994e+01 	6.096204e-03 	-5.148640e-03 	 
7.401562e+01 	6.173117e-03 	-5.106886e-03 	 
7.403116e+01 	6.311468e-03 	-5.248773e-03 	 
7.404684e+01 	6.328196e-03 	-5.582864e-03 	 
7.406250e+01 	6.052859e-03 	-5.672554e-03 	 
7.407806e+01 	5.516637e-03 	-5.349273e-03 	 
7.409375e+01 	5.013474e-03 	-4.997332e-03 	 
7.410931e+01 	4.886433e-03 	-5.039490e-03 	 
7.412497e+01 	4.953263e-03 	-5.333814e-03 	 
7.414053e+01 	4.836679e-03 	-5.456769e-03 	 
7.415622e+01 	4.641764e-03 	-5.455233e-03 	 
7.417188e+01 	4.753709e-03 	-5.432596e-03 	 
7.418744e+01 	5.134994e-03 	-5.295156e-03 	 
7.420312e+01 	5.250446e-03 	-5.160634e-03 	 
7.421869e+01 	4.959982e-03 	-5.061029e-03 	 
7.423434e+01 	4.633285e-03 	-4.824740e-03 	 
7.424991e+01 	4.524555e-03 	-4.553039e-03 	 
7.426559e+01 	4.525717e-03 	-4.541627e-03 	 
7.428116e+01 	4.506299e-03 	-4.815950e-03 	 
7.429684e+01 	4.650354e-03 	-5.057441e-03 	 
7.431241e+01 	5.039872e-03 	-5.119499e-03 	 
7.432809e+01 	5.325480e-03 	-5.102205e-03 	 
7.434369e+01 	5.235615e-03 	-4.956247e-03 	 
7.435938e+01 	4.852544e-03 	-4.523770e-03 	 
7.437494e+01 	4.438187e-03 	-3.947526e-03 	 
7.439062e+01 	4.163803e-03 	-3.537562e-03 	 
7.440619e+01 	4.124124e-03 	-3.389034e-03 	 
7.442188e+01 	4.242851e-03 	-3.472407e-03 	 
7.443744e+01 	4.293874e-03 	-3.696687e-03 	 
7.445312e+01 	4.355051e-03 	-3.905911e-03 	 
7.446869e+01 	4.595955e-03 	-4.049829e-03 	 
7.448434e+01 	4.887924e-03 	-4.149507e-03 	 
7.449991e+01 	4.932765e-03 	-4.140383e-03 	 
7.451559e+01 	4.617631e-03 	-3.971886e-03 	 
7.453125e+01 	4.254322e-03 	-3.838775e-03 	 
7.454681e+01 	4.052066e-03 	-3.956803e-03 	 
7.456247e+01 	3.975349e-03 	-4.219778e-03 	 
7.457812e+01 	4.023362e-03 	-4.334918e-03 	 
7.459369e+01 	4.120470e-03 	-4.185195e-03 	 
7.460934e+01 	4.319320e-03 	-4.032576e-03 	 
7.462491e+01 	4.589209e-03 	-4.050600e-03 	 
7.464056e+01 	4.641995e-03 	-4.043731e-03 	 
7.465622e+01 	4.471517e-03 	-3.912222e-03 	 
7.467188e+01 	4.385737e-03 	-3.951715e-03 	 
7.468744e+01 	4.533609e-03 	-4.188929e-03 	 
7.470309e+01 	4.712554e-03 	-4.256662e-03 	 
7.471875e+01 	4.758327e-03 	-4.227617e-03 	 
7.473428e+01 	4.697766e-03 	-4.272674e-03 	 
7.474994e+01 	4.703524e-03 	-4.185593e-03 	 
7.476559e+01 	4.962477e-03 	-3.955203e-03 	 
7.478125e+01 	5.195569e-03 	-3.850729e-03 	 
7.479688e+01 	4.933410e-03 	-3.869522e-03 	 
7.481241e+01 	4.463333e-03 	-3.820766e-03 	 
7.482806e+01 	4.191474e-03 	-3.660691e-03 	 
7.484375e+01 	4.021377e-03 	-3.606078e-03 	 
7.485928e+01 	3.741910e-03 	-3.704862e-03 	 
7.487494e+01 	3.513682e-03 	-3.621254e-03 	 
7.489059e+01 	3.544600e-03 	-3.407426e-03 	 
7.490628e+01 	3.696696e-03 	-3.389407e-03 	 
7.492181e+01 	3.977911e-03 	-3.533542e-03 	 
7.493747e+01 	4.459022e-03 	-3.752199e-03 	 
7.495312e+01 	4.853259e-03 	-4.132540e-03 	 
7.496869e+01 	4.823693e-03 	-4.496119e-03 	 
7.498434e+01 	4.488286e-03 	-4.458239e-03 	 
7.499991e+01 	4.305466e-03 	-4.138673e-03 	 
7.501559e+01 	4.431851e-03 	-3.940032e-03 	 
7.503116e+01 	4.584880e-03 	-3.992436e-03 	 
7.504684e+01 	4.595167e-03 	-4.152188e-03 	 
7.506244e+01 	4.457963e-03 	-4.248604e-03 	 
7.507812e+01 	4.282069e-03 	-4.317352e-03 	 
7.509369e+01 	4.300551e-03 	-4.564168e-03 	 
7.510938e+01 	4.451422e-03 	-5.016313e-03 	 
7.512494e+01 	4.456148e-03 	-5.305514e-03 	 
7.514059e+01 	4.413794e-03 	-5.166167e-03 	 
7.515616e+01 	4.593235e-03 	-4.819382e-03 	 
7.517184e+01 	4.770557e-03 	-4.584348e-03 	 
7.518753e+01 	4.681506e-03 	-4.569886e-03 	 
7.520309e+01 	4.527511e-03 	-4.633073e-03 	 
7.521875e+01 	4.639411e-03 	-4.631039e-03 	 
7.523434e+01 	4.907448e-03 	-4.822034e-03 	 
7.525000e+01 	5.064931e-03 	-5.337908e-03 	 
7.526556e+01 	5.261252e-03 	-5.698389e-03 	 
7.528125e+01 	5.679630e-03 	-5.635728e-03 	 
7.529678e+01 	6.284053e-03 	-5.420294e-03 	 
7.531247e+01 	6.826907e-03 	-5.171864e-03 	 
7.532812e+01 	6.930512e-03 	-4.910865e-03 	 
7.534366e+01 	6.494937e-03 	-4.799911e-03 	 
7.535931e+01 	5.761516e-03 	-4.751074e-03 	 
7.537497e+01 	5.016838e-03 	-4.664649e-03 	 
7.539066e+01 	4.535639e-03 	-4.779278e-03 	 
7.540619e+01 	4.500499e-03 	-5.059583e-03 	 
7.542188e+01 	4.908514e-03 	-5.190784e-03 	 
7.543744e+01 	5.572319e-03 	-5.248229e-03 	 
7.545312e+01 	6.184229e-03 	-5.527667e-03 	 
7.546866e+01 	6.560360e-03 	-5.969786e-03 	 
7.548434e+01 	6.736932e-03 	-6.247642e-03 	 
7.550000e+01 	6.653604e-03 	-6.237474e-03 	 
7.551553e+01 	6.251520e-03 	-6.021578e-03 	 
7.553122e+01 	5.796702e-03 	-5.879108e-03 	 
7.554688e+01 	5.451237e-03 	-5.864714e-03 	 
7.556244e+01 	5.165763e-03 	-5.707403e-03 	 
7.557812e+01 	4.967393e-03 	-5.051772e-03 	 
7.559369e+01 	4.897430e-03 	-4.072368e-03 	 
7.560938e+01 	4.919370e-03 	-3.373431e-03 	 
7.562494e+01 	5.063600e-03 	-3.159398e-03 	 
7.564062e+01 	5.252507e-03 	-3.225143e-03 	 
7.565619e+01 	5.120348e-03 	-3.341406e-03 	 
7.567184e+01 	4.787530e-03 	-3.471189e-03 	 
7.568750e+01 	4.879705e-03 	-3.703719e-03 	 
7.570306e+01 	5.334611e-03 	-4.149141e-03 	 
7.571872e+01 	5.562177e-03 	-4.566086e-03 	 
7.573438e+01 	5.528529e-03 	-4.770051e-03 	 
7.574994e+01 	5.638453e-03 	-4.912341e-03 	 
7.576559e+01 	5.871832e-03 	-4.917756e-03 	 
7.578122e+01 	5.973606e-03 	-4.734351e-03 	 
7.579688e+01 	5.882237e-03 	-4.610928e-03 	 
7.581241e+01 	5.569766e-03 	-4.522048e-03 	 
7.582806e+01 	5.031536e-03 	-4.352089e-03 	 
7.584372e+01 	4.519883e-03 	-4.202027e-03 	 
7.585938e+01 	4.168690e-03 	-4.159914e-03 	 
7.587494e+01 	3.995925e-03 	-4.115283e-03 	 
7.589059e+01 	4.268777e-03 	-3.931829e-03 	 
7.590625e+01 	4.924441e-03 	-3.962958e-03 	 
7.592178e+01 	5.426096e-03 	-4.473563e-03 	 
7.593744e+01 	5.672788e-03 	-5.028528e-03 	 
7.595309e+01 	5.861665e-03 	-5.314850e-03 	 
7.596875e+01 	5.993052e-03 	-5.466019e-03 	 
7.598431e+01 	6.084680e-03 	-5.752687e-03 	 
7.599994e+01 	6.113947e-03 	-6.133886e-03 	 
7.601559e+01 	6.044099e-03 	-6.192750e-03 	 
7.603125e+01 	5.891534e-03 	-5.878282e-03 	 
7.604681e+01 	5.807105e-03 	-5.655307e-03 	 
7.606247e+01 	5.762331e-03 	-5.691556e-03 	 
7.607816e+01 	5.583825e-03 	-5.739805e-03 	 
7.609372e+01 	5.290400e-03 	-5.623403e-03 	 
7.610938e+01 	4.997968e-03 	-5.278264e-03 	 
7.612494e+01 	4.948693e-03 	-5.001086e-03 	 
7.614062e+01 	5.173211e-03 	-5.052747e-03 	 
7.615619e+01 	5.410397e-03 	-5.249456e-03 	 
7.617184e+01 	5.604746e-03 	-5.477256e-03 	 
7.618753e+01 	5.856896e-03 	-5.727424e-03 	 
7.620306e+01 	6.140190e-03 	-6.025131e-03 	 
7.621875e+01 	6.380584e-03 	-6.410329e-03 	 
7.623431e+01 	6.562652e-03 	-6.595366e-03 	 
7.624997e+01 	6.798409e-03 	-6.269782e-03 	 
7.626562e+01 	7.196041e-03 	-5.788905e-03 	 
7.628125e+01 	7.426912e-03 	-5.425374e-03 	 
7.629678e+01 	7.145952e-03 	-5.111765e-03 	 
7.631244e+01 	6.542186e-03 	-5.061675e-03 	 
7.632809e+01 	5.966816e-03 	-5.266006e-03 	 
7.634375e+01 	5.479695e-03 	-5.379148e-03 	 
7.635928e+01 	5.067007e-03 	-5.140132e-03 	 
7.637494e+01 	4.885013e-03 	-4.670143e-03 	 
7.639059e+01 	4.898317e-03 	-4.328192e-03 	 
7.640625e+01 	5.070436e-03 	-4.280265e-03 	 
7.642181e+01 	5.359825e-03 	-4.679420e-03 	 
7.643744e+01 	5.533945e-03 	-5.350717e-03 	 
7.645309e+01 	5.656250e-03 	-5.799669e-03 	 
7.646875e+01 	5.837797e-03 	-5.969616e-03 	 
7.648428e+01 	5.985507e-03 	-5.987452e-03 	 
7.649994e+01 	6.039875e-03 	-5.768188e-03 	 
7.651556e+01 	5.979493e-03 	-5.348902e-03 	 
7.653119e+01 	5.874242e-03 	-5.086245e-03 	 
7.654684e+01 	5.678533e-03 	-5.004324e-03 	 
7.656247e+01 	5.216123e-03 	-4.859093e-03 	 
7.657812e+01 	4.724716e-03 	-4.626580e-03 	 
7.659366e+01 	4.606890e-03 	-4.390635e-03 	 
7.660931e+01 	4.969215e-03 	-4.269001e-03 	 
7.662497e+01 	5.650854e-03 	-4.197004e-03 	 
7.664062e+01 	6.184820e-03 	-4.184074e-03 	 
7.665628e+01 	6.065695e-03 	-4.554311e-03 	 
7.667181e+01 	5.369883e-03 	-5.233563e-03 	 
7.668747e+01 	4.820487e-03 	-5.786995e-03 	 
7.670303e+01 	4.992445e-03 	-6.086493e-03 	 
7.671869e+01 	5.571078e-03 	-6.095513e-03 	 
7.673434e+01 	6.082284e-03 	-5.775258e-03 	 
7.674991e+01 	6.385294e-03 	-5.363188e-03 	 
7.676556e+01 	6.468834e-03 	-5.304305e-03 	 
7.678125e+01 	6.343744e-03 	-5.814093e-03 	 
7.679681e+01 	6.116027e-03 	-6.375511e-03 	 
7.681247e+01 	5.995169e-03 	-6.376749e-03 	 
7.682812e+01 	5.959936e-03 	-5.930456e-03 	 
7.684366e+01 	5.823766e-03 	-5.507032e-03 	 
7.685934e+01 	5.694310e-03 	-5.312191e-03 	 
7.687500e+01 	5.849038e-03 	-5.407514e-03 	 
7.689056e+01 	6.345859e-03 	-5.848689e-03 	 
7.690622e+01 	6.931376e-03 	-6.285619e-03 	 
7.692188e+01 	7.272429e-03 	-6.402651e-03 	 
7.693744e+01 	7.216767e-03 	-6.408821e-03 	 
7.695312e+01 	6.922701e-03 	-6.602389e-03 	 
7.696869e+01 	6.797271e-03 	-6.947898e-03 	 
7.698438e+01 	6.985933e-03 	-7.211789e-03 	 
7.699994e+01 	7.061452e-03 	-7.213767e-03 	 
7.701562e+01 	6.780057e-03 	-7.014905e-03 	 
7.703119e+01 	6.538129e-03 	-6.846674e-03 	 
7.704684e+01 	6.605431e-03 	-6.805205e-03 	 
7.706241e+01 	6.703483e-03 	-6.817975e-03 	 
7.707809e+01 	6.600211e-03 	-6.787539e-03 	 
7.709366e+01 	6.556288e-03 	-6.573020e-03 	 
7.710934e+01 	6.675836e-03 	-6.221003e-03 	 
7.712500e+01 	6.536331e-03 	-6.090830e-03 	 
7.714056e+01 	6.113631e-03 	-6.268278e-03 	 
7.715619e+01 	6.096419e-03 	-6.496437e-03 	 
7.717184e+01 	6.768160e-03 	-6.698379e-03 	 
7.718750e+01 	7.649101e-03 	-6.901148e-03 	 
7.720303e+01 	8.127805e-03 	-6.950720e-03 	 
7.721869e+01 	8.063324e-03 	-6.676574e-03 	 
7.723431e+01 	7.746629e-03 	-6.364780e-03 	 
7.724997e+01 	7.463661e-03 	-6.519852e-03 	 
7.726559e+01 	7.314876e-03 	-7.108865e-03 	 
7.728125e+01 	7.282557e-03 	-7.495786e-03 	 
7.729678e+01 	7.314619e-03 	-7.403883e-03 	 
7.731244e+01 	7.442886e-03 	-7.149028e-03 	 
7.732809e+01 	7.766626e-03 	-7.015862e-03 	 
7.734375e+01 	8.015071e-03 	-7.070844e-03 	 
7.735928e+01 	7.838279e-03 	-7.215405e-03 	 
7.737494e+01 	7.390982e-03 	-7.253679e-03 	 
7.739059e+01 	7.167331e-03 	-7.352472e-03 	 
7.740625e+01 	7.486794e-03 	-7.668936e-03 	 
7.742191e+01 	8.144312e-03 	-8.036648e-03 	 
7.743744e+01 	8.689652e-03 	-8.125027e-03 	 
7.745306e+01 	8.830353e-03 	-7.805589e-03 	 
7.746872e+01 	8.580525e-03 	-7.639462e-03 	 
7.748438e+01 	8.143742e-03 	-8.001819e-03 	 
7.749991e+01 	7.673464e-03 	-8.496958e-03 	 
7.751556e+01 	7.443996e-03 	-8.643218e-03 	 
7.753122e+01 	7.555532e-03 	-8.289051e-03 	 
7.754688e+01 	7.722270e-03 	-7.722594e-03 	 
7.756244e+01 	7.837784e-03 	-7.269729e-03 	 
7.757809e+01 	7.970488e-03 	-7.091053e-03 	 
7.759375e+01 	7.897236e-03 	-7.113863e-03 	 
7.760931e+01 	7.508527e-03 	-7.186840e-03 	 
7.762497e+01 	7.096080e-03 	-7.240971e-03 	 
7.764053e+01 	6.919499e-03 	-7.160746e-03 	 
7.765622e+01 	6.903410e-03 	-7.096009e-03 	 
7.767188e+01 	6.953242e-03 	-7.394212e-03 	 
7.768744e+01 	7.204089e-03 	-7.910588e-03 	 
7.770312e+01 	7.668245e-03 	-8.286235e-03 	 
7.771869e+01 	8.046709e-03 	-8.412483e-03 	 
7.773434e+01 	8.111767e-03 	-8.329393e-03 	 
7.775000e+01 	8.107377e-03 	-8.119521e-03 	 
7.776556e+01 	8.273475e-03 	-7.928390e-03 	 
7.778122e+01 	8.330009e-03 	-7.885288e-03 	 
7.779688e+01 	8.030896e-03 	-8.069458e-03 	 
7.781244e+01 	7.509442e-03 	-8.182024e-03 	 
7.782812e+01 	6.999412e-03 	-7.808532e-03 	 
7.784369e+01 	6.717372e-03 	-7.028079e-03 	 
7.785938e+01 	6.715433e-03 	-6.282021e-03 	 
7.787494e+01 	6.850591e-03 	-5.919032e-03 	 
7.789059e+01 	7.018923e-03 	-5.977266e-03 	 
7.790616e+01 	7.149399e-03 	-6.229199e-03 	 
7.792184e+01 	7.144302e-03 	-6.475499e-03 	 
7.793741e+01 	7.095516e-03 	-6.673066e-03 	 
7.795309e+01 	7.262019e-03 	-6.942739e-03 	 
7.796875e+01 	7.685473e-03 	-7.392700e-03 	 
7.798431e+01 	8.111088e-03 	-7.898546e-03 	 
7.800000e+01 	8.404927e-03 	-8.142906e-03 	 
7.801556e+01 	8.553955e-03 	-7.888767e-03 	 
7.803122e+01 	8.539125e-03 	-7.368229e-03 	 
7.804688e+01 	8.435867e-03 	-7.090966e-03 	 
7.806241e+01 	8.356555e-03 	-7.192590e-03 	 
7.807809e+01 	8.196386e-03 	-7.392207e-03 	 
7.809375e+01 	7.941093e-03 	-7.477536e-03 	 
7.810931e+01 	7.884541e-03 	-7.311446e-03 	 
7.812497e+01 	7.916237e-03 	-6.957421e-03 	 
7.814053e+01 	7.790729e-03 	-6.790741e-03 	 
7.815622e+01 	7.564355e-03 	-6.914381e-03 	 
7.817181e+01 	7.482528e-03 	-7.090043e-03 	 
7.818750e+01 	7.687362e-03 	-7.416582e-03 	 
7.820306e+01 	8.124987e-03 	-8.003197e-03 	 
7.821878e+01 	8.566815e-03 	-8.331344e-03 	 
7.823434e+01 	8.765639e-03 	-8.218915e-03 	 
7.824994e+01 	8.868235e-03 	-8.156594e-03 	 
7.826562e+01 	8.951089e-03 	-8.426222e-03 	 
7.828122e+01 	8.835613e-03 	-8.987056e-03 	 
7.829678e+01 	8.733799e-03 	-9.439838e-03 	 
7.831250e+01 	8.776969e-03 	-9.288419e-03 	 
7.832809e+01 	8.699280e-03 	-8.737918e-03 	 
7.834369e+01 	8.442849e-03 	-8.506357e-03 	 
7.835938e+01 	8.282118e-03 	-8.777865e-03 	 
7.837497e+01 	8.287662e-03 	-9.161547e-03 	 
7.839053e+01 	8.236072e-03 	-9.244561e-03 	 
7.840625e+01 	8.139112e-03 	-9.027205e-03 	 
7.842181e+01 	8.121366e-03 	-8.735163e-03 	 
7.843753e+01 	8.233757e-03 	-8.513302e-03 	 
7.845309e+01 	8.579696e-03 	-8.619098e-03 	 
7.846869e+01 	8.957293e-03 	-9.104058e-03 	 
7.848438e+01 	8.985882e-03 	-9.506786e-03 	 
7.849994e+01 	8.780821e-03 	-9.467740e-03 	 
7.851562e+01 	8.826136e-03 	-9.090801e-03 	 
7.853119e+01 	9.202556e-03 	-8.637325e-03 	 
7.854684e+01 	9.495143e-03 	-8.300234e-03 	 
7.856241e+01 	9.484419e-03 	-8.111828e-03 	 
7.857809e+01 	9.045348e-03 	-8.018473e-03 	 
7.859375e+01 	8.344703e-03 	-8.095091e-03 	 
7.860931e+01 	8.038897e-03 	-8.337586e-03 	 
7.862497e+01 	8.151452e-03 	-8.364109e-03 	 
7.864053e+01 	8.155572e-03 	-7.937710e-03 	 
7.865622e+01 	7.948459e-03 	-7.495404e-03 	 
7.867191e+01 	7.618502e-03 	-7.356594e-03 	 
7.868747e+01 	7.163643e-03 	-7.510582e-03 	 
7.870312e+01 	6.581184e-03 	-7.907715e-03 	 
7.871869e+01 	6.246287e-03 	-8.165575e-03 	 
7.873434e+01 	6.480282e-03 	-7.775212e-03 	 
7.874991e+01 	6.940792e-03 	-7.082547e-03 	 
7.876559e+01 	7.167554e-03 	-6.814390e-03 	 
7.878125e+01 	7.248451e-03 	-6.984108e-03 	 
7.879681e+01 	7.268566e-03 	-7.301807e-03 	 
7.881250e+01 	7.054789e-03 	-7.642283e-03 	 
7.882803e+01 	6.714067e-03 	-7.815959e-03 	 
7.884372e+01 	6.486772e-03 	-7.456198e-03 	 
7.885938e+01 	6.359987e-03 	-6.547327e-03 	 
7.887494e+01 	6.138467e-03 	-5.506999e-03 	 
7.889062e+01 	5.826310e-03 	-4.861148e-03 	 
7.890619e+01 	5.600684e-03 	-4.854561e-03 	 
7.892188e+01 	5.578141e-03 	-5.356894e-03 	 
7.893744e+01 	5.726787e-03 	-6.079956e-03 	 
7.895312e+01 	6.018792e-03 	-6.735257e-03 	 
7.896869e+01 	6.575600e-03 	-7.280868e-03 	 
7.898434e+01 	7.471453e-03 	-7.791660e-03 	 
7.900000e+01 	8.481326e-03 	-8.325691e-03 	 
7.901556e+01 	9.022490e-03 	-8.779054e-03 	 
7.903119e+01 	8.813746e-03 	-9.018011e-03 	 
7.904684e+01 	8.280840e-03 	-9.073737e-03 	 
7.906250e+01 	7.793321e-03 	-8.857213e-03 	 
7.907806e+01 	7.391678e-03 	-8.299492e-03 	 
7.909372e+01 	7.125927e-03 	-7.688523e-03 	 
7.910938e+01 	6.911711e-03 	-7.351604e-03 	 
7.912494e+01 	6.552669e-03 	-7.242074e-03 	 
7.914062e+01 	6.113651e-03 	-7.040832e-03 	 
7.915619e+01 	5.857225e-03 	-6.724779e-03 	 
7.917184e+01 	5.905678e-03 	-6.606787e-03 	 
7.918741e+01 	6.168993e-03 	-6.675566e-03 	 
7.920309e+01 	6.415686e-03 	-6.677076e-03 	 
7.921875e+01 	6.615782e-03 	-6.753667e-03 	 
7.923431e+01 	6.686051e-03 	-7.063053e-03 	 
7.924997e+01 	6.543992e-03 	-7.379752e-03 	 
7.926566e+01 	6.504085e-03 	-7.570550e-03 	 
7.928119e+01 	6.725067e-03 	-7.713771e-03 	 
7.929684e+01 	7.020923e-03 	-7.803527e-03 	 
7.931241e+01 	7.232414e-03 	-7.860733e-03 	 
7.932806e+01 	7.287945e-03 	-7.901523e-03 	 
7.934372e+01 	7.143317e-03 	-7.773713e-03 	 
7.935928e+01 	6.895409e-03 	-7.488707e-03 	 
7.937494e+01 	6.683026e-03 	-7.243591e-03 	 
7.939062e+01 	6.425391e-03 	-7.152638e-03 	 
7.940619e+01 	6.189796e-03 	-7.208612e-03 	 
7.942184e+01 	6.336190e-03 	-7.326997e-03 	 
7.943750e+01 	6.969498e-03 	-7.438431e-03 	 
7.945306e+01 	7.538361e-03 	-7.525170e-03 	 
7.946875e+01 	7.632693e-03 	-7.498584e-03 	 
7.948431e+01 	7.443959e-03 	-7.353096e-03 	 
7.950000e+01 	7.232204e-03 	-7.157954e-03 	 
7.951559e+01 	7.115795e-03 	-7.049575e-03 	 
7.953125e+01 	7.204892e-03 	-6.934630e-03 	 
7.954684e+01 	7.447375e-03 	-6.620289e-03 	 
7.956250e+01 	7.712606e-03 	-6.251238e-03 	 
7.957806e+01 	7.939748e-03 	-6.181590e-03 	 
7.959375e+01 	8.144423e-03 	-6.606482e-03 	 
7.960931e+01 	8.138736e-03 	-7.208257e-03 	 
7.962500e+01 	7.837212e-03 	-7.642103e-03 	 
7.964059e+01 	7.605931e-03 	-7.781775e-03 	 
7.965616e+01 	7.712708e-03 	-7.463887e-03 	 
7.967184e+01 	7.895740e-03 	-6.911253e-03 	 
7.968744e+01 	7.744123e-03 	-6.576286e-03 	 
7.970312e+01 	7.451674e-03 	-6.549040e-03 	 
7.971872e+01 	7.408427e-03 	-6.852530e-03 	 
7.973428e+01 	7.606294e-03 	-7.500860e-03 	 
7.974997e+01 	7.811680e-03 	-8.131299e-03 	 
7.976556e+01 	7.911683e-03 	-8.274770e-03 	 
7.978122e+01 	8.003892e-03 	-7.687831e-03 	 
7.979681e+01 	8.072527e-03 	-6.666955e-03 	 
7.981250e+01 	7.851914e-03 	-6.077355e-03 	 
7.982806e+01 	7.192131e-03 	-6.111743e-03 	 
7.984378e+01 	6.261987e-03 	-6.065648e-03 	 
7.985934e+01 	5.374496e-03 	-5.637497e-03 	 
7.987494e+01 	5.016797e-03 	-5.162983e-03 	 
7.989053e+01 	5.407673e-03 	-5.041529e-03 	 
7.990622e+01 	6.430416e-03 	-5.447078e-03 	 
7.992181e+01 	7.626508e-03 	-6.128949e-03 	 
7.993753e+01 	8.112606e-03 	-6.695627e-03 	 
7.995309e+01 	7.811232e-03 	-7.216724e-03 	 
7.996869e+01 	7.488322e-03 	-7.649853e-03 	 
7.998438e+01 	7.494825e-03 	-7.749709e-03 	 
7.999997e+01 	7.635396e-03 	-7.594057e-03 	 
8.000018e+01 	7.835716e-03 	-7.494077e-03 	 
8.001578e+01 	7.851049e-03 	-7.357804e-03 	 
8.003134e+01 	7.484083e-03 	-6.899842e-03 	 
8.004706e+01 	7.051147e-03 	-6.273405e-03 	 
8.006262e+01 	6.747309e-03 	-5.845869e-03 	 
8.007825e+01 	6.394058e-03 	-5.649392e-03 	 
8.009384e+01 	6.059728e-03 	-5.494320e-03 	 
8.010953e+01 	5.888105e-03 	-5.276178e-03 	 
8.012515e+01 	5.779478e-03 	-5.064963e-03 	 
8.014075e+01 	5.770439e-03 	-5.101377e-03 	 
8.015634e+01 	5.939627e-03 	-5.394619e-03 	 
8.017197e+01 	6.187883e-03 	-5.721897e-03 	 
8.018768e+01 	6.366032e-03 	-6.064516e-03 	 
8.020328e+01 	6.575650e-03 	-6.704028e-03 	 
8.021887e+01 	6.962080e-03 	-7.472034e-03 	 
8.023450e+01 	7.479869e-03 	-7.762087e-03 	 
8.025009e+01 	7.943574e-03 	-7.627525e-03 	 
8.026578e+01 	8.127815e-03 	-7.419765e-03 	 
8.028137e+01 	7.847571e-03 	-7.280280e-03 	 
8.029700e+01 	7.325237e-03 	-7.251802e-03 	 
8.031259e+01 	6.925277e-03 	-7.181028e-03 	 
8.032831e+01 	6.580470e-03 	-7.066809e-03 	 
8.034390e+01 	6.189893e-03 	-6.959589e-03 	 
8.035953e+01 	5.868130e-03 	-6.635869e-03 	 
8.037512e+01 	5.806889e-03 	-5.992098e-03 	 
8.039075e+01 	6.010993e-03 	-5.457152e-03 	 
8.040634e+01 	6.157791e-03 	-5.566627e-03 	 
8.042197e+01 	6.270686e-03 	-5.959744e-03 	 
8.043759e+01 	6.634871e-03 	-6.038452e-03 	 
8.045322e+01 	7.108876e-03 	-5.901015e-03 	 
8.046884e+01 	7.386653e-03 	-5.949983e-03 	 
8.048447e+01 	7.431244e-03 	-6.222788e-03 	 
8.050009e+01 	7.369819e-03 	-6.364967e-03 	 
8.051572e+01 	7.226338e-03 	-6.308844e-03 	 
8.053134e+01 	6.897552e-03 	-6.595353e-03 	 
8.054706e+01 	6.637704e-03 	-7.079083e-03 	 
8.056265e+01 	6.723617e-03 	-7.067635e-03 	 
8.057828e+01 	6.892649e-03 	-6.589533e-03 	 
8.059387e+01 	6.833294e-03 	-6.039707e-03 	 
8.060950e+01 	6.518151e-03 	-5.731046e-03 	 
8.062512e+01 	6.116796e-03 	-5.758686e-03 	 
8.064075e+01 	5.698422e-03 	-5.898093e-03 	 
8.065637e+01 	5.244154e-03 	-6.108458e-03 	 
8.067200e+01 	4.867025e-03 	-6.293380e-03 	 
8.068762e+01 	4.952880e-03 	-6.323962e-03 	 
8.070325e+01 	5.574684e-03 	-6.437931e-03 	 
8.071887e+01 	6.323115e-03 	-6.655253e-03 	 
8.073450e+01 	6.924720e-03 	-6.919210e-03 	 
8.075012e+01 	7.256415e-03 	-7.264549e-03 	 
8.076572e+01 	7.087932e-03 	-7.530470e-03 	 
8.078134e+01 	6.451035e-03 	-7.499843e-03 	 
8.079697e+01 	5.749076e-03 	-7.013709e-03 	 
8.081256e+01 	5.231096e-03 	-6.166189e-03 	 
8.082822e+01 	4.808859e-03 	-5.434660e-03 	 
8.084384e+01 	4.477836e-03 	-5.082808e-03 	 
8.085947e+01 	4.356106e-03 	-4.972870e-03 	 
8.087509e+01 	4.587343e-03 	-4.903336e-03 	 
8.089075e+01 	5.044539e-03 	-4.892010e-03 	 
8.090637e+01 	5.347897e-03 	-5.328410e-03 	 
8.092200e+01 	5.497939e-03 	-6.216747e-03 	 
8.093765e+01 	5.807110e-03 	-6.911166e-03 	 
8.095328e+01 	6.322355e-03 	-7.032786e-03 	 
8.096890e+01 	6.824250e-03 	-6.911344e-03 	 
8.098453e+01 	7.023460e-03 	-6.793169e-03 	 
8.100012e+01 	6.828657e-03 	-6.677151e-03 	 
8.101575e+01 	6.529773e-03 	-6.740004e-03 	 
8.103134e+01 	6.326402e-03 	-6.883530e-03 	 
8.104697e+01 	6.279614e-03 	-6.572802e-03 	 
8.106259e+01 	6.636911e-03 	-5.770000e-03 	 
8.107822e+01 	7.205745e-03 	-5.084214e-03 	 
8.109384e+01 	7.347850e-03 	-4.862370e-03 	 
8.110947e+01 	6.698219e-03 	-5.157861e-03 	 
8.112509e+01 	5.757437e-03 	-5.862122e-03 	 
8.114075e+01 	5.333372e-03 	-6.560084e-03 	 
8.115640e+01 	5.817200e-03 	-6.921229e-03 	 
8.117203e+01 	6.905797e-03 	-6.974895e-03 	 
8.118756e+01 	7.977296e-03 	-6.955834e-03 	 
8.120322e+01 	8.695385e-03 	-7.043379e-03 	 
8.121887e+01 	9.225026e-03 	-7.426397e-03 	 
8.123450e+01 	9.550094e-03 	-8.313555e-03 	 
8.125012e+01 	9.339057e-03 	-9.234968e-03 	 
8.126578e+01 	8.850498e-03 	-9.511533e-03 	 
8.128140e+01 	8.544864e-03 	-9.174628e-03 	 
8.129703e+01 	8.368059e-03 	-8.639899e-03 	 
8.131268e+01 	8.272651e-03 	-8.187907e-03 	 
8.132822e+01 	8.377997e-03 	-7.518426e-03 	 
8.134387e+01 	8.485741e-03 	-6.783380e-03 	 
8.135953e+01 	8.430696e-03 	-6.761146e-03 	 
8.137518e+01 	8.393563e-03 	-7.470450e-03 	 
8.139072e+01 	8.557016e-03 	-8.366928e-03 	 
8.140637e+01 	8.877491e-03 	-9.048296e-03 	 
8.142203e+01 	9.237580e-03 	-9.280290e-03 	 
8.143768e+01 	9.571845e-03 	-9.081342e-03 	 
8.145322e+01 	9.836317e-03 	-8.818136e-03 	 
8.146887e+01 	9.817750e-03 	-8.845752e-03 	 
8.148453e+01 	9.342528e-03 	-9.054626e-03 	 
8.150009e+01 	8.538505e-03 	-9.239200e-03 	 
8.151575e+01 	7.733843e-03 	-9.306270e-03 	 
8.153140e+01 	7.477826e-03 	-9.140042e-03 	 
8.154697e+01 	7.946092e-03 	-8.679638e-03 	 
8.156265e+01 	8.583101e-03 	-8.113336e-03 	 
8.157819e+01 	8.711391e-03 	-7.679989e-03 	 
8.159387e+01 	8.080312e-03 	-7.528418e-03 	 
8.160956e+01 	6.948469e-03 	-7.766890e-03 	 
8.162512e+01 	5.898037e-03 	-8.196676e-03 	 
8.164078e+01 	5.545996e-03 	-8.238924e-03 	 
8.165634e+01 	6.033475e-03 	-7.684390e-03 	 
8.167203e+01 	6.961615e-03 	-7.084463e-03 	 
8.168759e+01 	7.828570e-03 	-6.942460e-03 	 
8.170325e+01 	8.266296e-03 	-7.298025e-03 	 
8.171893e+01 	8.198228e-03 	-7.992441e-03 	 
8.173450e+01 	8.034967e-03 	-8.810199e-03 	 
8.175015e+01 	7.991594e-03 	-9.400023e-03 	 
8.176572e+01 	7.883940e-03 	-9.262004e-03 	 
8.178140e+01 	7.767654e-03 	-8.388747e-03 	 
8.179697e+01 	7.771856e-03 	-7.382776e-03 	 
8.181262e+01 	7.778960e-03 	-6.931713e-03 	 
8.182831e+01 	7.587355e-03 	-7.113267e-03 	 
8.184387e+01 	7.334449e-03 	-7.294152e-03 	 
8.185956e+01 	7.283152e-03 	-7.188398e-03 	 
8.187512e+01 	7.352192e-03 	-7.348450e-03 	 
8.189072e+01 	7.633207e-03 	-8.068763e-03 	 
8.190640e+01 	8.445884e-03 	-8.896330e-03 	 
8.192197e+01 	9.230208e-03 	-9.136833e-03 	 
8.193762e+01 	9.213104e-03 	-8.951196e-03 	 
8.195331e+01 	8.611115e-03 	-9.061414e-03 	 
8.196884e+01 	8.186760e-03 	-9.484593e-03 	 
8.198453e+01 	8.344187e-03 	-9.829999e-03 	 
8.200018e+01 	8.855906e-03 	-9.976911e-03 	 
8.201572e+01 	9.355898e-03 	-9.743485e-03 	 
8.203140e+01 	9.594395e-03 	-9.228205e-03 	 
8.204697e+01 	9.510804e-03 	-9.048128e-03 	 
8.206262e+01 	9.090332e-03 	-9.307254e-03 	 
8.207819e+01 	8.368808e-03 	-9.718075e-03 	 
8.209387e+01 	7.555284e-03 	-1.004668e-02 	 
8.210944e+01 	7.028113e-03 	-9.913067e-03 	 
8.212512e+01 	7.022995e-03 	-9.304814e-03 	 
8.214081e+01 	7.460387e-03 	-8.867597e-03 	 
8.215637e+01 	8.026713e-03 	-9.053573e-03 	 
8.217206e+01 	8.686358e-03 	-9.509686e-03 	 
8.218762e+01 	9.472500e-03 	-9.733810e-03 	 
8.220322e+01 	1.008336e-02 	-9.835631e-03 	 
8.221890e+01 	1.021827e-02 	-1.014315e-02 	 
8.223447e+01 	1.011553e-02 	-1.049720e-02 	 
8.225015e+01 	1.004181e-02 	-1.067832e-02 	 
8.226572e+01 	9.713434e-03 	-1.065416e-02 	 
8.228140e+01 	9.224528e-03 	-1.033744e-02 	 
8.229697e+01 	9.142605e-03 	-9.579738e-03 	 
8.231265e+01 	9.431854e-03 	-8.685536e-03 	 
8.232825e+01 	9.553121e-03 	-8.188967e-03 	 
8.234393e+01 	9.420245e-03 	-8.180598e-03 	 
8.235950e+01 	9.224200e-03 	-8.379047e-03 	 
8.237509e+01 	8.908969e-03 	-8.559467e-03 	 
8.239078e+01 	8.468872e-03 	-8.745104e-03 	 
8.240637e+01 	8.206048e-03 	-8.929293e-03 	 
8.242197e+01 	8.407737e-03 	-9.032314e-03 	 
8.243765e+01 	8.918308e-03 	-9.084234e-03 	 
8.245322e+01 	9.283928e-03 	-9.269763e-03 	 
8.246890e+01 	9.257318e-03 	-9.679968e-03 	 
8.248447e+01 	8.964095e-03 	-9.978318e-03 	 
8.250012e+01 	8.777923e-03 	-9.949676e-03 	 
8.251572e+01 	8.733213e-03 	-9.572324e-03 	 
8.253140e+01 	8.711250e-03 	-8.939814e-03 	 
8.254697e+01 	8.842193e-03 	-8.572017e-03 	 
8.256265e+01 	8.915355e-03 	-8.615700e-03 	 
8.257822e+01 	8.486184e-03 	-8.703698e-03 	 
8.259393e+01 	7.779715e-03 	-8.656195e-03 	 
8.260950e+01 	7.485174e-03 	-8.454963e-03 	 
8.262509e+01 	7.617119e-03 	-8.013026e-03 	 
8.264081e+01 	7.873823e-03 	-7.456191e-03 	 
8.265640e+01 	8.257003e-03 	-6.986052e-03 	 
8.267200e+01 	8.685472e-03 	-6.707657e-03 	 
8.268762e+01 	8.941017e-03 	-6.755934e-03 	 
8.270322e+01 	8.944559e-03 	-7.202961e-03 	 
8.271884e+01 	8.639503e-03 	-7.776185e-03 	 
8.273456e+01 	8.094705e-03 	-8.079800e-03 	 
8.275015e+01 	7.717790e-03 	-8.072170e-03 	 
8.276575e+01 	7.666516e-03 	-7.865365e-03 	 
8.278137e+01 	7.845923e-03 	-7.568683e-03 	 
8.279697e+01 	8.148964e-03 	-7.325782e-03 	 
8.281268e+01 	8.470031e-03 	-7.318584e-03 	 
8.282828e+01 	8.726674e-03 	-7.549038e-03 	 
8.284387e+01 	8.836601e-03 	-7.966429e-03 	 
8.285947e+01 	8.755660e-03 	-8.333122e-03 	 
8.287518e+01 	8.643662e-03 	-8.375384e-03 	 
8.289075e+01 	8.611946e-03 	-8.401242e-03 	 
8.290634e+01 	8.457794e-03 	-8.533948e-03 	 
8.292203e+01 	8.113579e-03 	-8.321630e-03 	 
8.293762e+01 	7.827130e-03 	-7.707980e-03 	 
8.295325e+01 	7.752080e-03 	-7.175027e-03 	 
8.296884e+01 	7.947901e-03 	-7.014361e-03 	 
8.298456e+01 	8.482830e-03 	-7.185967e-03 	 
8.300012e+01 	8.965576e-03 	-7.563678e-03 	 
8.301572e+01 	8.931516e-03 	-7.856053e-03 	 
8.303143e+01 	8.434522e-03 	-7.889537e-03 	 
8.304703e+01 	8.093441e-03 	-7.952519e-03 	 
8.306262e+01 	8.369191e-03 	-8.230518e-03 	 
8.307822e+01 	8.782056e-03 	-8.481023e-03 	 
8.309393e+01 	8.755244e-03 	-8.340074e-03 	 
8.310953e+01 	8.448893e-03 	-7.867413e-03 	 
8.312512e+01 	8.207065e-03 	-7.544982e-03 	 
8.314075e+01 	8.283842e-03 	-7.649100e-03 	 
8.315634e+01 	8.688028e-03 	-8.020562e-03 	 
8.317206e+01 	9.071812e-03 	-8.237196e-03 	 
8.318765e+01 	9.264048e-03 	-8.218871e-03 	 
8.320325e+01 	9.199103e-03 	-8.256726e-03 	 
8.321884e+01 	8.965625e-03 	-8.550051e-03 	 
8.323456e+01 	8.755381e-03 	-8.817612e-03 	 
8.325015e+01 	8.590557e-03 	-8.688497e-03 	 
8.326575e+01 	8.478918e-03 	-8.241176e-03 	 
8.328134e+01 	8.547069e-03 	-7.694573e-03 	 
8.329703e+01 	8.829712e-03 	-7.108210e-03 	 
8.331265e+01 	9.086068e-03 	-6.448124e-03 	 
8.332825e+01 	9.023755e-03 	-6.029417e-03 	 
8.334384e+01 	8.597195e-03 	-6.059143e-03 	 
8.335956e+01 	8.199953e-03 	-6.394906e-03 	 
8.337515e+01 	8.199996e-03 	-6.858262e-03 	 
8.339075e+01 	8.431243e-03 	-7.162937e-03 	 
8.340634e+01 	8.565757e-03 	-7.208864e-03 	 
8.342197e+01 	8.737995e-03 	-7.279555e-03 	 
8.343759e+01 	9.259718e-03 	-7.465193e-03 	 
8.345322e+01 	9.847617e-03 	-7.599339e-03 	 
8.346881e+01 	9.832927e-03 	-7.765882e-03 	 
8.348456e+01 	9.301750e-03 	-7.936952e-03 	 
8.350018e+01 	8.926224e-03 	-8.008605e-03 	 
8.351581e+01 	8.756502e-03 	-8.067994e-03 	 
8.353143e+01 	8.494643e-03 	-8.188580e-03 	 
8.354697e+01 	8.062897e-03 	-8.232143e-03 	 
8.356259e+01 	7.798743e-03 	-8.081725e-03 	 
8.357825e+01 	7.962089e-03 	-7.990141e-03 	 
8.359390e+01 	8.290617e-03 	-8.056463e-03 	 
8.360956e+01 	8.498810e-03 	-8.017855e-03 	 
8.362509e+01 	8.494346e-03 	-7.705235e-03 	 
8.364075e+01 	8.363542e-03 	-7.293612e-03 	 
8.365637e+01 	8.378524e-03 	-7.128637e-03 	 
8.367200e+01 	8.549201e-03 	-7.401858e-03 	 
8.368765e+01 	8.557186e-03 	-7.861208e-03 	 
8.370328e+01 	8.338866e-03 	-8.043883e-03 	 
8.371893e+01 	8.087008e-03 	-7.875398e-03 	 
8.373447e+01 	7.898929e-03 	-7.705477e-03 	 
8.375012e+01 	7.712684e-03 	-7.717274e-03 	 
8.376578e+01 	7.660847e-03 	-7.744384e-03 	 
8.378143e+01 	7.936164e-03 	-7.516459e-03 	 
8.379697e+01 	8.288856e-03 	-7.220877e-03 	 
8.381259e+01 	8.460924e-03 	-7.254088e-03 	 
8.382825e+01 	8.526673e-03 	-7.518427e-03 	 
8.384390e+01 	8.493305e-03 	-7.806649e-03 	 
8.385953e+01 	8.399795e-03 	-8.205386e-03 	 
8.387518e+01 	8.429374e-03 	-8.622899e-03 	 
8.389072e+01 	8.559910e-03 	-8.681887e-03 	 
8.390634e+01 	8.819877e-03 	-8.341274e-03 	 
8.392200e+01 	9.164071e-03 	-7.838111e-03 	 
8.393765e+01 	9.345516e-03 	-7.472597e-03 	 
8.395331e+01 	9.240563e-03 	-7.609929e-03 	 
8.396884e+01 	9.223572e-03 	-8.155175e-03 	 
8.398447e+01 	9.720465e-03 	-8.670538e-03 	 
8.400009e+01 	1.043076e-02 	-9.121035e-03 	 
8.401575e+01 	1.106588e-02 	-9.552941e-03 	 
8.403137e+01 	1.146126e-02 	-9.722743e-03 	 
8.404700e+01 	1.150725e-02 	-9.653266e-03 	 
8.406262e+01 	1.127979e-02 	-9.508170e-03 	 
8.407825e+01 	1.099835e-02 	-9.324944e-03 	 
8.409387e+01 	1.087379e-02 	-9.126552e-03 	 
8.410950e+01 	1.085334e-02 	-8.899002e-03 	 
8.412512e+01 	1.086567e-02 	-8.677982e-03 	 
8.414075e+01 	1.094620e-02 	-8.544598e-03 	 
8.415637e+01 	1.115508e-02 	-8.526587e-03 	 
8.417200e+01 	1.146154e-02 	-8.633038e-03 	 
8.418762e+01 	1.176298e-02 	-8.854063e-03 	 
8.420325e+01 	1.191803e-02 	-8.928320e-03 	 
8.421887e+01 	1.175304e-02 	-8.802843e-03 	 
8.423450e+01 	1.146033e-02 	-8.565673e-03 	 
8.425012e+01 	1.145473e-02 	-8.437467e-03 	 
8.426575e+01 	1.169876e-02 	-8.264391e-03 	 
8.428137e+01 	1.179025e-02 	-7.767684e-03 	 
8.429700e+01 	1.140968e-02 	-7.272126e-03 	 
8.431262e+01 	1.071019e-02 	-6.999002e-03 	 
8.432828e+01 	1.021112e-02 	-6.827501e-03 	 
8.434390e+01 	1.003510e-02 	-6.933494e-03 	 
8.435956e+01 	9.866642e-03 	-7.505958e-03 	 
8.437509e+01 	9.688695e-03 	-8.194184e-03 	 
8.439072e+01 	9.836072e-03 	-8.560645e-03 	 
8.440637e+01 	1.023707e-02 	-8.596537e-03 	 
8.442203e+01 	1.047078e-02 	-8.566528e-03 	 
8.443768e+01 	1.044262e-02 	-8.636933e-03 	 
8.445322e+01 	1.017820e-02 	-8.680991e-03 	 
8.446887e+01 	9.657811e-03 	-8.637123e-03 	 
8.448453e+01 	9.083223e-03 	-8.513854e-03 	 
8.450006e+01 	8.646617e-03 	-8.154121e-03 	 
8.451575e+01 	8.349978e-03 	-7.726191e-03 	 
8.453140e+01 	8.201220e-03 	-7.495362e-03 	 
8.454697e+01 	8.170090e-03 	-7.388177e-03 	 
8.456265e+01 	8.076966e-03 	-7.278615e-03 	 
8.457822e+01 	7.965593e-03 	-7.118973e-03 	 
8.459390e+01 	8.111633e-03 	-7.035067e-03 	 
8.460947e+01 	8.448445e-03 	-7.160350e-03 	 
8.462515e+01 	8.615132e-03 	-7.395838e-03 	 
8.464069e+01 	8.625949e-03 	-7.540443e-03 	 
8.465637e+01 	8.786286e-03 	-7.750156e-03 	 
8.467206e+01 	9.177312e-03 	-8.349394e-03 	 
8.468762e+01 	9.717826e-03 	-9.095630e-03 	 
8.470328e+01 	1.013257e-02 	-9.444186e-03 	 
8.471884e+01 	1.037683e-02 	-9.331453e-03 	 
8.473453e+01 	1.067910e-02 	-9.308417e-03 	 
8.475009e+01 	1.106424e-02 	-9.770198e-03 	 
8.476575e+01 	1.131864e-02 	-1.027597e-02 	 
8.478143e+01 	1.117812e-02 	-1.018648e-02 	 
8.479700e+01 	1.065510e-02 	-9.575595e-03 	 
8.481265e+01 	1.021130e-02 	-9.021602e-03 	 
8.482822e+01 	1.041006e-02 	-8.894209e-03 	 
8.484390e+01 	1.101825e-02 	-9.005898e-03 	 
8.485947e+01 	1.118866e-02 	-9.151011e-03 	 
8.487515e+01 	1.083402e-02 	-9.281884e-03 	 
8.489072e+01 	1.068796e-02 	-9.374025e-03 	 
8.490640e+01 	1.104386e-02 	-9.545438e-03 	 
8.492200e+01 	1.149035e-02 	-9.721907e-03 	 
8.493768e+01 	1.177979e-02 	-9.725824e-03 	 
8.495325e+01 	1.230864e-02 	-9.807759e-03 	 
8.496881e+01 	1.307392e-02 	-1.030249e-02 	 
8.498450e+01 	1.363801e-02 	-1.101384e-02 	 
8.500006e+01 	1.385272e-02 	-1.152508e-02 	 
8.501575e+01 	1.375176e-02 	-1.169350e-02 	 
8.503143e+01 	1.348569e-02 	-1.159198e-02 	 
8.504700e+01 	1.320396e-02 	-1.148277e-02 	 
8.506259e+01 	1.286741e-02 	-1.137903e-02 	 
8.507828e+01 	1.240881e-02 	-1.096541e-02 	 
8.509387e+01 	1.209949e-02 	-1.038646e-02 	 
8.510947e+01 	1.209362e-02 	-9.908551e-03 	 
8.512518e+01 	1.210334e-02 	-9.574960e-03 	 
8.514078e+01 	1.202124e-02 	-9.558812e-03 	 
8.515637e+01 	1.215635e-02 	-1.002128e-02 	 
8.517197e+01 	1.247932e-02 	-1.066989e-02 	 
8.518765e+01 	1.271732e-02 	-1.107558e-02 	 
8.520325e+01 	1.298962e-02 	-1.104401e-02 	 
8.521884e+01 	1.349387e-02 	-1.058266e-02 	 
8.523453e+01 	1.404720e-02 	-1.008785e-02 	 
8.525009e+01 	1.417266e-02 	-9.972678e-03 	 
8.526578e+01 	1.374260e-02 	-1.011384e-02 	 
8.528137e+01 	1.307460e-02 	-1.020711e-02 	 
8.529694e+01 	1.265450e-02 	-1.023599e-02 	 
8.531265e+01 	1.262101e-02 	-1.029773e-02 	 
8.532825e+01 	1.284502e-02 	-1.045984e-02 	 
8.534384e+01 	1.318410e-02 	-1.079991e-02 	 
8.535947e+01 	1.347557e-02 	-1.120217e-02 	 
8.537518e+01 	1.364090e-02 	-1.158637e-02 	 
8.539078e+01 	1.375140e-02 	-1.196913e-02 	 
8.540640e+01 	1.389319e-02 	-1.213489e-02 	 
8.542203e+01 	1.409315e-02 	-1.197180e-02 	 
8.543762e+01 	1.413613e-02 	-1.171575e-02 	 
8.545325e+01 	1.386470e-02 	-1.167624e-02 	 
8.546887e+01 	1.356376e-02 	-1.174207e-02 	 
8.548450e+01 	1.349030e-02 	-1.155093e-02 	 
8.550012e+01 	1.350085e-02 	-1.113019e-02 	 
8.551575e+01 	1.343511e-02 	-1.082636e-02 	 
8.553137e+01 	1.337618e-02 	-1.080895e-02 	 
8.554700e+01 	1.347979e-02 	-1.095450e-02 	 
8.556262e+01 	1.372775e-02 	-1.104693e-02 	 
8.557825e+01 	1.396210e-02 	-1.102921e-02 	 
8.559387e+01 	1.410709e-02 	-1.077813e-02 	 
8.560950e+01 	1.398396e-02 	-1.038478e-02 	 
8.562512e+01 	1.331006e-02 	-1.021868e-02 	 
8.564075e+01 	1.252308e-02 	-1.046512e-02 	 
8.565637e+01 	1.216459e-02 	-1.098492e-02 	 
8.567200e+01 	1.230806e-02 	-1.135095e-02 	 
8.568762e+01 	1.283789e-02 	-1.137798e-02 	 
8.570325e+01 	1.322846e-02 	-1.131463e-02 	 
8.571890e+01 	1.307634e-02 	-1.142210e-02 	 
8.573453e+01 	1.248736e-02 	-1.176939e-02 	 
8.575018e+01 	1.206824e-02 	-1.216623e-02 	 
8.576572e+01 	1.206486e-02 	-1.217802e-02 	 
8.578137e+01 	1.208598e-02 	-1.175079e-02 	 
8.579700e+01 	1.215484e-02 	-1.120136e-02 	 
8.581265e+01 	1.224887e-02 	-1.089360e-02 	 
8.582831e+01 	1.218735e-02 	-1.096015e-02 	 
8.584384e+01 	1.180304e-02 	-1.111896e-02 	 
8.585953e+01 	1.130617e-02 	-1.109375e-02 	 
8.587506e+01 	1.115643e-02 	-1.077922e-02 	 
8.589075e+01 	1.129657e-02 	-1.030964e-02 	 
8.590640e+01 	1.156186e-02 	-9.800779e-03 	 
8.592194e+01 	1.177673e-02 	-9.348680e-03 	 
8.593759e+01 	1.184125e-02 	-9.324604e-03 	 
8.595325e+01 	1.201410e-02 	-9.981261e-03 	 
8.596890e+01 	1.235971e-02 	-1.109289e-02 	 
8.598456e+01 	1.245490e-02 	-1.186709e-02 	 
8.600009e+01 	1.209458e-02 	-1.199729e-02 	 
8.601575e+01 	1.156920e-02 	-1.167039e-02 	 
8.603140e+01 	1.127931e-02 	-1.094001e-02 	 
8.604697e+01 	1.138340e-02 	-1.017675e-02 	 
8.606262e+01 	1.159747e-02 	-9.569205e-03 	 
8.607825e+01 	1.167278e-02 	-9.066748e-03 	 
8.609390e+01 	1.162805e-02 	-8.927394e-03 	 
8.610944e+01 	1.144367e-02 	-9.416331e-03 	 
8.612509e+01 	1.113446e-02 	-1.029389e-02 	 
8.614075e+01 	1.091173e-02 	-1.086076e-02 	 
8.615640e+01 	1.087546e-02 	-1.077724e-02 	 
8.617206e+01 	1.105954e-02 	-1.027584e-02 	 
8.618759e+01 	1.146969e-02 	-9.799895e-03 	 
8.620325e+01 	1.175166e-02 	-9.595623e-03 	 
8.621890e+01 	1.152814e-02 	-9.643295e-03 	 
8.623456e+01 	1.087986e-02 	-9.957781e-03 	 
8.625009e+01 	1.038245e-02 	-1.040214e-02 	 
8.626578e+01 	1.038107e-02 	-1.076217e-02 	 
8.628131e+01 	1.082577e-02 	-1.086266e-02 	 
8.629700e+01 	1.158108e-02 	-1.059626e-02 	 
8.631265e+01 	1.233241e-02 	-1.055568e-02 	 
8.632831e+01 	1.276892e-02 	-1.102161e-02 	 
8.634384e+01 	1.260096e-02 	-1.146216e-02 	 
8.635953e+01 	1.204085e-02 	-1.155436e-02 	 
8.637506e+01 	1.149377e-02 	-1.128400e-02 	 
8.639075e+01 	1.115976e-02 	-1.087302e-02 	 
8.640643e+01 	1.126392e-02 	-1.055653e-02 	 
8.642200e+01 	1.166621e-02 	-1.046346e-02 	 
8.643765e+01 	1.185599e-02 	-1.064113e-02 	 
8.645322e+01 	1.172429e-02 	-1.097720e-02 	 
8.646890e+01 	1.161221e-02 	-1.137980e-02 	 
8.648450e+01 	1.171270e-02 	-1.175916e-02 	 
8.650018e+01 	1.182115e-02 	-1.188374e-02 	 
8.651578e+01 	1.184937e-02 	-1.173341e-02 	 
8.653134e+01 	1.187528e-02 	-1.144692e-02 	 
8.654703e+01 	1.182750e-02 	-1.111720e-02 	 
8.656262e+01 	1.172924e-02 	-1.102962e-02 	 
8.657831e+01 	1.160015e-02 	-1.135344e-02 	 
8.659387e+01 	1.144301e-02 	-1.181595e-02 	 
8.660944e+01 	1.141586e-02 	-1.213698e-02 	 
8.662515e+01 	1.164241e-02 	-1.237064e-02 	 
8.664075e+01 	1.204038e-02 	-1.246985e-02 	 
8.665631e+01 	1.254100e-02 	-1.243504e-02 	 
8.667203e+01 	1.299083e-02 	-1.242954e-02 	 
8.668762e+01 	1.298011e-02 	-1.250812e-02 	 
8.670322e+01 	1.261694e-02 	-1.246110e-02 	 
8.671890e+01 	1.242586e-02 	-1.236538e-02 	 
8.673450e+01 	1.264120e-02 	-1.253768e-02 	 
8.675018e+01 	1.316882e-02 	-1.283236e-02 	 
8.676575e+01 	1.365781e-02 	-1.293517e-02 	 
8.678143e+01 	1.397416e-02 	-1.290779e-02 	 
8.679700e+01 	1.428759e-02 	-1.290911e-02 	 
8.681268e+01 	1.468517e-02 	-1.287066e-02 	 
8.682822e+01 	1.505429e-02 	-1.269574e-02 	 
8.684390e+01 	1.508854e-02 	-1.252201e-02 	 
8.685947e+01 	1.476285e-02 	-1.255966e-02 	 
8.687512e+01 	1.456120e-02 	-1.288355e-02 	 
8.689081e+01 	1.464265e-02 	-1.331325e-02 	 
8.690637e+01 	1.487594e-02 	-1.361609e-02 	 
8.692203e+01 	1.513652e-02 	-1.381257e-02 	 
8.693762e+01 	1.526765e-02 	-1.406916e-02 	 
8.695331e+01 	1.512893e-02 	-1.443641e-02 	 
8.696887e+01 	1.458084e-02 	-1.465964e-02 	 
8.698447e+01 	1.384373e-02 	-1.445956e-02 	 
8.700015e+01 	1.326829e-02 	-1.394169e-02 	 
8.701575e+01 	1.305862e-02 	-1.354948e-02 	 
8.703134e+01 	1.312841e-02 	-1.341053e-02 	 
8.704706e+01 	1.330589e-02 	-1.336005e-02 	 
8.706265e+01 	1.359612e-02 	-1.338504e-02 	 
8.707825e+01 	1.390770e-02 	-1.370290e-02 	 
8.709384e+01 	1.409793e-02 	-1.428632e-02 	 
8.710947e+01 	1.430660e-02 	-1.469853e-02 	 
8.712509e+01 	1.452920e-02 	-1.485139e-02 	 
8.714069e+01 	1.462407e-02 	-1.484059e-02 	 
8.715643e+01 	1.462467e-02 	-1.463406e-02 	 
8.717194e+01 	1.458969e-02 	-1.428936e-02 	 
8.718759e+01 	1.453180e-02 	-1.407941e-02 	 
8.720322e+01 	1.411273e-02 	-1.431354e-02 	 
8.721884e+01 	1.342173e-02 	-1.480206e-02 	 
8.723447e+01 	1.305999e-02 	-1.496406e-02 	 
8.725009e+01 	1.317833e-02 	-1.470552e-02 	 
8.726572e+01 	1.361415e-02 	-1.450872e-02 	 
8.728134e+01 	1.415329e-02 	-1.475384e-02 	 
8.729697e+01 	1.441071e-02 	-1.503609e-02 	 
8.731262e+01 	1.433720e-02 	-1.512237e-02 	 
8.732825e+01 	1.410532e-02 	-1.523377e-02 	 
8.734387e+01 	1.402444e-02 	-1.526764e-02 	 
8.735950e+01 	1.429381e-02 	-1.498584e-02 	 
8.737509e+01 	1.463290e-02 	-1.445646e-02 	 
8.739072e+01 	1.465425e-02 	-1.405949e-02 	 
8.740634e+01 	1.438740e-02 	-1.401356e-02 	 
8.742194e+01 	1.416875e-02 	-1.418410e-02 	 
8.743768e+01 	1.425800e-02 	-1.442440e-02 	 
8.745331e+01 	1.457663e-02 	-1.450848e-02 	 
8.746890e+01 	1.487365e-02 	-1.435692e-02 	 
8.748453e+01 	1.496829e-02 	-1.420178e-02 	 
8.750015e+01 	1.486361e-02 	-1.417155e-02 	 
8.751578e+01 	1.464235e-02 	-1.436976e-02 	 
8.753140e+01 	1.442183e-02 	-1.478872e-02 	 
8.754703e+01 	1.429712e-02 	-1.510141e-02 	 
8.756265e+01 	1.442313e-02 	-1.505257e-02 	 
8.757828e+01 	1.457558e-02 	-1.482591e-02 	 
8.759390e+01 	1.458902e-02 	-1.467742e-02 	 
8.760953e+01 	1.459830e-02 	-1.464487e-02 	 
8.762515e+01 	1.454939e-02 	-1.459323e-02 	 
8.764078e+01 	1.434424e-02 	-1.441804e-02 	 
8.765643e+01 	1.416670e-02 	-1.411886e-02 	 
8.767206e+01 	1.413614e-02 	-1.373721e-02 	 
8.768768e+01 	1.410692e-02 	-1.349334e-02 	 
8.770331e+01 	1.402078e-02 	-1.359915e-02 	 
8.771881e+01 	1.400236e-02 	-1.377357e-02 	 
8.773447e+01 	1.414641e-02 	-1.376924e-02 	 
8.775009e+01 	1.448881e-02 	-1.370782e-02 	 
8.776575e+01 	1.492281e-02 	-1.358588e-02 	 
8.778140e+01 	1.522463e-02 	-1.350476e-02 	 
8.779703e+01 	1.522997e-02 	-1.372768e-02 	 
8.781268e+01 	1.497045e-02 	-1.415870e-02 	 
8.782819e+01 	1.470744e-02 	-1.464239e-02 	 
8.784384e+01 	1.463605e-02 	-1.511343e-02 	 
8.785947e+01 	1.473845e-02 	-1.511275e-02 	 
8.787509e+01 	1.483105e-02 	-1.437307e-02 	 
8.789075e+01 	1.479377e-02 	-1.352633e-02 	 
8.790637e+01 	1.475512e-02 	-1.323881e-02 	 
8.792203e+01 	1.467361e-02 	-1.334372e-02 	 
8.793768e+01 	1.429333e-02 	-1.341283e-02 	 
8.795322e+01 	1.374216e-02 	-1.335787e-02 	 
8.796887e+01 	1.353359e-02 	-1.325088e-02 	 
8.798453e+01 	1.391851e-02 	-1.310271e-02 	 
8.800009e+01 	1.447924e-02 	-1.294420e-02 	 
8.801575e+01 	1.473132e-02 	-1.281834e-02 	 
8.803143e+01 	1.471743e-02 	-1.276772e-02 	 
8.804700e+01 	1.478425e-02 	-1.280743e-02 	 
8.806268e+01 	1.495075e-02 	-1.287084e-02 	 
8.807825e+01 	1.493969e-02 	-1.283175e-02 	 
8.809390e+01 	1.472206e-02 	-1.267265e-02 	 
8.810947e+01 	1.458702e-02 	-1.252999e-02 	 
8.812515e+01 	1.475562e-02 	-1.255843e-02 	 
8.814072e+01 	1.493568e-02 	-1.258791e-02 	 
8.815637e+01 	1.485323e-02 	-1.245823e-02 	 
8.817194e+01 	1.463779e-02 	-1.233490e-02 	 
8.818762e+01 	1.438629e-02 	-1.245726e-02 	 
8.820331e+01 	1.420181e-02 	-1.295073e-02 	 
8.821887e+01 	1.434917e-02 	-1.350160e-02 	 
8.823456e+01 	1.478887e-02 	-1.371815e-02 	 
8.825012e+01 	1.521876e-02 	-1.375776e-02 	 
8.826572e+01 	1.541607e-02 	-1.393906e-02 	 
8.828140e+01 	1.545746e-02 	-1.424568e-02 	 
8.829700e+01 	1.546275e-02 	-1.453563e-02 	 
8.831259e+01 	1.541158e-02 	-1.465052e-02 	 
8.832828e+01 	1.537018e-02 	-1.442600e-02 	 
8.834387e+01 	1.539750e-02 	-1.394256e-02 	 
8.835956e+01 	1.540466e-02 	-1.363881e-02 	 
8.837512e+01 	1.538073e-02 	-1.376212e-02 	 
8.839072e+01 	1.532043e-02 	-1.413891e-02 	 
8.840640e+01 	1.516396e-02 	-1.444920e-02 	 
8.842200e+01 	1.511358e-02 	-1.452514e-02 	 
8.843768e+01 	1.535883e-02 	-1.444186e-02 	 
8.845328e+01 	1.577982e-02 	-1.436251e-02 	 
8.846887e+01 	1.603272e-02 	-1.447209e-02 	 
8.848447e+01 	1.598253e-02 	-1.475778e-02 	 
8.850015e+01 	1.585777e-02 	-1.501374e-02 	 
8.851578e+01 	1.589178e-02 	-1.528438e-02 	 
8.853137e+01 	1.613063e-02 	-1.561667e-02 	 
8.854700e+01 	1.655457e-02 	-1.591874e-02 	 
8.856259e+01 	1.699290e-02 	-1.606330e-02 	 
8.857822e+01 	1.730266e-02 	-1.609059e-02 	 
8.859384e+01 	1.745995e-02 	-1.611956e-02 	 
8.860956e+01 	1.753050e-02 	-1.617733e-02 	 
8.862515e+01 	1.767449e-02 	-1.635495e-02 	 
8.864078e+01 	1.780099e-02 	-1.665864e-02 	 
8.865640e+01 	1.768361e-02 	-1.685409e-02 	 
8.867203e+01 	1.741763e-02 	-1.676023e-02 	 
8.868765e+01 	1.734329e-02 	-1.653590e-02 	 
8.870328e+01 	1.750606e-02 	-1.633671e-02 	 
8.871890e+01 	1.774137e-02 	-1.609821e-02 	 
8.873453e+01 	1.782499e-02 	-1.580006e-02 	 
8.875015e+01 	1.761377e-02 	-1.568003e-02 	 
8.876578e+01 	1.727762e-02 	-1.582491e-02 	 
8.878140e+01 	1.692991e-02 	-1.605128e-02 	 
8.879706e+01 	1.682272e-02 	-1.628527e-02 	 
8.881259e+01 	1.711504e-02 	-1.657469e-02 	 
8.882822e+01 	1.746359e-02 	-1.679748e-02 	 
8.884387e+01 	1.761989e-02 	-1.679218e-02 	 
8.885953e+01 	1.760117e-02 	-1.662510e-02 	 
8.887515e+01 	1.742914e-02 	-1.653860e-02 	 
8.889069e+01 	1.716333e-02 	-1.669312e-02 	 
8.890634e+01 	1.698506e-02 	-1.679413e-02 	 
8.892197e+01 	1.690668e-02 	-1.656332e-02 	 
8.893762e+01 	1.681788e-02 	-1.627623e-02 	 
8.895325e+01 	1.695286e-02 	-1.622384e-02 	 
8.896887e+01 	1.739831e-02 	-1.638412e-02 	 
8.898447e+01 	1.781980e-02 	-1.660326e-02 	 
8.900009e+01 	1.789752e-02 	-1.684437e-02 	 
8.901575e+01 	1.763399e-02 	-1.707436e-02 	 
8.903137e+01 	1.724771e-02 	-1.721454e-02 	 
8.904700e+01 	1.691179e-02 	-1.722393e-02 	 
8.906265e+01 	1.668334e-02 	-1.697286e-02 	 
8.907828e+01 	1.650369e-02 	-1.655077e-02 	 
8.909390e+01 	1.631013e-02 	-1.619028e-02 	 
8.910956e+01 	1.616696e-02 	-1.596479e-02 	 
8.912518e+01 	1.604443e-02 	-1.582349e-02 	 
8.914081e+01 	1.583306e-02 	-1.568179e-02 	 
8.915631e+01 	1.567863e-02 	-1.562940e-02 	 
8.917197e+01 	1.559781e-02 	-1.561631e-02 	 
8.918759e+01 	1.542286e-02 	-1.545835e-02 	 
8.920322e+01 	1.528620e-02 	-1.520636e-02 	 
8.921887e+01 	1.526811e-02 	-1.493159e-02 	 
8.923450e+01 	1.530023e-02 	-1.465776e-02 	 
8.925015e+01 	1.525228e-02 	-1.449253e-02 	 
8.926581e+01 	1.507819e-02 	-1.445965e-02 	 
8.928134e+01 	1.487836e-02 	-1.443382e-02 	 
8.929700e+01 	1.474378e-02 	-1.438281e-02 	 
8.931265e+01 	1.470384e-02 	-1.436470e-02 	 
8.932822e+01 	1.482151e-02 	-1.447891e-02 	 
8.934387e+01 	1.494003e-02 	-1.474431e-02 	 
8.935956e+01 	1.480696e-02 	-1.503406e-02 	 
8.937509e+01 	1.450596e-02 	-1.527958e-02 	 
8.939078e+01 	1.425477e-02 	-1.532642e-02 	 
8.940634e+01 	1.413769e-02 	-1.510975e-02 	 
8.942200e+01 	1.414089e-02 	-1.481918e-02 	 
8.943768e+01 	1.419194e-02 	-1.454220e-02 	 
8.945322e+01 	1.415954e-02 	-1.428992e-02 	 
8.946890e+01 	1.396165e-02 	-1.417703e-02 	 
8.948447e+01 	1.358370e-02 	-1.410070e-02 	 
8.950012e+01 	1.320062e-02 	-1.390908e-02 	 
8.951581e+01 	1.289455e-02 	-1.357635e-02 	 
8.953137e+01 	1.263801e-02 	-1.325473e-02 	 
8.954706e+01 	1.251835e-02 	-1.299484e-02 	 
8.956262e+01 	1.248267e-02 	-1.276487e-02 	 
8.957819e+01 	1.244974e-02 	-1.268358e-02 	 
8.959387e+01 	1.254477e-02 	-1.280954e-02 	 
8.960947e+01 	1.270657e-02 	-1.308920e-02 	 
8.962512e+01 	1.287145e-02 	-1.335942e-02 	 
8.964072e+01 	1.308149e-02 	-1.353766e-02 	 
8.965640e+01 	1.334001e-02 	-1.356474e-02 	 
8.967197e+01 	1.370286e-02 	-1.354909e-02 	 
8.968765e+01 	1.398942e-02 	-1.350661e-02 	 
8.970322e+01 	1.402604e-02 	-1.335191e-02 	 
8.971890e+01 	1.394038e-02 	-1.327303e-02 	 
8.973447e+01 	1.385555e-02 	-1.338357e-02 	 
8.975015e+01 	1.381161e-02 	-1.352341e-02 	 
8.976572e+01 	1.378599e-02 	-1.358279e-02 	 
8.978140e+01 	1.381091e-02 	-1.350040e-02 	 
8.979697e+01 	1.391304e-02 	-1.332394e-02 	 
8.981265e+01 	1.390729e-02 	-1.312051e-02 	 
8.982822e+01 	1.367360e-02 	-1.288926e-02 	 
8.984390e+01 	1.346217e-02 	-1.264410e-02 	 
8.985947e+01 	1.338745e-02 	-1.237949e-02 	 
8.987515e+01 	1.328991e-02 	-1.212887e-02 	 
8.989072e+01 	1.316041e-02 	-1.191970e-02 	 
8.990643e+01 	1.311528e-02 	-1.169137e-02 	 
8.992200e+01 	1.317114e-02 	-1.137176e-02 	 
8.993759e+01 	1.341436e-02 	-1.106747e-02 	 
8.995328e+01 	1.372494e-02 	-1.080911e-02 	 
