x0	p000	p013	p026	p040	p053	p067	
0.000000e+00 	1.759148e-07 	1.949461e-07 	8.199204e-08 	1.008002e-07 	2.910510e-06 	8.567885e-08 	 
8.268749e-01 	7.699813e-07 	8.388015e-07 	3.556917e-07 	3.741150e-07 	1.485722e-05 	5.588595e-07 	 
1.653750e+00 	3.628164e-07 	4.118381e-07 	1.686399e-07 	3.996450e-07 	7.584272e-06 	4.969943e-07 	 
2.480625e+00 	1.517474e-07 	1.889608e-07 	1.061178e-07 	3.940196e-07 	3.560497e-06 	6.418244e-07 	 
3.307500e+00 	1.113354e-07 	1.390362e-07 	9.749838e-08 	3.122803e-07 	3.139640e-06 	8.574582e-07 	 
4.134374e+00 	5.050801e-08 	6.190214e-08 	5.791489e-08 	2.308105e-07 	2.383085e-06 	5.636355e-07 	 
4.961249e+00 	3.091657e-08 	3.619967e-08 	4.067483e-08 	2.199910e-07 	1.620211e-06 	5.499547e-07 	 
5.788124e+00 	2.801344e-08 	3.054784e-08 	3.724838e-08 	2.037820e-07 	1.369654e-06 	5.620453e-07 	 
6.614999e+00 	2.180839e-08 	2.322871e-08 	2.969548e-08 	1.193158e-07 	1.197786e-06 	6.054027e-07 	 
7.441874e+00 	1.514785e-08 	1.588807e-08 	2.161675e-08 	9.942978e-08 	1.628421e-06 	6.877477e-07 	 
8.268749e+00 	1.621753e-08 	1.737873e-08 	2.572868e-08 	1.128878e-07 	1.961847e-06 	6.041502e-07 	 
9.095624e+00 	1.488804e-08 	1.595294e-08 	2.450540e-08 	8.504538e-08 	1.909467e-06 	5.433481e-07 	 
9.922499e+00 	1.178813e-08 	1.285974e-08 	2.174574e-08 	6.125100e-08 	1.723676e-06 	5.864924e-07 	 
1.074937e+01 	1.002794e-08 	1.161236e-08 	2.279136e-08 	1.066430e-07 	2.283006e-06 	7.536169e-07 	 
1.157625e+01 	7.812768e-09 	8.791078e-09 	1.883521e-08 	1.868385e-07 	2.594957e-06 	1.039475e-06 	 
1.240312e+01 	9.771383e-09 	1.120519e-08 	2.511789e-08 	1.519745e-07 	5.106598e-06 	1.193086e-06 	 
1.323000e+01 	6.687165e-09 	7.610255e-09 	1.820218e-08 	1.467736e-07 	8.853651e-06 	1.462366e-06 	 
1.405687e+01 	4.279743e-09 	4.729918e-09 	1.130687e-08 	1.173107e-07 	7.341177e-06 	1.800848e-06 	 
1.488375e+01 	1.768868e-09 	2.017479e-09 	5.368499e-09 	7.403007e-08 	5.993072e-06 	1.478573e-06 	 
1.571062e+01 	1.251234e-09 	1.185953e-09 	2.802840e-09 	7.718918e-08 	4.653132e-06 	7.604452e-07 	 
1.653750e+01 	7.553344e-10 	7.142745e-10 	1.760808e-09 	9.449780e-08 	3.766641e-06 	6.918769e-07 	 
1.736437e+01 	6.123293e-10 	5.599155e-10 	1.747837e-09 	9.007243e-08 	4.188308e-06 	9.427534e-07 	 
1.819125e+01 	3.611643e-10 	3.255255e-10 	1.280868e-09 	1.611162e-07 	3.263517e-06 	9.771922e-07 	 
1.901812e+01 	3.195491e-10 	1.848066e-10 	1.224999e-09 	3.286803e-07 	2.593288e-06 	8.453382e-07 	 
1.984500e+01 	2.522813e-10 	1.119894e-10 	8.029508e-10 	4.121629e-07 	2.398540e-06 	7.770534e-07 	 
2.067187e+01 	1.554187e-10 	7.750985e-11 	4.931584e-10 	3.391689e-07 	2.204847e-06 	7.628734e-07 	 
2.149875e+01 	1.517996e-10 	5.409795e-11 	4.021740e-10 	4.784216e-07 	1.694085e-06 	7.799902e-07 	 
2.232562e+01 	2.022321e-10 	7.917836e-11 	3.448635e-10 	9.551907e-07 	2.248021e-06 	6.625377e-07 	 
2.315250e+01 	1.645978e-10 	1.170569e-10 	3.195621e-10 	1.502644e-06 	2.853243e-06 	5.648954e-07 	 
2.397937e+01 	1.314154e-10 	1.682351e-10 	4.448655e-10 	1.773021e-06 	3.330799e-06 	6.051165e-07 	 
2.480625e+01 	2.504573e-10 	4.406058e-10 	8.528848e-10 	1.936039e-06 	4.344547e-06 	7.321138e-07 	 
2.563312e+01 	3.682835e-09 	6.126000e-09 	9.157146e-09 	5.136225e-06 	5.398341e-06 	1.080029e-06 	 
2.646000e+01 	2.313593e-08 	3.382343e-08 	4.583680e-08 	1.816012e-05 	1.682299e-05 	1.567088e-06 	 
2.728687e+01 	2.778849e-08 	3.128185e-08 	3.655982e-08 	2.118868e-05 	1.962982e-05 	1.716587e-06 	 
2.811375e+01 	2.116268e-08 	1.457724e-08 	1.456278e-08 	1.683038e-05 	1.857429e-05 	1.879203e-06 	 
2.894062e+01 	7.170602e-09 	3.331203e-09 	5.680561e-09 	7.751086e-06 	7.995863e-06 	1.001875e-06 	 
2.976750e+01 	1.647990e-09 	7.715260e-10 	1.527923e-09 	4.823415e-06 	4.107107e-06 	7.507084e-07 	 
3.059437e+01 	7.767936e-10 	3.925153e-10 	7.768967e-10 	3.540346e-06 	3.526894e-06 	5.205064e-07 	 
3.142125e+01 	4.294552e-10 	2.099990e-10 	5.642789e-10 	2.275955e-06 	2.832000e-06 	5.148315e-07 	 
3.224812e+01 	3.010897e-10 	1.293496e-10 	4.050574e-10 	1.404848e-06 	2.327889e-06 	4.799879e-07 	 
3.307500e+01 	1.457872e-10 	8.789124e-11 	3.455651e-10 	1.281708e-06 	1.939214e-06 	4.810012e-07 	 
3.390187e+01 	1.158498e-10 	6.262932e-11 	2.900631e-10 	1.277731e-06 	1.865173e-06 	4.753627e-07 	 
3.472874e+01 	5.621294e-11 	4.827373e-11 	2.663288e-10 	8.556648e-07 	1.327789e-06 	3.864187e-07 	 
3.555562e+01 	5.026020e-11 	4.350945e-11 	1.977114e-10 	7.286985e-07 	1.100465e-06 	3.873354e-07 	 
3.638249e+01 	4.213039e-11 	3.631355e-11 	1.633783e-10 	6.094945e-07 	1.287880e-06 	3.248016e-07 	 
3.720937e+01 	2.510052e-11 	1.996011e-11 	1.383792e-10 	6.300205e-07 	8.132730e-07 	2.960887e-07 	 
3.803624e+01 	1.941497e-11 	2.670310e-11 	1.716118e-10 	7.666186e-07 	7.163583e-07 	3.262890e-07 	 
3.886312e+01 	1.146307e-11 	2.308858e-11 	1.640463e-10 	6.961596e-07 	8.662743e-07 	2.787594e-07 	 
3.968999e+01 	1.224518e-11 	1.768835e-11 	1.374844e-10 	3.738269e-07 	7.976285e-07 	1.999830e-07 	 
4.051687e+01 	8.242636e-12 	1.369100e-11 	1.261711e-10 	3.418865e-07 	6.032438e-07 	2.025745e-07 	 
4.134374e+01 	4.622345e-12 	9.627192e-12 	1.178001e-10 	2.313857e-07 	6.027985e-07 	2.292517e-07 	 
4.217062e+01 	3.985722e-12 	6.716111e-12 	9.089061e-11 	7.206714e-08 	4.366175e-07 	2.189777e-07 	 
4.299749e+01 	3.436714e-12 	6.412422e-12 	7.989278e-11 	1.181930e-07 	5.048933e-07 	2.642369e-07 	 
4.382437e+01 	2.922545e-12 	6.603162e-12 	8.999574e-11 	1.354095e-07 	4.429122e-07 	1.617271e-07 	 
4.465124e+01 	1.730802e-12 	4.333341e-12 	6.678516e-11 	1.141369e-07 	4.308529e-07 	1.711641e-07 	 
4.547812e+01 	1.392551e-12 	3.559689e-12 	6.611643e-11 	1.104392e-07 	2.933063e-07 	1.568485e-07 	 
4.630499e+01 	1.043850e-12 	2.297014e-12 	4.256007e-11 	1.530773e-07 	3.487816e-07 	2.035064e-07 	 
4.713187e+01 	9.095700e-13 	1.427237e-12 	3.210741e-11 	1.169745e-07 	4.401214e-07 	2.322434e-07 	 
4.795874e+01 	6.741478e-13 	9.495169e-13 	2.207220e-11 	7.457212e-08 	4.806844e-07 	1.480168e-07 	 
4.878562e+01 	5.171420e-13 	8.840328e-13 	1.881190e-11 	6.151465e-08 	2.534222e-07 	1.170761e-07 	 
4.961249e+01 	1.051332e-12 	1.179245e-12 	1.754521e-11 	8.997820e-08 	4.108652e-07 	1.740893e-07 	 
5.043937e+01 	4.413650e-12 	1.044377e-11 	2.166352e-11 	2.342230e-07 	4.745828e-07 	1.525673e-07 	 
5.126624e+01 	1.119542e-10 	2.022007e-10 	4.885542e-11 	1.387912e-06 	3.181142e-07 	9.683212e-08 	 
5.209312e+01 	5.525205e-10 	7.466535e-10 	2.889667e-10 	4.980655e-06 	4.575351e-07 	8.661898e-08 	 
5.291999e+01 	1.000380e-09 	8.842228e-10 	8.388879e-10 	7.043227e-06 	5.934639e-07 	9.435426e-08 	 
5.374687e+01 	8.392678e-10 	4.828885e-10 	9.859974e-10 	4.011234e-06 	5.922243e-07 	1.046472e-07 	 
5.457374e+01 	7.946257e-10 	4.502564e-10 	1.307065e-09 	1.953487e-06 	5.010558e-07 	1.144602e-07 	 
5.540062e+01 	5.577868e-10 	3.390864e-10 	6.198086e-10 	1.451164e-06 	3.985528e-07 	8.529078e-08 	 
5.622749e+01 	4.882309e-10 	1.355846e-10 	1.408396e-10 	7.050504e-07 	3.003299e-07 	7.519305e-08 	 
5.705437e+01 	2.114346e-10 	4.250792e-11 	6.972792e-11 	2.334505e-07 	1.897983e-07 	6.818354e-08 	 
5.788124e+01 	2.428539e-11 	1.396783e-11 	3.052905e-11 	9.553540e-08 	2.332007e-07 	6.316540e-08 	 
5.870812e+01 	6.087082e-12 	2.076097e-12 	1.103582e-11 	5.823357e-08 	2.768954e-07 	6.382199e-08 	 
5.953499e+01 	6.650037e-12 	1.875379e-12 	1.334240e-11 	3.054354e-08 	2.134027e-07 	7.415552e-08 	 
6.036187e+01 	6.005325e-12 	2.098821e-12 	1.357864e-11 	1.610721e-08 	2.045908e-07 	5.631240e-08 	 
6.118874e+01 	4.310009e-12 	1.563214e-12 	1.090675e-11 	1.627533e-08 	1.825035e-07 	6.286973e-08 	 
6.201562e+01 	2.305284e-12 	6.974224e-13 	8.854251e-12 	1.524070e-08 	1.882409e-07 	4.959813e-08 	 
6.284249e+01 	1.347676e-12 	6.588114e-13 	9.109161e-12 	1.385587e-08 	1.444710e-07 	5.167371e-08 	 
6.366937e+01 	1.088006e-12 	6.931638e-13 	8.109212e-12 	1.015390e-08 	1.352013e-07 	4.830398e-08 	 
6.449624e+01 	7.547101e-13 	6.681282e-13 	6.663994e-12 	8.560228e-09 	1.255818e-07 	4.973680e-08 	 
6.532312e+01 	5.665040e-13 	5.769956e-13 	6.916156e-12 	7.763926e-09 	1.060121e-07 	4.583863e-08 	 
6.614999e+01 	4.494201e-13 	5.045254e-13 	5.550148e-12 	7.280811e-09 	1.278705e-07 	4.022108e-08 	 
6.697686e+01 	4.053018e-13 	3.358501e-13 	4.154289e-12 	8.165011e-09 	1.325301e-07 	4.554511e-08 	 
6.780374e+01 	4.058496e-13 	3.671780e-13 	5.019945e-12 	5.103560e-09 	1.404667e-07 	3.837784e-08 	 
6.863061e+01 	3.419859e-13 	5.003188e-13 	5.695621e-12 	3.883940e-09 	9.054617e-08 	3.206109e-08 	 
6.945749e+01 	3.228427e-13 	3.039169e-13 	3.212348e-12 	5.585900e-09 	7.142357e-08 	2.798645e-08 	 
7.028436e+01 	2.065035e-13 	1.922800e-13 	2.405794e-12 	4.132778e-09 	9.451470e-08 	2.183801e-08 	 
7.111124e+01 	2.201741e-13 	2.199670e-13 	3.281291e-12 	3.536316e-09 	7.285782e-08 	2.040494e-08 	 
7.193811e+01 	2.570759e-13 	2.351392e-13 	3.951042e-12 	3.995740e-09 	6.932242e-08 	2.761596e-08 	 
7.276499e+01 	1.964944e-13 	1.785294e-13 	3.223937e-12 	3.363483e-09 	7.932656e-08 	2.567922e-08 	 
7.359186e+01 	1.733790e-13 	1.493016e-13 	3.041460e-12 	2.679712e-09 	9.930639e-08 	2.271568e-08 	 
7.441874e+01 	1.631401e-13 	1.423709e-13 	2.349850e-12 	3.353873e-09 	8.378381e-08 	1.632964e-08 	 
7.524561e+01 	1.818281e-13 	2.231359e-13 	1.630664e-12 	3.131757e-09 	8.438966e-08 	1.815545e-08 	 
7.607249e+01 	1.203676e-12 	2.139912e-12 	4.183789e-12 	3.517873e-09 	7.488474e-08 	1.710515e-08 	 
7.689936e+01 	5.778596e-12 	9.810675e-12 	1.247140e-11 	4.396842e-09 	6.677186e-08 	1.603256e-08 	 
7.772624e+01 	1.152145e-11 	1.537861e-11 	1.452569e-11 	6.421798e-09 	5.461554e-08 	1.838775e-08 	 
7.855311e+01 	2.080724e-11 	1.664939e-11 	9.002329e-12 	1.219564e-08 	5.112403e-08 	1.606360e-08 	 
7.937999e+01 	1.928242e-11 	1.182899e-11 	6.558652e-12 	1.745470e-08 	5.885678e-08 	1.300593e-08 	 
8.020686e+01 	1.502087e-11 	7.280147e-12 	2.548129e-11 	1.943938e-08 	5.388953e-08 	1.249447e-08 	 
8.103374e+01 	1.561783e-11 	1.068751e-11 	5.124106e-11 	2.001871e-08 	5.583511e-08 	1.129755e-08 	 
8.186061e+01 	1.259829e-11 	1.959568e-11 	2.782153e-11 	2.372558e-08 	5.477702e-08 	8.863868e-09 	 
8.268749e+01 	9.058496e-12 	2.716149e-11 	1.415277e-11 	1.614019e-08 	4.344296e-08 	8.337286e-09 	 
8.351436e+01 	7.358683e-12 	1.415740e-11 	8.090215e-12 	7.479837e-09 	4.501126e-08 	8.271987e-09 	 
8.434124e+01 	9.046204e-12 	4.059559e-12 	3.916820e-12 	4.593776e-09 	4.815550e-08 	9.445993e-09 	 
8.516811e+01 	7.628886e-12 	1.312618e-12 	2.570034e-12 	4.496262e-09 	5.505025e-08 	8.868321e-09 	 
8.599499e+01 	3.260525e-12 	7.076890e-13 	1.707618e-12 	3.625530e-09 	5.160934e-08 	6.577749e-09 	 
8.682186e+01 	1.052933e-12 	1.983138e-13 	7.790152e-13 	2.670008e-09 	5.493099e-08 	6.036240e-09 	 
8.764874e+01 	7.025473e-13 	1.293362e-13 	5.957677e-13 	3.612169e-09 	3.835425e-08 	7.361352e-09 	 
8.847561e+01 	7.761605e-13 	1.299590e-13 	6.311132e-13 	3.605557e-09 	3.847030e-08 	6.561805e-09 	 
8.930249e+01 	5.915125e-13 	8.414734e-14 	5.526891e-13 	3.151232e-09 	3.827405e-08 	6.052543e-09 	 
9.012936e+01 	3.691141e-13 	6.612719e-14 	3.969055e-13 	2.732068e-09 	2.815313e-08 	5.753931e-09 	 
9.095624e+01 	2.961915e-13 	6.694795e-14 	4.387667e-13 	2.777211e-09 	3.596205e-08 	4.349541e-09 	 
9.178311e+01 	2.186702e-13 	5.184396e-14 	5.616627e-13 	3.161565e-09 	3.373711e-08 	3.848245e-09 	 
9.260999e+01 	1.308625e-13 	3.382004e-14 	6.104347e-13 	2.860124e-09 	2.341373e-08 	4.207628e-09 	 
9.343686e+01 	1.080054e-13 	2.901082e-14 	6.212313e-13 	2.339893e-09 	1.757678e-08 	3.311628e-09 	 
9.426374e+01 	7.285764e-14 	2.657102e-14 	4.842452e-13 	2.119057e-09 	2.518975e-08 	3.072814e-09 	 
9.509061e+01 	6.387219e-14 	2.240562e-14 	3.539980e-13 	2.345536e-09 	3.615122e-08 	3.168923e-09 	 
9.591749e+01 	6.589675e-14 	2.212185e-14 	4.232260e-13 	2.466709e-09 	2.928373e-08 	3.089224e-09 	 
9.674436e+01 	6.915672e-14 	2.114777e-14 	5.062611e-13 	2.664457e-09 	2.292822e-08 	3.268299e-09 	 
9.757124e+01 	5.196675e-14 	2.429400e-14 	3.614302e-13 	2.317622e-09 	2.097622e-08 	2.382185e-09 	 
9.839811e+01 	8.633529e-14 	2.555160e-14 	3.980645e-13 	2.088281e-09 	2.036528e-08 	2.584818e-09 	 
9.922499e+01 	2.184262e-13 	4.986747e-14 	4.778794e-13 	2.138786e-09 	2.438445e-08 	2.750389e-09 	 
1.000519e+02 	3.487324e-13 	6.693967e-14 	3.918738e-13 	2.255836e-09 	2.406284e-08 	2.608082e-09 	 
1.008787e+02 	4.458101e-13 	1.899386e-13 	5.501653e-13 	2.327643e-09 	2.486022e-08 	1.721298e-09 	 
1.017056e+02 	5.364402e-13 	7.195838e-13 	1.337670e-12 	1.944510e-09 	2.167423e-08 	2.282866e-09 	 
1.025325e+02 	5.633878e-13 	9.064256e-13 	1.507664e-12 	1.961742e-09 	1.667329e-08 	2.804376e-09 	 
1.033594e+02 	4.330851e-13 	7.529014e-13 	9.627542e-13 	1.654022e-09 	2.489914e-08 	1.774461e-09 	 
1.041862e+02 	5.585959e-13 	1.156073e-12 	1.335934e-12 	2.815797e-09 	2.309066e-08 	1.960923e-09 	 
1.050131e+02 	8.235307e-13 	1.368055e-12 	1.771381e-12 	4.841019e-09 	2.141954e-08 	2.223633e-09 	 
1.058400e+02 	8.516314e-13 	1.059909e-12 	2.480332e-12 	4.669756e-09 	2.135579e-08 	1.720541e-09 	 
1.066669e+02 	3.946933e-13 	3.669355e-13 	1.271913e-12 	1.973281e-09 	1.009523e-08 	5.939895e-10 	 
