x0	d00	x1	d01	x2	d02	x3	d03	x4	d04	x5	d05	x6	d06	x7	d07	x8	d08	x9	d09	x10	d10	x11	d11	x12	d12	x13	d13	x14	d14	x15	d15	x16	d16	x17	d17	x18	d18	x19	d19	
-4.717198e-01 	 3.939394e-03 	-4.717198e-01 	 4.066471e-03 	-4.717198e-01 	 4.447703e-03 	-4.717198e-01 	 4.828935e-03 	-4.717198e-01 	 5.591398e-03 	-4.717198e-01 	 6.226784e-03 	-4.717198e-01 	 6.480938e-03 	-4.717198e-01 	 6.989247e-03 	-4.717198e-01 	 7.751711e-03 	-4.717198e-01 	 8.387097e-03 	-4.717198e-01 	 8.641251e-03 	-4.717198e-01 	 8.387097e-03 	-4.717198e-01 	 8.260020e-03 	-4.717198e-01 	 7.751711e-03 	-4.717198e-01 	 8.260020e-03 	-4.717198e-01 	 8.260020e-03 	-4.717198e-01 	 8.387097e-03 	-4.717198e-01 	 8.132942e-03 	-4.717198e-01 	 8.132942e-03 	-4.717198e-01 	 8.132942e-03 	 
-4.660459e-01 	 5.845552e-03 	-4.660459e-01 	 6.099707e-03 	-4.660459e-01 	 6.480938e-03 	-4.660459e-01 	 7.243402e-03 	-4.660459e-01 	 8.260020e-03 	-4.660459e-01 	 9.276637e-03 	-4.660459e-01 	 9.784946e-03 	-4.660459e-01 	 1.029326e-02 	-4.660459e-01 	 1.156403e-02 	-4.660459e-01 	 1.258065e-02 	-4.660459e-01 	 1.296188e-02 	-4.660459e-01 	 1.270772e-02 	-4.660459e-01 	 1.245357e-02 	-4.660459e-01 	 1.156403e-02 	-4.660459e-01 	 1.270772e-02 	-4.660459e-01 	 1.232649e-02 	-4.660459e-01 	 1.258065e-02 	-4.660459e-01 	 1.207234e-02 	-4.660459e-01 	 1.232649e-02 	-4.660459e-01 	 1.207234e-02 	 
-4.590886e-01 	 8.514174e-03 	-4.590886e-01 	 8.768328e-03 	-4.590886e-01 	 9.403715e-03 	-4.590886e-01 	 1.067449e-02 	-4.590886e-01 	 1.194526e-02 	-4.590886e-01 	 1.334311e-02 	-4.590886e-01 	 1.410557e-02 	-4.590886e-01 	 1.486804e-02 	-4.590886e-01 	 1.690127e-02 	-4.590886e-01 	 1.855327e-02 	-4.590886e-01 	 1.906158e-02 	-4.590886e-01 	 1.893451e-02 	-4.590886e-01 	 1.842620e-02 	-4.590886e-01 	 1.728250e-02 	-4.590886e-01 	 1.893451e-02 	-4.590886e-01 	 1.855327e-02 	-4.590886e-01 	 1.868035e-02 	-4.590886e-01 	 1.791789e-02 	-4.590886e-01 	 1.817204e-02 	-4.590886e-01 	 1.779081e-02 	 
-4.507824e-01 	 1.181818e-02 	-4.507824e-01 	 1.219941e-02 	-4.507824e-01 	 1.296188e-02 	-4.507824e-01 	 1.474096e-02 	-4.507824e-01 	 1.652004e-02 	-4.507824e-01 	 1.842620e-02 	-4.507824e-01 	 1.956989e-02 	-4.507824e-01 	 2.058651e-02 	-4.507824e-01 	 2.427175e-02 	-4.507824e-01 	 2.617791e-02 	-4.507824e-01 	 2.681329e-02 	-4.507824e-01 	 2.694037e-02 	-4.507824e-01 	 2.655914e-02 	-4.507824e-01 	 2.465298e-02 	-4.507824e-01 	 2.706745e-02 	-4.507824e-01 	 2.554252e-02 	-4.507824e-01 	 2.668622e-02 	-4.507824e-01 	 2.528837e-02 	-4.507824e-01 	 2.566960e-02 	-4.507824e-01 	 2.490714e-02 	 
-4.410787e-01 	 1.550342e-02 	-4.410787e-01 	 1.626588e-02 	-4.410787e-01 	 1.690127e-02 	-4.410787e-01 	 1.931574e-02 	-4.410787e-01 	 2.185728e-02 	-4.410787e-01 	 2.414467e-02 	-4.410787e-01 	 2.681329e-02 	-4.410787e-01 	 2.757576e-02 	-4.410787e-01 	 3.291300e-02 	-4.410787e-01 	 3.545455e-02 	-4.410787e-01 	 3.913978e-02 	-4.410787e-01 	 3.748778e-02 	-4.410787e-01 	 3.812317e-02 	-4.410787e-01 	 3.494624e-02 	-4.410787e-01 	 3.685239e-02 	-4.410787e-01 	 3.558162e-02 	-4.410787e-01 	 3.685239e-02 	-4.410787e-01 	 3.532747e-02 	-4.410787e-01 	 3.494624e-02 	-4.410787e-01 	 3.418377e-02 	 
